<?xml version="1.0" encoding="UTF-8" standalone="no"?>
<!-- Created with Inkscape (http://www.inkscape.org/) -->

<svg
   xmlns:dc="http://purl.org/dc/elements/1.1/"
   xmlns:cc="http://creativecommons.org/ns#"
   xmlns:rdf="http://www.w3.org/1999/02/22-rdf-syntax-ns#"
   xmlns:svg="http://www.w3.org/2000/svg"
   xmlns="http://www.w3.org/2000/svg"
   xmlns:xlink="http://www.w3.org/1999/xlink"
   xmlns:sodipodi="http://sodipodi.sourceforge.net/DTD/sodipodi-0.dtd"
   xmlns:inkscape="http://www.inkscape.org/namespaces/inkscape"
   id="svg2"
   version="1.1"
   inkscape:version="0.92.2 2405546, 2018-03-11"
   width="2481"
   height="5000"
   sodipodi:docname="E26P07.svg">
  <metadata
     id="metadata8">
    <rdf:RDF>
      <cc:Work
         rdf:about="">
        <dc:format>image/svg+xml</dc:format>
        <dc:type
           rdf:resource="http://purl.org/dc/dcmitype/StillImage" />
        <dc:title></dc:title>
      </cc:Work>
    </rdf:RDF>
  </metadata>
  <defs
     id="defs6">
    <filter
       color-interpolation-filters="sRGB"
       inkscape:label="Drop Shadow"
       id="filter5546">
      <feFlood
         flood-opacity="1"
         flood-color="rgb(0,0,0)"
         result="flood"
         id="feFlood5548" />
      <feComposite
         in="flood"
         in2="SourceGraphic"
         operator="in"
         result="composite1"
         id="feComposite5550" />
      <feGaussianBlur
         in="composite1"
         stdDeviation="1"
         result="blur"
         id="feGaussianBlur5552" />
      <feOffset
         dx="2.5"
         dy="2.5"
         result="offset"
         id="feOffset5554" />
      <feComposite
         in="SourceGraphic"
         in2="offset"
         operator="over"
         result="composite2"
         id="feComposite5556" />
    </filter>
  </defs>
  <sodipodi:namedview
     pagecolor="#ffffff"
     bordercolor="#666666"
     borderopacity="1"
     objecttolerance="10"
     gridtolerance="10"
     guidetolerance="10"
     inkscape:pageopacity="0"
     inkscape:pageshadow="2"
     inkscape:window-width="1366"
     inkscape:window-height="715"
     id="namedview4"
     showgrid="false"
     inkscape:zoom="0.31068854"
     inkscape:cx="824.19854"
     inkscape:cy="3970.8035"
     inkscape:window-x="1592"
     inkscape:window-y="124"
     inkscape:window-maximized="1"
     inkscape:current-layer="layer2"
     inkscape:object-nodes="true"
     showguides="true"
     inkscape:guide-bbox="true">
    <sodipodi:guide
       position="1425.8203,4914.3274"
       orientation="0,1"
       id="guide4214"
       inkscape:locked="false" />
  </sodipodi:namedview>
  <g
     inkscape:groupmode="layer"
     id="layer1"
     inkscape:label="artwork"
     style="display:inline"
     transform="translate(0,1024)"
     sodipodi:insensitive="true">
    <image
       sodipodi:absref="/home/midgard/git/peppercarrot/comics/ep26_Books-Are-Great/lang/fa/../gfx_Pepper-and-Carrot_by-David-Revoy_E26P07.png"
       xlink:href="../gfx_Pepper-and-Carrot_by-David-Revoy_E26P07.png"
       y="-1023.3771"
       x="0.54707891"
       id="image4223"
       style="image-rendering:optimizeQuality"
       preserveAspectRatio="none"
       height="5000"
       width="2481" />
  </g>
  <g
     inkscape:groupmode="layer"
     id="layer3"
     inkscape:label="speechbubbles"
     style="display:inline"
     transform="translate(0,1024)" />
  <g
     inkscape:groupmode="layer"
     id="layer2"
     inkscape:label="text"
     style="display:inline;opacity:0.85500004"
     transform="translate(0,1024)">
    <text
       xml:space="preserve"
       style="font-style:normal;font-variant:normal;font-weight:normal;font-stretch:normal;line-height:0%;font-family:Midan;-inkscape-font-specification:Midan;text-align:center;letter-spacing:0px;word-spacing:0px;text-anchor:middle;display:inline;opacity:0.85500004;fill:#241c1c;fill-opacity:1;stroke:none"
       x="1106.4004"
       y="-498.48651"
       id="text4246-42-3"><tspan
         sodipodi:role="line"
         style="font-style:normal;font-variant:normal;font-weight:900;font-stretch:normal;font-size:53.33333206px;line-height:1.25;font-family:Midan;-inkscape-font-specification:'Midan Heavy';direction:rtl;fill:#241c1c;stroke:none"
         x="1106.4004"
         y="-498.48651"
         id="tspan4252-9-0"> www.peppercarrot.com</tspan></text>
    <text
       xml:space="preserve"
       style="font-style:normal;font-variant:normal;font-weight:normal;font-stretch:normal;line-height:0%;font-family:Arial;-inkscape-font-specification:Arial;text-align:center;letter-spacing:0px;word-spacing:0px;text-anchor:middle;display:inline;opacity:0.85500004;fill:#241c1c;fill-opacity:1;stroke:none"
       x="1240.2396"
       y="-553.31567"
       id="text4229-9"><tspan
         sodipodi:role="line"
         x="1240.2396"
         y="-553.31567"
         style="font-style:normal;font-variant:normal;font-weight:normal;font-stretch:normal;font-size:53.33333206px;line-height:1.25;font-family:Midan;-inkscape-font-specification:Midan;direction:rtl;fill:#241c1c;stroke:none"
         id="tspan4169-3"><tspan
   style="font-style:normal;font-variant:normal;font-weight:900;font-stretch:normal;font-size:48px;font-family:Midan;-inkscape-font-specification:'Midan Heavy'"
   id="tspan901">نرم افزار</tspan>: Krita 4.1, Inkscape 0.92.3 در Kubuntu 17.10</tspan></text>
    <text
       id="text4179-4"
       y="-899.48126"
       x="1240.3876"
       style="font-style:normal;font-variant:normal;font-weight:normal;font-stretch:normal;line-height:0%;font-family:Arial;-inkscape-font-specification:Arial;text-align:center;letter-spacing:0px;word-spacing:0px;text-anchor:middle;display:inline;opacity:0.85500004;fill:#241c1c;fill-opacity:1;stroke:none"
       xml:space="preserve"><tspan
         id="tspan4181-8"
         style="font-style:normal;font-variant:normal;font-weight:normal;font-stretch:normal;font-size:53.33333206px;line-height:1.25;font-family:Midan;-inkscape-font-specification:Midan;direction:rtl;fill:#241c1c;stroke:none"
         y="-899.48126"
         x="1240.3876"
         sodipodi:role="line"><tspan
   style="font-style:normal;font-variant:normal;font-weight:900;font-stretch:normal;font-size:42.66666667px;font-family:Midan;-inkscape-font-specification:'Midan Heavy'"
   id="tspan841">مجوز</tspan>: Creative Commons تخصیص 4.0</tspan></text>
    <text
       xml:space="preserve"
       style="font-style:normal;font-variant:normal;font-weight:normal;font-stretch:normal;line-height:0%;font-family:Arial;-inkscape-font-specification:Arial;text-align:center;letter-spacing:0px;word-spacing:0px;text-anchor:middle;display:inline;opacity:0.85500004;fill:#483e37;fill-opacity:1;stroke:none;filter:url(#filter4155)"
       x="1246.1125"
       y="-390.7886"
       id="text4162-3"><tspan
         sodipodi:role="line"
         x="1246.1125"
         y="-390.7886"
         style="font-style:normal;font-variant:normal;font-weight:normal;font-stretch:normal;font-size:53.33333206px;line-height:100%;font-family:Midan;-inkscape-font-specification:Midan;direction:rtl;fill:#483e37"
         id="tspan4166-6">فلفل و هویج به صورت کاملا رایگان و متن باز عرضه میشود.</tspan><tspan
         sodipodi:role="line"
         x="1246.1125"
         y="-337.45526"
         style="font-style:normal;font-variant:normal;font-weight:normal;font-stretch:normal;font-size:53.33333206px;line-height:100%;font-family:Midan;-inkscape-font-specification:Midan;direction:rtl;fill:#483e37"
         id="tspan4206">این وب کامیک با حمایت خوانندگان به کار خود ادامه میدهد.</tspan><tspan
         sodipodi:role="line"
         x="1246.1125"
         y="-284.12195"
         style="font-style:normal;font-variant:normal;font-weight:normal;font-stretch:normal;font-size:53.33333206px;line-height:100%;font-family:Midan;-inkscape-font-specification:Midan;direction:rtl;fill:#483e37"
         id="tspan4208">این قسمت از فلفل و هویج با حمایت ۱۰۹۸ حامی تهیه شدہ است.</tspan></text>
    <text
       xml:space="preserve"
       style="font-style:normal;font-variant:normal;font-weight:normal;font-stretch:normal;line-height:0%;font-family:Arial;-inkscape-font-specification:Arial;text-align:center;letter-spacing:0px;word-spacing:0px;text-anchor:middle;display:inline;opacity:0.85500004;fill:#483e37;fill-opacity:1;stroke:none;filter:url(#filter4155)"
       x="1239.5785"
       y="3828.9922"
       id="text4221"><tspan
         sodipodi:role="line"
         id="tspan4223"
         x="1239.5785"
         y="3828.9922"
         style="font-style:normal;font-variant:normal;font-weight:normal;font-stretch:normal;font-size:64px;line-height:1.25;font-family:Midan;-inkscape-font-specification:Midan;direction:rtl;fill:#483e37">شما هم می تونین با مراجعه به www.patreon.com/davidrevoy حامی قسمت بعدی فلفل و هویج باشین.</tspan></text>
    <text
       id="text4179-4-7"
       y="-859.23505"
       x="1240.322"
       style="font-style:normal;font-variant:normal;font-weight:normal;font-stretch:normal;line-height:0%;font-family:Arial;-inkscape-font-specification:Arial;text-align:center;letter-spacing:0px;word-spacing:0px;text-anchor:middle;display:inline;opacity:0.85500004;fill:#241c1c;fill-opacity:1;stroke:none"
       xml:space="preserve"><tspan
         id="tspan4181-8-4"
         style="font-style:normal;font-variant:normal;font-weight:normal;font-stretch:normal;font-size:53.33333206px;line-height:1.25;font-family:Midan;-inkscape-font-specification:Midan;direction:rtl;fill:#241c1c;stroke:none"
         y="-859.23505"
         x="1240.322"
         sodipodi:role="line"><tspan
   style="font-style:normal;font-variant:normal;font-weight:900;font-stretch:normal;font-size:42.66666794px;font-family:Midan;-inkscape-font-specification:'Midan Heavy'"
   id="tspan868">تصویرسازی و داستان</tspan>: دیوید ریوی. <tspan
   style="font-style:normal;font-variant:normal;font-weight:900;font-stretch:normal;font-size:45.33333206px;font-family:Midan;-inkscape-font-specification:'Midan Heavy'"
   id="tspan974">ترجمه</tspan>: اصلان زمانلو.</tspan></text>
    <text
       id="text4179-4-7-2"
       y="-813.41461"
       x="1241.0953"
       style="font-style:normal;font-variant:normal;font-weight:normal;font-stretch:normal;line-height:0%;font-family:Arial;-inkscape-font-specification:Arial;text-align:center;letter-spacing:0px;word-spacing:0px;text-anchor:middle;display:inline;opacity:0.85500004;fill:#241c1c;fill-opacity:1;stroke:none"
       xml:space="preserve"><tspan
         id="tspan4181-8-4-3"
         style="font-style:normal;font-variant:normal;font-weight:normal;font-stretch:normal;font-size:53.33333206px;line-height:1.25;font-family:Midan;-inkscape-font-specification:Midan;direction:rtl;fill:#241c1c;stroke:none"
         y="-813.41461"
         x="1241.0953"
         sodipodi:role="line"><tspan
   style="font-style:normal;font-variant:normal;font-weight:900;font-stretch:normal;font-size:42.66666794px;font-family:Midan;-inkscape-font-specification:'Midan Heavy'"
   id="tspan897">تصحیحات داستان</tspan>: کری مالونی.</tspan></text>
    <text
       xml:space="preserve"
       style="font-style:normal;font-variant:normal;font-weight:normal;font-stretch:normal;line-height:0%;font-family:Midan;-inkscape-font-specification:Midan;text-align:center;letter-spacing:0px;word-spacing:0px;text-anchor:middle;display:inline;opacity:0.85500004;fill:#241c1c;fill-opacity:1;stroke:none"
       x="1430.1731"
       y="-498.73398"
       id="text4246-42-3-2"><tspan
         sodipodi:role="line"
         style="font-style:normal;font-variant:normal;font-weight:900;font-stretch:normal;font-size:48px;line-height:1.25;font-family:Midan;-inkscape-font-specification:'Midan Heavy';direction:rtl;fill:#241c1c;stroke:none"
         x="1430.1731"
         y="-498.73398"
         id="tspan4252-9-0-6"> ۲۸ جولای ۲۰۱۸</tspan></text>
    <text
       id="text4179-4-7-2-2"
       y="-765.57172"
       x="1240.8846"
       style="font-style:normal;font-variant:normal;font-weight:normal;font-stretch:normal;line-height:0%;font-family:Arial;-inkscape-font-specification:Arial;text-align:center;letter-spacing:0px;word-spacing:0px;text-anchor:middle;display:inline;opacity:0.85500004;fill:#241c1c;fill-opacity:1;stroke:none"
       xml:space="preserve"><tspan
         id="tspan4181-8-4-3-0"
         style="font-style:normal;font-variant:normal;font-weight:normal;font-stretch:normal;font-size:53.33333206px;line-height:1.25;font-family:Midan;-inkscape-font-specification:Midan;direction:rtl;fill:#241c1c;stroke:none"
         y="-765.57172"
         x="1240.8846"
         sodipodi:role="line"><tspan
   style="font-style:normal;font-variant:normal;font-weight:900;font-stretch:normal;font-size:46.66666794px;font-family:Midan;-inkscape-font-specification:'Midan Heavy'"
   id="tspan944">نمونه خوانی</tspan>: کری مالونی و کالیمروتکنیک.</tspan></text>
    <text
       id="text4179-4-7-2-2-1"
       y="-714.72107"
       x="1240.0604"
       style="font-style:normal;font-variant:normal;font-weight:normal;font-stretch:normal;line-height:0%;font-family:Arial;-inkscape-font-specification:Arial;text-align:center;letter-spacing:0px;word-spacing:0px;text-anchor:middle;display:inline;opacity:0.85500004;fill:#241c1c;fill-opacity:1;stroke:none"
       xml:space="preserve"><tspan
         id="tspan4181-8-4-3-0-9"
         style="font-style:normal;font-variant:normal;font-weight:normal;font-stretch:normal;font-size:53.33333206px;line-height:1.25;font-family:Midan;-inkscape-font-specification:Midan;direction:rtl;fill:#241c1c;stroke:none"
         y="-714.72107"
         x="1240.0604"
         sodipodi:role="line"><tspan
   style="font-size:45.33333333px;-inkscape-font-specification:'Midan Heavy';font-family:Midan;font-weight:900;font-style:normal;font-stretch:normal;font-variant:normal"
   id="tspan980">خوانندگان اولیه</tspan>: امبرنایت، کری مالونی، کالیمروتکنیک، جوکیا، میدگارد، نارتانس، پوپولون، کویرالتا، والوین، ایکس هایر و زئوگراد.</tspan></text>
    <text
       id="text4179-4-7-2-2-1-6"
       y="-663.19061"
       x="1240.3833"
       style="font-style:normal;font-variant:normal;font-weight:normal;font-stretch:normal;line-height:0%;font-family:Arial;-inkscape-font-specification:Arial;text-align:center;letter-spacing:0px;word-spacing:0px;text-anchor:middle;display:inline;opacity:0.85500004;fill:#241c1c;fill-opacity:1;stroke:none"
       xml:space="preserve"><tspan
         id="tspan4181-8-4-3-0-9-3"
         style="font-style:normal;font-variant:normal;font-weight:normal;font-stretch:normal;font-size:53.33333206px;line-height:1.25;font-family:Midan;-inkscape-font-specification:Midan;direction:rtl;fill:#241c1c;stroke:none"
         y="-663.19061"
         x="1240.3833"
         sodipodi:role="line"><tspan
   style="font-style:normal;font-variant:normal;font-weight:900;font-stretch:normal;font-size:45.33333206px;font-family:Midan;-inkscape-font-specification:'Midan Heavy'"
   id="tspan1009">بر اساس جهان هروا</tspan>. <tspan
   style="font-style:normal;font-variant:normal;font-weight:900;font-stretch:normal;font-size:45.33333206px;font-family:Midan;-inkscape-font-specification:'Midan Heavy'"
   id="tspan1015">طراحی</tspan>: دیوید ریوی. <tspan
   style="font-style:normal;font-variant:normal;font-weight:900;font-stretch:normal;font-size:45.33333206px;font-family:Midan;-inkscape-font-specification:'Midan Heavy'"
   id="tspan1019">نگهداری</tspan>: کری مالونی. <tspan
   style="font-style:normal;font-variant:normal;font-weight:900;font-stretch:normal;font-size:45.33333206px;font-family:Midan;-inkscape-font-specification:'Midan Heavy'"
   id="tspan1023">نویسندگان</tspan>: کری مالونی، نارتانس، اسکیریبل مانیاک، والوین.</tspan></text>
    <text
       xml:space="preserve"
       style="font-style:normal;font-variant:normal;font-weight:normal;font-stretch:normal;line-height:0%;font-family:Arial;-inkscape-font-specification:Arial;text-align:center;letter-spacing:0px;word-spacing:0px;text-anchor:middle;display:inline;opacity:0.85500004;fill:#241c1c;fill-opacity:1;stroke:none"
       x="1240.7859"
       y="-608.45758"
       id="text4229-9-2"><tspan
         sodipodi:role="line"
         x="1240.7859"
         y="-608.45758"
         style="font-style:normal;font-variant:normal;font-weight:normal;font-stretch:normal;font-size:53.33333206px;line-height:1.25;font-family:Midan;-inkscape-font-specification:Midan;direction:rtl;fill:#241c1c;stroke:none"
         id="tspan4169-3-4"><tspan
   style="font-style:normal;font-variant:normal;font-weight:900;font-stretch:normal;font-size:45.33333206px;font-family:Midan;-inkscape-font-specification:'Midan Heavy'"
   id="tspan1052">تصحیحات</tspan>: ویلیام سونکه، موئینی، هالی، سیگند، الکس گرایسون</tspan></text>
  </g>
</svg>
