<?xml version="1.0" encoding="UTF-8" standalone="no"?>
<!-- Created with Inkscape (http://www.inkscape.org/) -->

<svg
   xmlns:dc="http://purl.org/dc/elements/1.1/"
   xmlns:cc="http://creativecommons.org/ns#"
   xmlns:rdf="http://www.w3.org/1999/02/22-rdf-syntax-ns#"
   xmlns:svg="http://www.w3.org/2000/svg"
   xmlns="http://www.w3.org/2000/svg"
   xmlns:xlink="http://www.w3.org/1999/xlink"
   xmlns:sodipodi="http://sodipodi.sourceforge.net/DTD/sodipodi-0.dtd"
   xmlns:inkscape="http://www.inkscape.org/namespaces/inkscape"
   id="svg2"
   version="1.1"
   inkscape:version="0.92.2 5c3e80d, 2017-08-06"
   width="2481"
   height="3503"
   sodipodi:docname="E14P03.svg">
  <metadata
     id="metadata8">
    <rdf:RDF>
      <cc:Work
         rdf:about="">
        <dc:format>image/svg+xml</dc:format>
        <dc:type
           rdf:resource="http://purl.org/dc/dcmitype/StillImage" />
        <dc:title />
      </cc:Work>
    </rdf:RDF>
  </metadata>
  <defs
     id="defs6" />
  <sodipodi:namedview
     pagecolor="#ffffff"
     bordercolor="#666666"
     borderopacity="1"
     objecttolerance="10"
     gridtolerance="10"
     guidetolerance="10"
     inkscape:pageopacity="0"
     inkscape:pageshadow="2"
     inkscape:window-width="1920"
     inkscape:window-height="1015"
     id="namedview4"
     showgrid="false"
     inkscape:zoom="0.80454291"
     inkscape:cx="914.73278"
     inkscape:cy="1142.7284"
     inkscape:window-x="0"
     inkscape:window-y="41"
     inkscape:window-maximized="1"
     inkscape:current-layer="layer1" />
  <g
     inkscape:groupmode="layer"
     id="layer2"
     inkscape:label="artwork"
     sodipodi:insensitive="true">
    <image
       sodipodi:absref="/home/nightlock/peppercarrot/webcomics/ep14_The-Dragon-s-Tooth/lang/kr/../gfx_Pepper-and-Carrot_by-David-Revoy_E14P03.png"
       xlink:href="../gfx_Pepper-and-Carrot_by-David-Revoy_E14P03.png"
       width="2481"
       height="3503"
       id="image10"
       x="0"
       y="0" />
  </g>
  <g
     inkscape:groupmode="layer"
     id="layer3"
     inkscape:label="speechbubbles"
     style="display:inline">
    <path
       style="color:#000000;display:inline;overflow:visible;visibility:visible;fill:#ffffff;fill-opacity:1;fill-rule:nonzero;stroke:none;stroke-width:0.84225839px;marker:none;enable-background:accumulate"
       d="m 1210.8696,413.59445 c 31.3108,-49.03601 92.7395,-73.87848 237.3967,-64.53659 92.7591,5.99033 146.0006,24.38523 187.8962,52.28744 19.7889,13.17928 37.5079,82.03338 16.4227,134.60319 -21.0852,52.56979 -86.9856,104.82665 -228.2701,90.42224 -141.2842,-14.40453 -141.3472,-16.38148 -162.023,-28.86162 -39.2818,-23.71077 -82.7334,-134.87861 -51.4225,-183.91466 z"
       id="path4530"
       inkscape:connector-curvature="0"
       sodipodi:nodetypes="zsssssz" />
    <path
       style="color:#000000;display:inline;overflow:visible;visibility:visible;fill:#ffffff;fill-opacity:1;fill-rule:nonzero;stroke:none;stroke-width:1px;marker:none;enable-background:accumulate"
       d="m 1137.6398,239.35393 c -5.2171,18.04469 -34.6427,19.55781 -45.4751,15.88991 21.8355,20.18631 21.0743,32.72839 -8.5723,34.67578 49.7178,36.381 9.0891,30.8757 1.0754,40.10089 39.0377,12.53769 21.5718,28.14117 14.6217,43.67415 44.87,0.53354 30.1861,25.43239 32.0773,45.26274 3.8039,-9.30528 21.8751,-37.63467 22.9624,-6.0918 29.6789,-30.0936 65.4263,-49.53257 68.2648,3.13136 11.9581,-26.49378 23.8803,-37.69113 22.9624,-6.0918 29.6284,-41.09892 56.2536,-26.30524 83.0367,-14.68913 7.0344,-12.40463 7.8541,-31.46172 30.6121,-26.9958 -3.1909,-12.29521 4.4931,-20.74689 21.8463,-25.76585 -23.0596,-7.42718 -27.3094,-15.08815 15.5071,-23.33253 -32.5809,-0.79746 -62.9628,-2.43129 -24.7383,-30.54704 -11.9921,-0.68032 -40.4445,22.78023 -27.1789,-45.87759 -20.621,21.97976 -42.6218,34.11104 -70.2128,-11.93096 -13.0574,23.00167 -35.7052,34.38382 -45.5582,5.6529 -3.5413,12.2485 -18.2256,16.85495 -30.6915,17.41359 -4.8206,-4.86535 -9.7925,-11.4737 -14.9808,-20.13172 -8.48,18.17954 -21.1651,30.4572 -45.5583,5.6529 z"
       id="path3549-3-7"
       inkscape:connector-curvature="0"
       sodipodi:nodetypes="cccccccccccccccccccc" />
    <path
       style="fill:#ffffff;fill-rule:evenodd;stroke:none;stroke-width:1px;stroke-linecap:butt;stroke-linejoin:miter;stroke-opacity:1"
       d="m 1497.7176,575.15777 c 39.3706,13.96771 -22.485,68.10223 -9.329,82.54185 9.0819,9.96796 46.6601,-7.96729 81.4034,37.57991 -40.7385,-30.89398 -73.2809,-5.93721 -92.7166,-17.39889 -36.9131,-21.76848 1.4853,-61.31653 3.4361,-70.97465 2.6091,-12.9174 17.2061,-31.74822 17.2061,-31.74822 z"
       id="path4186"
       inkscape:connector-curvature="0"
       sodipodi:nodetypes="cscssc" />
    <path
       style="fill:#ffffff;fill-rule:evenodd;stroke:none;stroke-width:1px;stroke-linecap:butt;stroke-linejoin:miter;stroke-opacity:1"
       d="m 753.09574,2276.947 c -27.19224,-20.5338 -42.99463,-54.6914 -41.0873,-88.6975 0.0253,-5.2064 -0.52257,-11.8857 2.08026,-3.3284 2.42629,5.9709 9.87286,20.1787 12.9156,18.5545 -1.74181,-13.1135 -0.38049,-26.1845 1.42097,-39.1432 1.17884,-13.5542 10.39123,16.2867 15.87187,4.5111 -2.96352,-5.0072 -1.69992,-17.7446 3.6961,-6.6971 7.31381,9.2574 9.21416,0.1878 10.87078,-4.6823 7.37286,6.4364 9.15991,1.4279 12.09715,-3.2497 6.12014,4.1974 11.03004,3.8604 13.62468,-2.7509 9.42367,0.084 21.79648,6.9231 23.61264,-7.7597 4.54975,-6.8921 8.88908,8.6515 16.65288,4.1899 15.65105,-1.7329 31.1823,2.2501 46.79694,2.9293 13.11927,1.6936 23.2963,11.1458 33.56853,18.0046 -1.00207,-5.0952 -1.83167,-10.3441 4.99616,-5.2944 6.04122,-0.1228 -8.23274,-19.7418 2.30743,-8.345 13.40277,13.5474 22.03889,30.8562 33.1395,46.1992 9.95581,16.0715 22.97456,30.316 30.23541,48.0237 6.24153,13.7196 11.29652,28.4669 13.74293,43.1501 -2.3268,-5.4538 -11.71817,-17.2448 -10.72236,-4.0771 0.64554,5.8857 -2.61986,24.5969 -7.99617,12.9067 -5.36979,-3.1528 -8.02155,4.9547 -9.64713,-3.7971 -2.61641,-5.7165 -12.91236,-24.2439 -11.52146,-7.7934 -0.24092,6.6123 -0.39269,23.3456 -8.52773,22.6672 -0.71199,-6.4256 -4.35073,-6.7929 -7.47545,-2.8639 -3.47854,-4.1084 -6.67276,-6.4414 -10.54004,-3.8523 -8.49033,-6.1108 -19.90508,-6.7229 -28.50692,-0.5055 -9.56444,4.3212 -12.5154,18.0916 -24.75613,15.2535 -9.1367,1.5914 -13.94739,12.0362 -23.47555,6.8114 -8.58247,3.7439 -27.16495,-8.6096 -36.05026,-11.8301 -3.29947,-1.4401 -11.62277,-8.8856 -11.3785,-0.7559 -6.43774,2.3897 -16.91188,-8.2393 -17.26469,-5.4782 1.82413,10.9946 -7.96044,0.5298 -10.48773,-2.6166 -6.62097,-9.4733 -14.84659,-18.3884 -18.19241,-29.6829 z"
       id="path4197"
       inkscape:connector-curvature="0"
       sodipodi:nodetypes="cccccccccccccccccccccccccccccccccc" />
    <path
       style="fill:#ffffff;fill-rule:evenodd;stroke:none;stroke-width:0.88919985"
       d="m 655.71365,2339.5561 c -17.95181,13.102 -7.88993,31.7641 -4.02787,46.9546 -0.78972,10.366 17.57845,25.3032 15.57416,30.165 -7.21475,-3.9449 -17.98908,-8.0481 -10.102,1.5429 10.0319,27.208 40.15124,49.0034 71.60263,67.3888 9.6409,4.0716 39.24557,16.7431 37.16783,7.8338 18.05024,7.1615 39.59756,10.1726 60.12426,12.9353 23.2136,-0.4567 45.82297,2.8568 67.02707,8.8585 21.18136,3.894 44.41079,9.5592 66.24797,4.3499 -8.57674,-18.5774 28.28246,-1.1898 42.058,-7.8047 12.3214,2.6788 43.2785,-2.1357 64.0517,-5.0881 20.7858,-3.0745 41.4399,-7.4128 60.5369,-13.5342 13.344,0.513 35.7139,-3.8261 50.0218,-14.2053 12.4803,2.5036 27.7058,-33.3853 23.4612,-41.1143 -3.3644,-12.8978 -1.8657,-27.18 -5.9053,-37.3271 -1.997,-12.0708 -18.76,-18.5183 -24.6379,-29.9635 -13.878,-20.2766 -39.0729,-36.4814 -69.2157,-47.1482 -25.1131,-8.8885 -51.6488,-17.7554 -80.1469,-20.8204 -18.5871,-0.3335 15.9303,12.9792 -7.1188,5.8658 -17.4276,-7.5495 2.3551,9.6936 -11.0725,2.5277 -7.54412,-5.6356 -22.96577,-10.3263 -17.20129,1.9798 -0.92588,4.9111 -7.34333,0.8755 -11.32524,5.2096 -19.93181,-7.7794 -42.31986,-1.9586 -64.27164,-1.8577 -12.09945,-0.9186 -30.84932,4.6585 -36.40506,-5.3731 0.10893,12.1555 -19.04633,0.4202 -21.07068,12.2523 -9.14413,-3.0566 -24.2477,-10.0302 -25.84868,1.099 -15.28777,9.481 -36.47274,-8.2395 -46.11501,-4.4112 5.40502,18.7889 -21.049,2.7703 -30.7739,-1.6182 -2.09311,20.8391 -33.88855,-4.0104 -47.70874,-0.8907 14.7217,11.9237 -4.93413,22.9897 -23.91662,15.0407 8.9958,19.0628 -9.41126,4.391 -21.00969,7.153 z"
       id="path4236"
       inkscape:connector-curvature="0"
       sodipodi:nodetypes="ccccccccccccccccccccccccccccccc" />
    <path
       style="color:#000000;display:inline;overflow:visible;visibility:visible;fill:#ffffff;fill-opacity:1;fill-rule:nonzero;stroke:none;stroke-width:1px;marker:none;enable-background:accumulate"
       d="m 1181.2565,2384.8843 c 71.2625,-32.4224 174.9357,-46.5343 183.7112,99.2131 42.8576,28.8431 84.7314,17.5004 117.4338,154.3432 -31.7764,-75.6266 -60.5224,-102.3764 -138.8525,-144.9574 -12.7089,-74.1482 -76.4453,-109.0649 -157.2325,-50.6415 -80.7874,58.4235 -47.4492,-14.6057 -47.4492,-14.6057 l 18.2401,-27.146 z"
       id="path5074"
       inkscape:connector-curvature="0"
       sodipodi:nodetypes="ccccsccc" />
  </g>
  <g
     inkscape:groupmode="layer"
     id="layer1"
     inkscape:label="txt"
     style="display:inline">
    <text
       id="text60"
       y="341.37277"
       x="1225.1128"
       style="font-style:normal;font-variant:normal;font-weight:normal;font-stretch:normal;font-size:17.21704102px;line-height:100%;font-family:'Nanum Pen Script OTF';-inkscape-font-specification:'Nanum Pen Script OTF';text-align:center;letter-spacing:0px;word-spacing:0px;text-anchor:middle;fill:#000000;fill-opacity:1;stroke:none;stroke-width:1.43475342"
       xml:space="preserve"><tspan
         id="tspan58"
         y="341.37277"
         x="1225.1128"
         style="font-style:normal;font-variant:normal;font-weight:normal;font-stretch:normal;font-size:64.56390381px;line-height:100%;font-family:'Nanum Pen Script OTF';-inkscape-font-specification:'Nanum Pen Script OTF';stroke-width:1.43475342"
         sodipodi:role="line">하하!</tspan></text>
    <text
       id="text72"
       y="422.78171"
       x="1427.9006"
       style="font-style:normal;font-variant:normal;font-weight:normal;font-stretch:normal;font-size:14.92477226px;line-height:100%;font-family:'Nanum Pen Script OTF';-inkscape-font-specification:'Nanum Pen Script OTF';text-align:center;letter-spacing:0px;word-spacing:0px;text-anchor:middle;fill:#000000;fill-opacity:1;stroke:none;stroke-width:1.24373102"
       xml:space="preserve"><tspan
         id="tspan62"
         y="422.78171"
         x="1427.9006"
         style="font-style:normal;font-variant:normal;font-weight:normal;font-stretch:normal;font-size:55.96789551px;line-height:100%;font-family:'Nanum Pen Script OTF';-inkscape-font-specification:'Nanum Pen Script OTF';stroke-width:1.24373102"
         sodipodi:role="line">유후 !</tspan><tspan
         y="478.7496"
         x="1435.7164"
         style="font-style:normal;font-variant:normal;font-weight:normal;font-stretch:normal;font-size:55.96789551px;line-height:100%;font-family:'Nanum Pen Script OTF';-inkscape-font-specification:'Nanum Pen Script OTF';stroke-width:1.24373102"
         sodipodi:role="line"
         id="tspan101">이거 생각보다 조금 더 </tspan><tspan
         y="534.71747"
         x="1427.9006"
         style="font-style:normal;font-variant:normal;font-weight:normal;font-stretch:normal;font-size:55.96789551px;line-height:100%;font-family:'Nanum Pen Script OTF';-inkscape-font-specification:'Nanum Pen Script OTF';stroke-width:1.24373102"
         sodipodi:role="line"
         id="tspan109">복잡할 것 같아</tspan><tspan
         y="590.68542"
         x="1427.9006"
         style="font-style:normal;font-variant:normal;font-weight:normal;font-stretch:normal;font-size:55.96789551px;line-height:100%;font-family:'Nanum Pen Script OTF';-inkscape-font-specification:'Nanum Pen Script OTF';stroke-width:1.24373102"
         sodipodi:role="line"
         id="tspan113">보이는걸!</tspan></text>
    <text
       transform="scale(0.99940856,1.0005918)"
       id="text76"
       y="2259.8018"
       x="844.6225"
       style="font-style:normal;font-variant:normal;font-weight:normal;font-stretch:normal;font-size:14.35210228px;line-height:100%;font-family:'Nanum Pen Script OTF';-inkscape-font-specification:'Nanum Pen Script OTF';text-align:center;letter-spacing:0px;word-spacing:0px;text-anchor:middle;fill:#000000;fill-opacity:1;stroke:none;stroke-width:1.19600856"
       xml:space="preserve"><tspan
         id="tspan74"
         y="2259.8018"
         x="844.6225"
         style="font-style:normal;font-variant:normal;font-weight:normal;font-stretch:normal;font-size:65.3650589px;line-height:100%;font-family:'Nanum Pen Script OTF';-inkscape-font-specification:'Nanum Pen Script OTF';stroke-width:1.19600856"
         sodipodi:role="line">푸흡!</tspan></text>
    <text
       id="text84"
       y="2404.8906"
       x="928.77356"
       style="font-style:normal;font-variant:normal;font-weight:normal;font-stretch:normal;font-size:15.5038805px;line-height:100%;font-family:'Nanum Pen Script OTF';-inkscape-font-specification:'Nanum Pen Script OTF';text-align:center;letter-spacing:0px;word-spacing:0px;text-anchor:middle;fill:#000000;fill-opacity:1;stroke:none;stroke-width:1.29199004"
       xml:space="preserve"><tspan
         id="tspan82"
         y="2404.8906"
         x="928.77356"
         style="font-style:normal;font-variant:normal;font-weight:normal;font-stretch:normal;font-size:58.13955307px;line-height:100%;font-family:'Nanum Pen Script OTF';-inkscape-font-specification:'Nanum Pen Script OTF';stroke-width:1.29199004"
         sodipodi:role="line">... 그래도 공기 용은</tspan><tspan
         y="2463.0303"
         x="928.77356"
         style="font-style:normal;font-variant:normal;font-weight:normal;font-stretch:normal;font-size:58.13955307px;line-height:100%;font-family:'Nanum Pen Script OTF';-inkscape-font-specification:'Nanum Pen Script OTF';stroke-width:1.29199004"
         sodipodi:role="line"
         id="tspan120">그나마 쉬울 줄 알았는데!</tspan></text>
  </g>
</svg>
