<?xml version="1.0" encoding="UTF-8" standalone="no"?>
<!-- Created with Inkscape (http://www.inkscape.org/) -->

<svg
   xmlns:dc="http://purl.org/dc/elements/1.1/"
   xmlns:cc="http://creativecommons.org/ns#"
   xmlns:rdf="http://www.w3.org/1999/02/22-rdf-syntax-ns#"
   xmlns:svg="http://www.w3.org/2000/svg"
   xmlns="http://www.w3.org/2000/svg"
   xmlns:xlink="http://www.w3.org/1999/xlink"
   xmlns:sodipodi="http://sodipodi.sourceforge.net/DTD/sodipodi-0.dtd"
   xmlns:inkscape="http://www.inkscape.org/namespaces/inkscape"
   id="svg2"
   version="1.1"
   inkscape:version="0.92.2 5c3e80d, 2017-08-06"
   width="2481"
   height="3503"
   sodipodi:docname="E14P04.svg">
  <metadata
     id="metadata8">
    <rdf:RDF>
      <cc:Work
         rdf:about="">
        <dc:format>image/svg+xml</dc:format>
        <dc:type
           rdf:resource="http://purl.org/dc/dcmitype/StillImage" />
        <dc:title />
      </cc:Work>
    </rdf:RDF>
  </metadata>
  <defs
     id="defs6" />
  <sodipodi:namedview
     pagecolor="#ffffff"
     bordercolor="#666666"
     borderopacity="1"
     objecttolerance="10"
     gridtolerance="10"
     guidetolerance="10"
     inkscape:pageopacity="0"
     inkscape:pageshadow="2"
     inkscape:window-width="1920"
     inkscape:window-height="1015"
     id="namedview4"
     showgrid="false"
     inkscape:zoom="1.9676015"
     inkscape:cx="698.4271"
     inkscape:cy="1330.6437"
     inkscape:window-x="0"
     inkscape:window-y="41"
     inkscape:window-maximized="1"
     inkscape:current-layer="layer3"
     showguides="false" />
  <g
     inkscape:groupmode="layer"
     id="layer2"
     inkscape:label="artwork"
     sodipodi:insensitive="true">
    <image
       sodipodi:absref="/home/nightlock/peppercarrot/webcomics/ep14_The-Dragon-s-Tooth/lang/kr/../gfx_Pepper-and-Carrot_by-David-Revoy_E14P04.png"
       xlink:href="../gfx_Pepper-and-Carrot_by-David-Revoy_E14P04.png"
       y="0"
       x="0"
       id="image10"
       height="3503"
       width="2481" />
  </g>
  <g
     inkscape:groupmode="layer"
     id="layer3"
     inkscape:label="speechbubbles">
    <path
       style="color:#000000;display:inline;overflow:visible;visibility:visible;fill:#ffffff;fill-opacity:1;fill-rule:nonzero;stroke:none;stroke-width:1px;marker:none;enable-background:accumulate"
       d="m 1624.3083,426.07275 c 10.5479,-20.326 55.0295,-17.6728 70.7719,-11.75341 -29.8179,-26.89811 -26.7953,-41.4565 18.0836,-39.27815 -69.3273,-50.03545 -9.0474,-37.4874 4.3862,-47.07518 -56.8344,-20.53598 -28.2304,-36.16477 -15.4523,-53.29185 -67.4031,-7.3692 -41.5914,-34.29072 -41.467,-57.77429 -7.1139,10.31432 -38.5335,40.73998 -35.4467,3.67491 -49.1411,30.74469 -105.8142,48.1124 -102.199,-13.92516 -21.9509,29.19715 -41.5578,40.50459 -35.4468,3.67491 -50.7129,43.62724 -88.5417,22.31788 -127.0835,4.70221 -12.4366,13.45458 -16.5223,35.62602 -50.081,26.98031 2.9584,14.86369 -9.8635,23.59611 -36.7135,26.85913 33.569,12.15538 38.8137,21.7567 -26.8152,24.96534 48.8812,5.83063 94.3299,12.30915 32.6325,39.45537 17.9337,2.5986 64.2375,-20.57052 34.0078,57.75726 34.3039,-22.61401 69.2086,-33.499 103.8116,24.51255 23.0815,-24.94651 58.8471,-34.85784 69.3644,0.23525 7.1597,-13.79701 29.934,-16.97865 48.7659,-15.75827 6.5216,6.41655 13.0098,14.89498 19.5168,25.80383 15.4752,-19.99328 36.3912,-32.44989 69.3643,0.23524 z"
       id="path3549-3-7"
       inkscape:connector-curvature="0"
       sodipodi:nodetypes="cccccccccccccccccccc" />
    <path
       style="fill:#ffffff;fill-rule:evenodd;stroke:none;stroke-width:1px;stroke-linecap:butt;stroke-linejoin:miter;stroke-opacity:1"
       d="m 1508.6164,400.32557 c -15.3152,-2.75755 -29.2942,5.52359 -42.1829,12.07893 -8.2999,3.93838 -17.2007,7.60882 -22.8974,14.87533 -5.6251,5.73841 -7.5735,15.9276 -0.2658,21.24242 5.2004,2.76075 12.724,7.97375 7.839,14.25838 -2.8138,5.32331 -10.4066,7.01313 -11.6472,13.1085 -3.0261,8.49796 4.5095,16.17783 12.2891,19.25645 5.7655,2.03439 11.0919,2.80096 11.8596,9.29875 5.8761,9.76609 18.8133,11.34577 29.558,12.19411 9.2239,0.44992 18.5328,1.81986 27.6625,-0.24661 10.2363,-1.707 22.5885,-4.58685 31.0346,2.99641 14.8586,8.48643 32.8244,10.30023 49.8811,11.07215 8.5829,0.0565 17.2602,0.95629 25.7889,0.12757 18.0132,-2.8175 36.4342,-3.75591 54.5921,-1.71264 18.9401,-0.095 32.6432,-16.69364 51.6866,-16.25915 15.6838,-3.33988 33.1081,-6.59382 44.206,-18.5539 4.8379,-4.36517 4.512,-11.66902 10.6928,-14.45037 4.7395,-6.16102 -1.8469,-14.45989 -8.6486,-15.99606 -6.5873,-0.32119 5.8595,-2.213 7.1975,-5.01905 6.8047,-4.59011 11.6663,-14.65891 5.2166,-21.34731 -14.5154,-12.80871 -36.5518,-13.59931 -51.1438,-26.36988 -12.148,-5.50852 -25.0631,1.08434 -37.383,2.33379 -6.0699,-1.26427 -8.6596,-10.50793 -16.2784,-11.5648 -9.7782,-3.81615 -20.5731,-3.95541 -30.9917,-4.03777 -10.0959,6.39721 -22.905,3.94985 -33.5658,0.29467 -9.3038,-3.10334 -19.2273,-5.53554 -29.1108,-3.50688 -7.2854,0.53179 -15.5709,3.98461 -22.3974,1.19596 -9.6036,-7.44542 -22.752,-3.72347 -34.0568,-4.54728 -7.7689,-2.01053 -14.8655,2.57428 -21.7164,5.36572 -2.7392,1.11665 -11.3006,5.89786 -2.083,3.91252"
       id="path4220"
       inkscape:connector-curvature="0" />
    <path
       style="color:#000000;display:inline;overflow:visible;visibility:visible;fill:#ffffff;fill-opacity:1;fill-rule:nonzero;stroke:none;stroke-width:0.89190561px;marker:none;enable-background:accumulate"
       d="m 1280.8534,587.54325 c 21.2486,-32.88706 65.9441,-60.54209 124.561,-71.75359 58.617,-11.2115 167.0584,-8.2218 186.109,-4.48458 19.0504,3.73713 123.8282,17.19089 146.5422,35.87675 22.7142,18.68586 53.4881,41.85631 60.0825,65.77411 6.5945,23.9179 0.7327,81.47029 -20.5159,94.17668 -21.2487,12.7064 -117.9667,40.36143 -174.3856,41.85623 -56.4188,1.49488 -187.5742,-10.46406 -224.9425,-18.68578 -37.3683,-8.22181 -76.9348,-18.68587 -88.6581,-44.846 -11.7235,-26.16023 -33.7048,-60.54218 -8.7926,-97.91382 z"
       id="path3533"
       inkscape:connector-curvature="0" />
    <path
       style="color:#000000;display:inline;overflow:visible;visibility:visible;fill:#ffffff;fill-opacity:1;fill-rule:nonzero;stroke:none;stroke-width:0.96504104px;marker:none;filter:url(#filter4386);enable-background:accumulate"
       d="m 1678.4528,564.02667 c 30.5923,48.77542 -103.4044,88.33321 -110.4621,116.83839 -2.3684,9.56523 -5.582,30.01238 0.4801,39.51444 10.2279,16.03237 39.4486,17.83253 -24.0871,102.31848 -15.4603,18.5517 12.0481,53.03839 47.151,62.30536 28.0513,15.92674 -7.3932,114.66569 -37.4741,160.76576 43.7979,-39.7367 77.2922,-138.78451 64.215,-130.52816 4.5835,-33.09574 -13.701,-41.04694 -23.5467,-49.55813 -9.8457,-8.51125 -29.5569,-13.95335 -28.3948,-28.0031 1.1623,-14.05063 39.8018,-54.24248 44.8599,-79.67918 5.0578,-25.43595 -22.1531,-40.10117 -16.0064,-63.39215 6.1465,-23.29107 83.9624,-53.27082 102.0984,-74.42614 20.9522,-21.78622 25.1007,-56.71856 25.1007,-56.71856 z"
       id="path3153"
       inkscape:connector-curvature="0"
       sodipodi:nodetypes="cssccccscssccc" />
    <path
       style="color:#000000;display:inline;overflow:visible;visibility:visible;fill:#ffffff;fill-opacity:1;fill-rule:nonzero;stroke:none;stroke-width:1px;marker:none;enable-background:accumulate"
       d="m 1468.0466,926.34512 c 0.7421,-48.54939 15.1995,-94.46231 143.3615,-92.87344 96.0964,1.19134 121.6874,38.59757 123.8165,87.67122 1.5005,34.58313 -50.4883,66.59398 -133.0517,64.89829 -78.9147,-1.62074 -128.3552,-22.67233 -134.1263,-59.69607 z"
       id="path5026"
       inkscape:connector-curvature="0"
       sodipodi:nodetypes="csssc" />
    <path
       style="color:#000000;display:inline;overflow:visible;visibility:visible;fill:#ffffff;fill-opacity:1;fill-rule:nonzero;stroke:none;stroke-width:0.87420422px;marker:none;enable-background:accumulate"
       d="m 202.08269,1951.4275 c 10.52893,-36.0965 32.48033,-73.7888 232.91894,-66.4321 200.43863,7.3568 245.11196,39.978 245.58912,77.4473 0.62503,49.0826 -51.73571,56.8519 -81.1353,62.7502 -29.39946,5.8983 -98.20547,12.1807 -147.67628,13.7367 -26.59939,0.8368 -187.80969,-5.7353 -217.96914,-24.6697 -30.05191,-18.8668 -34.58782,-36.8565 -31.72734,-62.8324 z"
       id="path3365"
       inkscape:connector-curvature="0"
       sodipodi:nodetypes="csssssc" />
    <path
       style="fill:#ffffff;stroke:none;stroke-width:0.81137502"
       d="m 785.80597,2241.9425 c -7.39916,66.3977 -112.02898,76.667 -160.32975,78.6293 -48.30072,1.9623 -176.76243,10.5259 -220.28419,-45.014 -43.52177,-55.5397 -24.40604,-81.0167 3.89786,-108.0814 24.13654,-23.0799 80.88149,-34.2459 130.5535,-39.7119 61.67772,-6.7873 164.07672,8.9893 206.84096,37.3939 22.80568,15.1477 46.72083,10.3863 39.32162,76.7841 z"
       id="path3100"
       inkscape:connector-curvature="0"
       sodipodi:nodetypes="zsssssz" />
    <path
       style="fill:#ffffff;fill-rule:evenodd;stroke:none;stroke-width:1px;stroke-linecap:butt;stroke-linejoin:miter;stroke-opacity:1"
       d="m 534.12829,1990.1588 c 25.7289,58.6047 40.02273,101.4862 22.87013,151.5146 -17.15259,50.0284 1.42939,104.345 -12.86445,141.509 -14.29383,37.1639 -38.54491,47.2584 -11.43506,107.2037 19.79941,43.7805 -85.08462,39.3605 -44.31895,127.2554 -63.78914,-78.8501 40.07923,-99.8873 25.7289,-127.2151 -28.88282,-55.0024 -7.13885,-80.0858 2.86684,-105.8147 10.00568,-25.7289 -6.87995,-119.2204 10.00568,-151.5146 18.13588,-34.6853 -17.29178,-107.4567 -22.87013,-131.5032 -7.17205,-30.9164 30.01704,-11.4351 30.01704,-11.4351 z"
       id="path4313"
       inkscape:connector-curvature="0"
       sodipodi:nodetypes="cssscssssc" />
  </g>
  <g
     inkscape:groupmode="layer"
     id="layer1"
     inkscape:label="txt">
    <text
       id="text38"
       y="334.20575"
       x="1503.4199"
       style="font-style:normal;font-variant:normal;font-weight:normal;font-stretch:normal;font-size:14.43313026px;line-height:100%;font-family:'Nanum Pen Script OTF';-inkscape-font-specification:'Nanum Pen Script OTF';text-align:center;letter-spacing:0px;word-spacing:0px;text-anchor:middle;fill:#000000;fill-opacity:1;stroke:none;stroke-width:1.20276082"
       xml:space="preserve"><tspan
         id="tspan36"
         y="334.20575"
         x="1503.4199"
         style="font-style:normal;font-variant:normal;font-weight:normal;font-stretch:normal;font-size:81.66300201px;line-height:100%;font-family:'Nanum Pen Script OTF';-inkscape-font-specification:'Nanum Pen Script OTF';stroke-width:1.20276082"
         sodipodi:role="line">당근! ...</tspan></text>
    <text
       id="text42"
       y="481.48077"
       x="1625.8835"
       style="font-style:normal;font-variant:normal;font-weight:normal;font-stretch:normal;font-size:17.25549698px;line-height:100%;font-family:'Nanum Pen Script OTF';-inkscape-font-specification:'Nanum Pen Script OTF';text-align:center;letter-spacing:0px;word-spacing:0px;text-anchor:middle;fill:#000000;fill-opacity:1;stroke:none;stroke-width:1.437958"
       xml:space="preserve"><tspan
         id="tspan40"
         y="481.48077"
         x="1625.8835"
         style="font-style:normal;font-variant:normal;font-weight:normal;font-stretch:normal;font-size:64.70811462px;line-height:100%;font-family:'Nanum Pen Script OTF';-inkscape-font-specification:'Nanum Pen Script OTF';stroke-width:1.437958"
         sodipodi:role="line">돌아와 ...</tspan></text>
    <text
       id="text50"
       y="629.37567"
       x="1538.9365"
       style="font-style:normal;font-variant:normal;font-weight:normal;font-stretch:normal;font-size:15.12679863px;line-height:100%;font-family:'Nanum Pen Script OTF';-inkscape-font-specification:'Nanum Pen Script OTF';text-align:center;letter-spacing:0px;word-spacing:0px;text-anchor:middle;fill:#000000;fill-opacity:1;stroke:none;stroke-width:1.26056647"
       xml:space="preserve"><tspan
         id="tspan48"
         y="629.37567"
         x="1538.9365"
         style="font-style:normal;font-variant:normal;font-weight:normal;font-stretch:normal;font-size:56.72549438px;line-height:100%;font-family:'Nanum Pen Script OTF';-inkscape-font-specification:'Nanum Pen Script OTF';stroke-width:1.26056647"
         sodipodi:role="line">... 늪지 용은 성격이 원래</tspan><tspan
         y="686.1012"
         x="1538.9365"
         style="font-style:normal;font-variant:normal;font-weight:normal;font-stretch:normal;font-size:56.72549438px;line-height:100%;font-family:'Nanum Pen Script OTF';-inkscape-font-specification:'Nanum Pen Script OTF';stroke-width:1.26056647"
         sodipodi:role="line"
         id="tspan78">유순해!</tspan></text>
    <text
       id="text56"
       y="900.02148"
       x="1601.5481"
       style="font-style:normal;font-variant:normal;font-weight:normal;font-stretch:normal;font-size:14.80969334px;line-height:100%;font-family:'Nanum Pen Script OTF';-inkscape-font-specification:'Nanum Pen Script OTF';text-align:center;letter-spacing:0px;word-spacing:0px;text-anchor:middle;fill:#000000;fill-opacity:1;stroke:none;stroke-width:1.23414111"
       xml:space="preserve"><tspan
         y="900.02148"
         x="1601.5481"
         style="font-style:normal;font-variant:normal;font-weight:normal;font-stretch:normal;font-size:43.86988449px;line-height:100%;font-family:'Nanum Pen Script OTF';-inkscape-font-specification:'Nanum Pen Script OTF';stroke-width:1.23414111"
         sodipodi:role="line"
         id="tspan82">내 생각이었긴</tspan><tspan
         y="943.89136"
         x="1601.5481"
         style="font-style:normal;font-variant:normal;font-weight:normal;font-stretch:normal;font-size:43.86988449px;line-height:100%;font-family:'Nanum Pen Script OTF';-inkscape-font-specification:'Nanum Pen Script OTF';stroke-width:1.23414111"
         sodipodi:role="line"
         id="tspan86">하지만...</tspan></text>
    <text
       id="text62"
       y="1979.7645"
       x="447.64008"
       style="font-style:normal;font-variant:normal;font-weight:normal;font-stretch:normal;font-size:16.61277199px;line-height:100%;font-family:'Nanum Pen Script OTF';-inkscape-font-specification:'Nanum Pen Script OTF';text-align:center;letter-spacing:0px;word-spacing:0px;text-anchor:middle;fill:#000000;fill-opacity:1;stroke:none;stroke-width:1.38439763"
       xml:space="preserve"><tspan
         id="tspan60"
         y="1979.7645"
         x="447.64008"
         style="font-style:normal;font-variant:normal;font-weight:normal;font-stretch:normal;font-size:62.29789352px;line-height:100%;font-family:'Nanum Pen Script OTF';-inkscape-font-specification:'Nanum Pen Script OTF';stroke-width:1.38439763"
         sodipodi:role="line">음... 번개 용한테는...</tspan></text>
    <text
       id="text70-3"
       y="2213.2222"
       x="580.94019"
       style="font-style:normal;font-variant:normal;font-weight:normal;font-stretch:normal;font-size:15.04836845px;line-height:100%;font-family:'Nanum Pen Script OTF';-inkscape-font-specification:'Nanum Pen Script OTF';text-align:center;letter-spacing:0px;word-spacing:0px;text-anchor:middle;fill:#000000;fill-opacity:1;stroke:none;stroke-width:1.2540307"
       xml:space="preserve"><tspan
         id="tspan68-6"
         y="2213.2222"
         x="580.94019"
         style="font-style:normal;font-variant:normal;font-weight:normal;font-stretch:normal;font-size:56.43138123px;line-height:100%;font-family:'Nanum Pen Script OTF';-inkscape-font-specification:'Nanum Pen Script OTF';stroke-width:1.2540307"
         sodipodi:role="line">... 이 도구를 써도</tspan><tspan
         y="2269.6536"
         x="580.94019"
         style="font-style:normal;font-variant:normal;font-weight:normal;font-stretch:normal;font-size:56.43138123px;line-height:100%;font-family:'Nanum Pen Script OTF';-inkscape-font-specification:'Nanum Pen Script OTF';stroke-width:1.2540307"
         sodipodi:role="line"
         id="tspan95">될 지 모르겠네...</tspan></text>
  </g>
</svg>
