<?xml version="1.0" encoding="UTF-8" standalone="no"?>
<!-- Created with Inkscape (http://www.inkscape.org/) -->

<svg
   xmlns:dc="http://purl.org/dc/elements/1.1/"
   xmlns:cc="http://creativecommons.org/ns#"
   xmlns:rdf="http://www.w3.org/1999/02/22-rdf-syntax-ns#"
   xmlns:svg="http://www.w3.org/2000/svg"
   xmlns="http://www.w3.org/2000/svg"
   xmlns:xlink="http://www.w3.org/1999/xlink"
   xmlns:sodipodi="http://sodipodi.sourceforge.net/DTD/sodipodi-0.dtd"
   xmlns:inkscape="http://www.inkscape.org/namespaces/inkscape"
   id="svg2"
   version="1.1"
   inkscape:version="0.92.2 5c3e80d, 2017-08-06"
   width="2481"
   height="3503"
   sodipodi:docname="E24P05.svg">
  <metadata
     id="metadata8">
    <rdf:RDF>
      <cc:Work
         rdf:about="">
        <dc:format>image/svg+xml</dc:format>
        <dc:type
           rdf:resource="http://purl.org/dc/dcmitype/StillImage" />
        <dc:title />
      </cc:Work>
    </rdf:RDF>
  </metadata>
  <defs
     id="defs6">
    <filter
       style="color-interpolation-filters:sRGB"
       id="filter4375-4-1-1-1-9-5-8-0-9"
       inkscape:label="Drop Shadow">
      <feFlood
         id="feFlood4377-7-9-0-8-1-7-3-9-2"
         flood-opacity="1"
         flood-color="rgb(200,55,55)"
         result="flood" />
      <feComposite
         id="feComposite4379-3-8-8-2-77-4-1-3-2"
         in2="SourceGraphic"
         in="flood"
         operator="in"
         result="composite1" />
      <feMorphology
         id="feMorphology4393-1-0-49-8-9-3-0-6-8"
         operator="dilate"
         radius="6.2000000000000002"
         result="result3" />
      <feComposite
         id="feComposite4385-9-5-7-0-8-8-7-0-9"
         in2="result3"
         in="SourceGraphic"
         operator="over"
         result="fbSourceGraphic" />
      <feColorMatrix
         result="fbSourceGraphicAlpha"
         in="fbSourceGraphic"
         values="0 0 0 -1 0 0 0 0 -1 0 0 0 0 -1 0 0 0 0 1 0"
         id="feColorMatrix4544-6-7" />
      <feTurbulence
         id="feTurbulence4546-2-3"
         type="fractalNoise"
         numOctaves="3"
         seed="37"
         baseFrequency="0.129 0.0050000000000000001"
         result="turbulence" />
      <feDisplacementMap
         id="feDisplacementMap4548-6-6"
         in2="turbulence"
         in="fbSourceGraphic"
         scale="6.6"
         yChannelSelector="G"
         xChannelSelector="R"
         result="fbSourceGraphic" />
      <feColorMatrix
         result="fbSourceGraphicAlpha"
         in="fbSourceGraphic"
         values="0 0 0 -1 0 0 0 0 -1 0 0 0 0 -1 0 0 0 0 1 0"
         id="feColorMatrix4670-1-1" />
      <feFlood
         id="feFlood4672-8-2"
         flood-opacity="1"
         flood-color="rgb(80,22,22)"
         result="flood"
         in="fbSourceGraphic" />
      <feComposite
         id="feComposite4674-7-9"
         in2="fbSourceGraphic"
         in="flood"
         operator="in"
         result="composite1" />
      <feGaussianBlur
         id="feGaussianBlur4676-9-3"
         in="composite1"
         stdDeviation="0"
         result="blur" />
      <feOffset
         id="feOffset4678-2-1"
         dx="6"
         dy="6"
         result="offset" />
      <feComposite
         id="feComposite4680-0-9"
         in2="offset"
         in="fbSourceGraphic"
         operator="over"
         result="composite2" />
    </filter>
    <filter
       style="color-interpolation-filters:sRGB"
       id="filter4375-4-1-1-1-9-5-8"
       inkscape:label="Drop Shadow">
      <feFlood
         id="feFlood4377-7-9-0-8-1-7-3"
         flood-opacity="1"
         flood-color="rgb(200,55,55)"
         result="flood" />
      <feComposite
         id="feComposite4379-3-8-8-2-77-4-1"
         in2="SourceGraphic"
         in="flood"
         operator="in"
         result="composite1" />
      <feMorphology
         id="feMorphology4393-1-0-49-8-9-3-0"
         operator="dilate"
         radius="6.2000000000000002"
         result="result3" />
      <feComposite
         id="feComposite4385-9-5-7-0-8-8-7"
         in2="result3"
         in="SourceGraphic"
         operator="over"
         result="fbSourceGraphic" />
      <feColorMatrix
         result="fbSourceGraphicAlpha"
         in="fbSourceGraphic"
         values="0 0 0 -1 0 0 0 0 -1 0 0 0 0 -1 0 0 0 0 1 0"
         id="feColorMatrix4544" />
      <feTurbulence
         id="feTurbulence4546"
         type="fractalNoise"
         numOctaves="3"
         seed="37"
         baseFrequency="0.129 0.0050000000000000001"
         result="turbulence" />
      <feDisplacementMap
         id="feDisplacementMap4548"
         in2="turbulence"
         in="fbSourceGraphic"
         scale="6.6"
         yChannelSelector="G"
         xChannelSelector="R"
         result="fbSourceGraphic" />
      <feColorMatrix
         result="fbSourceGraphicAlpha"
         in="fbSourceGraphic"
         values="0 0 0 -1 0 0 0 0 -1 0 0 0 0 -1 0 0 0 0 1 0"
         id="feColorMatrix4670" />
      <feFlood
         id="feFlood4672"
         flood-opacity="1"
         flood-color="rgb(80,22,22)"
         result="flood"
         in="fbSourceGraphic" />
      <feComposite
         id="feComposite4674"
         in2="fbSourceGraphic"
         in="flood"
         operator="in"
         result="composite1" />
      <feGaussianBlur
         id="feGaussianBlur4676"
         in="composite1"
         stdDeviation="0"
         result="blur" />
      <feOffset
         id="feOffset4678"
         dx="6"
         dy="6"
         result="offset" />
      <feComposite
         id="feComposite4680"
         in2="offset"
         in="fbSourceGraphic"
         operator="over"
         result="composite2" />
    </filter>
    <filter
       inkscape:collect="always"
       style="color-interpolation-filters:sRGB"
       id="filter4210"
       x="-0.0015578248"
       width="1.0031157"
       y="-0.0045528179"
       height="1.0091056">
      <feGaussianBlur
         inkscape:collect="always"
         stdDeviation="0.2079876"
         id="feGaussianBlur4212" />
    </filter>
  </defs>
  <sodipodi:namedview
     pagecolor="#ffffff"
     bordercolor="#666666"
     borderopacity="1"
     objecttolerance="10"
     gridtolerance="10"
     guidetolerance="10"
     inkscape:pageopacity="0"
     inkscape:pageshadow="2"
     inkscape:window-width="1440"
     inkscape:window-height="835"
     id="namedview4"
     showgrid="false"
     inkscape:zoom="0.37194736"
     inkscape:cx="1052.7607"
     inkscape:cy="921.81058"
     inkscape:window-x="0"
     inkscape:window-y="41"
     inkscape:window-maximized="1"
     inkscape:current-layer="layer1"
     inkscape:snap-global="false" />
  <g
     inkscape:groupmode="layer"
     id="layer2"
     inkscape:label="artwork"
     sodipodi:insensitive="true">
    <image
       sodipodi:absref="/home/juanjo/Comics/Pepper and Carrot/webcomics/ep24_The-Unity-Tree/lang/es/../gfx_Pepper-and-Carrot_by-David-Revoy_E24P05.png"
       xlink:href="../gfx_Pepper-and-Carrot_by-David-Revoy_E24P05.png"
       width="2481"
       height="3503"
       id="image10"
       x="0"
       y="0" />
  </g>
  <g
     inkscape:groupmode="layer"
     id="layer3"
     inkscape:label="speechbubbles"
     style="display:inline">
    <path
       style="color:#000000;display:inline;overflow:visible;visibility:visible;fill:#ffffff;fill-opacity:1;fill-rule:nonzero;stroke:none;stroke-width:0.99999994px;marker:none;enable-background:accumulate"
       d="m 951.33839,203.32288 c 10.33789,-59.75433 97.04781,-101.42305 315.30781,-84.4803 116.9117,9.07539 249.8338,16.48394 236.0501,104.05507 -13.7841,87.57103 -205.0362,80.35935 -244.6651,81.38959 -39.6288,1.03035 -244.8725,-13.50397 -279.12483,-44.30074 -21.44116,-19.27795 -29.29095,-38.11909 -27.56798,-56.66362 z"
       id="path4546-6"
       inkscape:connector-curvature="0"
       sodipodi:nodetypes="cssssc" />
    <path
       style="color:#000000;display:inline;overflow:visible;visibility:visible;fill:#ffffff;fill-opacity:1;fill-rule:nonzero;stroke:none;stroke-width:1.34306943px;marker:none;enable-background:accumulate"
       d="m 978.7841,414.69256 c 6.29819,-92.83092 84.8601,-160.24884 289.4332,-141.39439 109.5803,10.09939 234.004,17.07854 226.0486,153.07796 -7.9556,135.99929 -186.7868,131.29392 -223.7005,134.22619 -36.9141,2.93246 -229.2086,-12.63387 -262.8888,-59.14187 -21.0829,-29.11277 -29.46141,-58.00827 -28.8925,-86.76789 z"
       id="path4546-6-5"
       inkscape:connector-curvature="0"
       sodipodi:nodetypes="cssssc" />
    <path
       style="fill:#ffffff;stroke:none;stroke-width:1"
       d="m 116.68871,2316.7158 c -0.80271,-18.6867 25.10278,-70.3849 136.13432,-64.4369 111.03155,5.948 145.29554,27.2341 147.72023,60.4716 3.83579,52.5808 -54.97587,65.3212 -139.01641,67.3683 -86.6367,2.1104 -140.10007,-16.1383 -144.83814,-63.403 z"
       id="path3280"
       inkscape:connector-curvature="0"
       sodipodi:nodetypes="csssc" />
    <path
       style="fill:#ffffff;stroke:none;stroke-width:1"
       d="m 84.088914,2571.7171 c -1.202027,-67.0641 37.590496,-252.6023 203.856186,-231.2557 166.26569,21.3466 218.922,97.7063 221.20565,217.0248 3.57005,186.5318 4.63216,267.038 -264.69374,259.1674 C 114.55627,2812.8575 91.184001,2741.344 84.088914,2571.7171 Z"
       id="path3280-5"
       inkscape:connector-curvature="0"
       sodipodi:nodetypes="csssc" />
    <path
       style="fill:#ffffff;stroke:none;stroke-width:1"
       d="m 96.158295,2912.1242 c -1.121111,-43.9041 35.059655,-165.368 190.131225,-151.3933 155.07158,13.9747 204.18272,63.9642 206.3126,142.0769 3.3297,122.1145 4.32031,174.8185 -246.87278,169.6658 -121.15495,-2.4851 -142.95365,-49.3019 -149.571045,-160.3494 z"
       id="path3280-5-9"
       inkscape:connector-curvature="0"
       sodipodi:nodetypes="csssc" />
    <path
       style="color:#000000;display:inline;overflow:visible;visibility:visible;fill:#ffffff;fill-opacity:1;fill-rule:nonzero;stroke:none;stroke-width:1px;marker:none;enable-background:accumulate"
       d="m 554.48623,2854.2335 c -14.75738,52.3452 -33.97784,59.8163 -47.29721,66.911 -2.99609,-4.2927 -9.494,-10.7643 -9.494,-10.7643 0,0 -25.03044,16.8093 -36.39159,19.4555 -11.36113,2.6461 -15.10988,-13.4489 -15.10988,-13.4489 0,0 47.94685,-34.1242 56.37661,-45.0707 7.82099,12.1521 12.93111,16.9506 14.25419,22.6311 8.74137,-1.0378 31.94301,-21.4136 37.66188,-39.7137 z"
       id="path4456"
       inkscape:connector-curvature="0" />
    <path
       style="fill:#ffffff;stroke:none;stroke-width:1"
       d="m 1437.3638,2410.8677 c -1.7687,-28.1089 29.945,-98.4765 184.6433,-93.1836 154.6984,5.2928 203.1165,36.2115 207.6499,86.175 7.1714,79.0407 -74.2152,100.1631 -191.0791,106.0176 -120.4739,6.0354 -203.0838,-48.2208 -201.2141,-99.009 z"
       id="path3280-8"
       inkscape:connector-curvature="0"
       sodipodi:nodetypes="csssc" />
    <path
       style="fill:#ffffff;stroke:none;stroke-width:1"
       d="m 1455.6397,2595.7438 c -2.7918,-39.3366 47.2674,-137.8114 291.4556,-130.4041 244.1881,7.4068 320.6152,50.6754 327.771,120.5959 11.32,110.6122 -117.147,140.1715 -301.6144,148.3645 -190.1656,8.4462 -320.5636,-67.4817 -317.6122,-138.5563 z"
       id="path3280-8-2"
       inkscape:connector-curvature="0"
       sodipodi:nodetypes="csssc" />
    <path
       style="color:#000000;display:inline;overflow:visible;visibility:visible;fill:#ffffff;fill-opacity:1;fill-rule:nonzero;stroke:none;stroke-width:1px;marker:none;enable-background:accumulate"
       d="m 1737.0918,2683.1341 c 14.3116,13.119 20.5898,27.3224 21.7824,31.4966 1.1926,4.1742 -2.1039,30.5204 2.0703,35.291 4.1742,4.7705 19.6785,5.3668 21.4675,8.9448 1.7889,3.5779 -3.5779,22.0637 0,25.6416 3.5779,3.5779 28.6232,13.119 29.8159,16.1006 1.1926,2.9816 7.7521,19.0822 19.6784,31.6048 -11.33,-31.6048 -7.7521,-38.1643 -11.9263,-42.9348 -4.1742,-4.7706 -15.9274,-10.1807 -18.3127,-15.5476 -2.3853,-5.3668 6.711,-25.7283 0.086,-28.0269 -4.7705,-4.7705 -19.8083,-10.2673 -19.8083,-10.2673 4.1743,-4.7706 18.356,-27.8538 -1.3225,-55.8807 -19.6785,-28.027 -43.5312,3.5779 -43.5312,3.5779 z"
       id="path5050"
       inkscape:connector-curvature="0"
       sodipodi:nodetypes="csccscccccccc" />
    <path
       style="color:#000000;display:inline;overflow:visible;visibility:visible;fill:#ffffff;fill-opacity:1;fill-rule:nonzero;stroke:none;stroke-width:1px;marker:none;enable-background:accumulate"
       d="m 1368.4545,3182.9481 c -8.2664,-26.8609 13.7774,-98.21 183.24,-92.3342 169.4625,5.8758 197.0175,39.4519 201.1506,49.5247 4.1333,10.0727 39.9546,67.1521 -92.3088,82.2613 -132.2635,15.1093 -250.7494,-0.8395 -292.0818,-39.4518 z"
       id="path3525"
       inkscape:connector-curvature="0" />
    <path
       style="color:#000000;display:inline;overflow:visible;visibility:visible;fill:#ffffff;fill-opacity:1;fill-rule:nonzero;stroke:none;stroke-width:1px;marker:none;enable-background:accumulate"
       d="m 1518.4603,3003.92 c 24.221,32.6718 31.0089,45.6583 8.1243,87.1458 -22.8847,41.4875 -7.3195,49.5776 -7.3195,49.5776 l 28.2503,-15.3766 c 0,0 42.659,-91.8473 -29.0551,-121.3468 z"
       id="path3072"
       inkscape:connector-curvature="0" />
    <path
       style="color:#000000;display:inline;overflow:visible;visibility:visible;fill:#ffffff;fill-opacity:1;fill-rule:nonzero;stroke:none;stroke-width:1.34306931px;marker:none;enable-background:accumulate"
       d="m 1729.5195,373.49021 c 10.9251,-82.11681 100.789,-154.17374 331.4495,-130.89035 123.5542,12.47177 274.6627,32.51564 260.0958,152.85942 -14.5671,120.34364 -225.5473,102.2141 -267.4275,103.62989 -41.8808,1.41597 -258.7852,-5.40735 -294.9836,-47.72952 -22.6591,-26.49255 -30.955,-52.38479 -29.1342,-77.86944 z"
       id="path4546-6-5-3"
       inkscape:connector-curvature="0"
       sodipodi:nodetypes="cssssc" />
    <path
       style="display:inline;fill:#ffffff;stroke:none;stroke-width:0.99999994"
       d="m 1920.8273,663.55898 c 51.4934,-25.05742 101.3335,-84.50569 87.939,-140.05224 -8.1157,-33.6558 -17.2505,-51.47851 -17.2505,-51.47851 l 37.7708,-2.39424 11.5884,36.59761 c 0,0 3.2849,108.24957 -120.0477,157.32738 z"
       id="path3063-1-6"
       inkscape:connector-curvature="0"
       sodipodi:nodetypes="cscccc" />
    <path
       style="display:inline;fill:#ffffff;stroke:none;stroke-width:0.99999994"
       d="m 1251.2541,685.09232 c -48.6175,-23.27518 -83.2149,-109.49172 -49.7683,-157.70546 19.7334,-28.44595 29.6777,-45.4626 29.6777,-45.4626 l -35.9455,-11.84422 c -83.024,107.75331 -0.6527,193.21215 56.0361,215.01228 z"
       id="path3063-1"
       inkscape:connector-curvature="0"
       sodipodi:nodetypes="csccc" />
  </g>
  <g
     inkscape:groupmode="layer"
     id="layer1"
     inkscape:label="txt"
     style="display:inline">
    <text
       xml:space="preserve"
       style="font-style:normal;font-variant:normal;font-weight:normal;font-stretch:normal;line-height:0%;font-family:Lavi;-inkscape-font-specification:Lavi;letter-spacing:0px;word-spacing:0px;fill:#ffffff;fill-opacity:1;stroke:#c83737;stroke-width:0.99236238;stroke-miterlimit:4;stroke-dasharray:none;stroke-opacity:1;filter:url(#filter4375-4-1-1-1-9-5-8-0-9)"
       x="787.65729"
       y="1584.5073"
       id="text4580-6-0-2-4"
       transform="matrix(0.83434398,-0.14790328,-0.40858731,0.88612324,531.23181,-1091.7696)"><tspan
         sodipodi:role="line"
         id="tspan4582-1-1-3-7"
         x="787.65729"
         y="1584.5073"
         style="font-size:70px;line-height:1.25;fill:#ffffff;fill-opacity:1;stroke:#c83737;stroke-opacity:1"><tspan
           style="font-size:93.14950562px;fill:#ffffff;fill-opacity:1;stroke:#c83737;stroke-opacity:1"
           id="tspan4315-8-7-8"><tspan
   style="font-size:114.72121429px"
   id="tspan3430">¡</tspan>¡Plooom!</tspan><tspan
           style="font-size:114.73223114px;fill:#ffffff;fill-opacity:1;stroke:#c83737;stroke-opacity:1"
           id="tspan4313-2-5-4">!</tspan></tspan></text>
    <text
       xml:space="preserve"
       style="font-style:normal;font-variant:normal;font-weight:normal;font-stretch:normal;line-height:0%;font-family:Lavi;-inkscape-font-specification:Lavi;text-align:center;letter-spacing:0px;word-spacing:0px;text-anchor:middle;fill:#000000;fill-opacity:1;stroke:none"
       x="1233.6572"
       y="341.46378"
       id="text4246"><tspan
         sodipodi:role="line"
         style="font-size:45px;line-height:1.25"
         x="1233.6572"
         y="341.46378"
         id="tspan843">No veo qué mal</tspan><tspan
         sodipodi:role="line"
         style="font-size:45px;line-height:1.25"
         x="1233.6572"
         y="397.71378"
         id="tspan3434">podría hacer si llevo</tspan><tspan
         sodipodi:role="line"
         style="font-size:45px;line-height:1.25"
         x="1233.6572"
         y="453.96378"
         id="tspan3436">este árbol fuera de la</tspan><tspan
         sodipodi:role="line"
         style="font-size:45px;line-height:1.25"
         x="1233.6572"
         y="510.21378"
         id="tspan91">microdimensión.</tspan></text>
    <text
       xml:space="preserve"
       style="font-style:normal;font-variant:normal;font-weight:normal;font-stretch:normal;line-height:0%;font-family:Lavi;-inkscape-font-specification:Lavi;text-align:center;letter-spacing:0px;word-spacing:0px;text-anchor:middle;fill:#000000;fill-opacity:1;stroke:none"
       x="1232.4897"
       y="188.79892"
       id="text4246-7"><tspan
         sodipodi:role="line"
         style="font-size:45px;line-height:1.25"
         x="1232.4897"
         y="188.79892"
         id="tspan881-3">¡Eso es! Redimensionado.</tspan><tspan
         sodipodi:role="line"
         style="font-size:45px;line-height:1.25"
         x="1232.4897"
         y="245.04892"
         id="tspan906">¡Ahora está perfecto!</tspan></text>
    <text
       xml:space="preserve"
       style="font-style:normal;font-variant:normal;font-weight:normal;font-stretch:normal;line-height:0%;font-family:Lavi;-inkscape-font-specification:Lavi;text-align:center;letter-spacing:0px;word-spacing:0px;text-anchor:middle;fill:#000000;fill-opacity:1;stroke:none"
       x="263.42697"
       y="2326.1411"
       id="text4246-7-6"><tspan
         sodipodi:role="line"
         style="font-size:45px;line-height:1.25"
         x="263.42697"
         y="2326.1411"
         id="tspan906-9">Bueno,</tspan></text>
    <text
       xml:space="preserve"
       style="font-style:normal;font-variant:normal;font-weight:normal;font-stretch:normal;line-height:0%;font-family:Lavi;-inkscape-font-specification:Lavi;text-align:center;letter-spacing:0px;word-spacing:0px;text-anchor:middle;fill:#000000;fill-opacity:1;stroke:none"
       x="296.66428"
       y="2424.4778"
       id="text4246-7-6-1"><tspan
         sodipodi:role="line"
         style="font-size:45px;line-height:1.25"
         x="296.66428"
         y="2424.4778"
         id="tspan980">es hora de</tspan><tspan
         sodipodi:role="line"
         style="font-size:45px;line-height:1.25"
         x="296.66428"
         y="2480.7278"
         id="tspan3462">desplegar esta</tspan><tspan
         sodipodi:role="line"
         style="font-size:45px;line-height:1.25"
         x="296.66428"
         y="2536.9778"
         id="tspan3464">microdimensión</tspan><tspan
         sodipodi:role="line"
         style="font-size:45px;line-height:1.25"
         x="296.66428"
         y="2593.2278"
         id="tspan986">sobre la realidad</tspan><tspan
         sodipodi:role="line"
         style="font-size:45px;line-height:1.25"
         x="296.66428"
         y="2649.4778"
         id="tspan3474">y mostrarles cómo</tspan><tspan
         sodipodi:role="line"
         style="font-size:45px;line-height:1.25"
         x="296.66428"
         y="2705.7278"
         id="tspan905">de creativo puede</tspan><tspan
         sodipodi:role="line"
         style="font-size:45px;line-height:1.25"
         x="296.66428"
         y="2761.9778"
         id="tspan1198">ser el Caos.</tspan></text>
    <text
       xml:space="preserve"
       style="font-style:normal;font-variant:normal;font-weight:normal;font-stretch:normal;line-height:0%;font-family:Lavi;-inkscape-font-specification:Lavi;letter-spacing:0px;word-spacing:0px;fill:#ffffff;fill-opacity:1;stroke:#c83737;stroke-width:0.99236238;stroke-miterlimit:4;stroke-dasharray:none;stroke-opacity:1;filter:url(#filter4375-4-1-1-1-9-5-8)"
       x="787.65729"
       y="1584.5073"
       id="text4580-6-0"
       transform="matrix(0.84200562,-0.09503576,-0.46361166,0.85861645,1426.8384,990.64508)"><tspan
         sodipodi:role="line"
         id="tspan4582-1-1"
         x="787.65729"
         y="1584.5073"
         style="font-size:70px;line-height:1.25;fill:#ffffff;fill-opacity:1;stroke:#c83737;stroke-opacity:1"><tspan
           style="font-size:93.14950562px;fill:#ffffff;fill-opacity:1;stroke:#c83737;stroke-opacity:1"
           id="tspan4315-8"><tspan
   style="font-size:114.72121429px"
   id="tspan3500">¡</tspan>¡DOooong!</tspan><tspan
           style="font-size:114.73223114px;fill:#ffffff;fill-opacity:1;stroke:#c83737;stroke-opacity:1"
           id="tspan4313-2">!</tspan></tspan></text>
    <text
       xml:space="preserve"
       style="font-style:normal;font-variant:normal;font-weight:normal;font-stretch:normal;line-height:0%;font-family:Lavi;-inkscape-font-specification:Lavi;text-align:center;letter-spacing:0px;word-spacing:0px;text-anchor:middle;fill:#000000;fill-opacity:1;stroke:none"
       x="1637.5579"
       y="2402.8755"
       id="text4246-7-6-1-7"><tspan
         sodipodi:role="line"
         style="font-size:45px;line-height:1.25"
         x="1637.5579"
         y="2402.8755"
         id="tspan1076">Mmm... Pepper</tspan><tspan
         sodipodi:role="line"
         style="font-size:45px;line-height:1.25"
         x="1637.5579"
         y="2459.1255"
         id="tspan1080">ha vuelto.</tspan></text>
    <text
       xml:space="preserve"
       style="font-style:normal;font-variant:normal;font-weight:normal;font-stretch:normal;line-height:0%;font-family:Lavi;-inkscape-font-specification:Lavi;text-align:center;letter-spacing:0px;word-spacing:0px;text-anchor:middle;fill:#000000;fill-opacity:1;stroke:none"
       x="1777.2721"
       y="2554.6619"
       id="text4246-7-6-1-7-6"><tspan
         sodipodi:role="line"
         style="font-size:45px;line-height:1.25"
         x="1777.2721"
         y="2554.6619"
         id="tspan1080-6">¡Bravo, Cayena! Tus</tspan><tspan
         sodipodi:role="line"
         style="font-size:45px;line-height:1.25"
         x="1777.2721"
         y="2610.9119"
         id="tspan3502">métodos educativos están</tspan><tspan
         sodipodi:role="line"
         style="font-size:45px;line-height:1.25"
         x="1777.2721"
         y="2667.1619"
         id="tspan1111">por fin dando resultados.</tspan></text>
    <text
       xml:space="preserve"
       style="font-style:normal;font-variant:normal;font-weight:normal;font-stretch:normal;line-height:0%;font-family:Lavi;-inkscape-font-specification:Lavi;text-align:center;letter-spacing:0px;word-spacing:0px;text-anchor:middle;fill:#000000;fill-opacity:1;stroke:none"
       x="1571.8807"
       y="3167.0315"
       id="text4246-7-6-1-7-1"><tspan
         sodipodi:role="line"
         style="font-size:45px;line-height:1.25"
         x="1571.8807"
         y="3167.0315"
         id="tspan89">Gracias, maestra.</tspan><tspan
         sodipodi:role="line"
         style="font-size:45px;line-height:1.25"
         x="1579.7909"
         y="3223.2815"
         id="tspan1136"> </tspan></text>
    <text
       xml:space="preserve"
       style="font-style:normal;font-variant:normal;font-weight:normal;font-stretch:normal;line-height:0%;font-family:Lavi;-inkscape-font-specification:Lavi;text-align:center;letter-spacing:0px;word-spacing:0px;text-anchor:middle;fill:#000000;fill-opacity:1;stroke:none"
       x="291.43497"
       y="2868.2312"
       id="text4246-7-6-1-9"><tspan
         sodipodi:role="line"
         style="font-size:45px;line-height:1.25"
         x="291.43497"
         y="2868.2312"
         id="tspan990-7">¡Estoy impaciente</tspan><tspan
         sodipodi:role="line"
         style="font-size:45px;line-height:1.25"
         x="299.34512"
         y="2924.4812"
         id="tspan3488">por ver qué </tspan><tspan
         sodipodi:role="line"
         style="font-size:45px;line-height:1.25"
         x="291.43497"
         y="2980.7312"
         id="tspan3490">cara ponen mis</tspan><tspan
         sodipodi:role="line"
         style="font-size:45px;line-height:1.25"
         x="291.43497"
         y="3036.9812"
         id="tspan1186">madrinas!</tspan></text>
    <text
       xml:space="preserve"
       style="font-style:normal;font-variant:normal;font-weight:normal;font-stretch:normal;line-height:0%;font-family:Lavi;-inkscape-font-specification:Lavi;text-align:center;letter-spacing:0px;word-spacing:0px;text-anchor:middle;display:inline;opacity:0.35800003;fill:#000000;fill-opacity:1;stroke:none;stroke-width:1.38229895;filter:url(#filter4210)"
       x="1174.0292"
       y="1085.962"
       id="text4246-5"
       transform="matrix(0.63179135,-0.09563029,0.03930404,0.666392,431.41606,2450.8071)"><tspan
         sodipodi:role="line"
         style="font-style:normal;font-variant:normal;font-weight:normal;font-stretch:normal;font-size:45.00812149px;line-height:1.25;font-family:Fondamento;-inkscape-font-specification:Fondamento;stroke:#000000;stroke-width:4.69086981;stroke-miterlimit:4;stroke-dasharray:none;stroke-opacity:1"
         x="1174.0292"
         y="1085.962"
         id="tspan4217">EL KOMONERO</tspan><tspan
         sodipodi:role="line"
         style="font-style:normal;font-variant:normal;font-weight:normal;font-stretch:normal;font-size:45.00812149px;line-height:1.25;font-family:Fondamento;-inkscape-font-specification:Fondamento;stroke:#000000;stroke-width:4.69086981;stroke-miterlimit:4;stroke-dasharray:none;stroke-opacity:1"
         x="1179.5233"
         y="1142.2222"
         id="tspan4207"> </tspan><tspan
         sodipodi:role="line"
         style="font-style:normal;font-variant:normal;font-weight:normal;font-stretch:normal;font-size:45.00812149px;line-height:1.25;font-family:Fondamento;-inkscape-font-specification:Fondamento;stroke:#000000;stroke-width:4.69086981;stroke-miterlimit:4;stroke-dasharray:none;stroke-opacity:1"
         x="1179.5233"
         y="1198.4823"
         id="tspan4209"> </tspan></text>
    <text
       xml:space="preserve"
       style="font-style:normal;font-variant:normal;font-weight:normal;font-stretch:normal;line-height:0%;font-family:Lavi;-inkscape-font-specification:Lavi;text-align:center;letter-spacing:0px;word-spacing:0px;text-anchor:middle;fill:#000000;fill-opacity:1;stroke:none"
       x="2030.1847"
       y="326.88214"
       id="text4246-75"><tspan
         sodipodi:role="line"
         style="font-size:45px;line-height:1.25"
         x="2038.0948"
         y="326.88214"
         id="tspan91-2">Solo es un árbol de </tspan><tspan
         sodipodi:role="line"
         style="font-size:45px;line-height:1.25"
         x="2030.1847"
         y="383.13214"
         id="tspan3450">Unidad; no es como un</tspan><tspan
         sodipodi:role="line"
         style="font-size:45px;line-height:1.25"
         x="2030.1847"
         y="439.38214"
         id="tspan158">«Hechizo de Destrucción».</tspan></text>
  </g>
</svg>
