<?xml version="1.0" encoding="UTF-8" standalone="no"?>
<!-- Created With Inkscape (http://www.inkscape.org/) -->

<svg
   xmlns:dc="http://purl.org/dc/elements/1.1/"
   xmlns:cc="http://creativecommons.org/ns#"
   xmlns:rdf="http://www.w3.org/1999/02/22-rdf-syntax-ns#"
   xmlns:svg="http://www.w3.org/2000/svg"
   xmlns="http://www.w3.org/2000/svg"
   xmlns:xlink="http://www.w3.org/1999/xlink"
   xmlns:sodipodi="http://sodipodi.sourceforge.net/DTD/sodipodi-0.dtd"
   xmlns:inkscape="http://www.inkscape.org/namespaces/inkscape"
   id="svg2"
   version="1.1"
   inkscape:version="0.92.1 r15371"
   width="2646.3999"
   height="3736.5334"
   sodipodi:docname="E19P01.svg"
   viewBox="0 0 2481 3503">
  <metadata
     id="metadata8">
    <rdf:RDF>
      <cc:Work
         rdf:about="">
        <dc:format>image/svg+xml</dc:format>
        <dc:type
           rdf:resource="http://purl.org/dc/dcmitype/StillImage" />
        <dc:title />
      </cc:Work>
    </rdf:RDF>
  </metadata>
  <defs
     id="defs6" />
  <sodipodi:namedview
     pagecolor="#ffffff"
     bordercolor="#666666"
     borderopacity="1"
     objecttolerance="10"
     gridtolerance="10"
     guidetolerance="10"
     inkscape:pageopacity="0"
     inkscape:pageshadow="2"
     inkscape:window-width="1858"
     inkscape:window-height="1057"
     id="namedview4"
     showgrid="false"
     inkscape:zoom="0.31941595"
     inkscape:cx="1621.2148"
     inkscape:cy="1209.6556"
     inkscape:window-x="54"
     inkscape:window-y="-8"
     inkscape:window-maximized="1"
     inkscape:current-layer="layer1"
     showguides="false" />
  <g
     inkscape:groupmode="layer"
     id="layer2"
     inkscape:label="artwork"
     sodipodi:insensitive="true">
    <image
       sodipodi:absref="../gfx_Pepper-and-Carrot_by-David-Revoy_E19P01.png"
       xlink:href="../gfx_Pepper-and-Carrot_by-David-Revoy_E19P01.png"
       width="2481"
       height="3503"
       id="image10"
       x="0"
       y="0" />
  </g>
  <g
     inkscape:groupmode="layer"
     id="layer3"
     inkscape:label="speechbubbles">
    <path
       style="color:#000000;display:inline;overflow:visible;visibility:visible;fill:#ffffff;fill-opacity:1;fill-rule:nonzero;stroke:none;stroke-width:1px;marker:none;enable-background:accumulate"
       d="m 1029.8393,1944.6884 c -4.0128,-29.8516 27.4228,-65.8653 141.2314,-57.9056 113.8089,7.9598 136.1975,21.984 139.559,60.2936 1.3936,15.8826 -28.9185,40.5945 -45.71,44.5744 -16.7915,3.9798 -86.4023,4.5754 -114.3882,1.3916 -27.9856,-3.1839 -88.0421,-10.1473 -104.8336,-24.4749 -16.7916,-14.3274 -13.9928,-20.6952 -15.8586,-23.8791 z"
       id="path3365"
       inkscape:connector-curvature="0"
       sodipodi:nodetypes="csssssc" />
    <path
       style="color:#000000;display:inline;overflow:visible;visibility:visible;fill:#ffffff;fill-opacity:1;fill-rule:nonzero;stroke:none;stroke-width:1.05423439px;marker:none;enable-background:accumulate"
       d="m 1339.2346,2088.5169 c -8.8916,60.0903 -49.131,86.9535 -82.523,103.2484 -62.3188,25.8094 -127.6242,12.8551 -190.4108,-1.0747 -32.5753,-9.9021 -66.1303,-52.5915 -62.7243,-110.2332 3.2917,-51.6688 34.8719,-85.3398 65.3104,-90.1395 44.6219,-16.7511 91.1584,-24.9112 136.5287,-10.6602 38.958,8.1364 80.6808,10.342 115.3794,42.4785 11.5958,16.9802 16.0511,42.405 18.4396,66.3807 z"
       id="path3365-3"
       inkscape:connector-curvature="0" />
    <path
       style="fill:#ffffff;stroke:none;stroke-width:1.06820583"
       d="m 944.47158,2292.8521 c 6.61989,-61.6305 58.33092,-94.9797 134.23292,-103.564 93.054,-18.3183 179.7882,-26.7108 272.6483,-9.1588 60.7232,14.5189 110.6286,16.1672 157.8058,57.8418 31.2845,30.565 42.5488,146.2343 -8.1229,176.2126 -52.7498,43.8283 -194.0971,53.5381 -265.6115,52.3401 -102.9329,1.8038 -193.1436,-6.1775 -243.97685,-42.6819 -47.53181,-35.0232 -53.44993,-85.3666 -46.97577,-130.9898 z"
       id="path3065"
       inkscape:connector-curvature="0"
       sodipodi:nodetypes="cccccccc" />
    <path
       style="display:inline;fill:#ffffff;stroke:none"
       d="m 1639.5841,2318.3167 c -21.9558,36.2988 -64.6442,61.9501 -96.7367,35.7869 -19.4449,-15.8524 -29.1134,-28.291 -29.1134,-28.291 l -6.3679,30.9322 20.7854,19.5483 c 0,0 65.508,31.9103 111.4326,-57.9764 z"
       id="path3063-1"
       inkscape:connector-curvature="0"
       sodipodi:nodetypes="cscccc" />
    <path
       style="color:#000000;display:inline;overflow:visible;visibility:visible;fill:#ffffff;fill-opacity:1;fill-rule:nonzero;stroke:none;stroke-width:1.01700354px;marker:none;enable-background:accumulate"
       d="m 1897.9295,2318.7633 c 22.7771,-14.8351 112.4684,-27.5791 202.0477,-26.0229 89.5793,1.5563 175.4349,9.704 227.9194,46.2927 77.3271,53.907 42.1061,177.1599 2.056,197.9002 -29.0261,15.0314 -115.8994,28.518 -199.1059,30.0346 -83.2062,1.5168 -162.7456,-8.9363 -201.606,-22.5197 -33.5378,-11.723 -82.4011,-43.6247 -86.3908,-120.7802 -1.6283,-31.4904 9.5259,-75.2341 55.0796,-104.9047 z"
       id="path4040"
       inkscape:connector-curvature="0"
       sodipodi:nodetypes="ssssssss" />
    <path
       style="color:#000000;display:inline;overflow:visible;visibility:visible;fill:#ffffff;fill-opacity:1;fill-rule:nonzero;stroke:none;stroke-width:1px;marker:none;enable-background:accumulate"
       d="m 2091.5868,2309.6031 c -12.6779,-33.6245 -30.9699,-60.7293 -65.977,-55.676 52.3023,-18.546 92.9308,35.3617 103.6224,53.2726 10.6914,17.9109 -37.6454,2.4034 -37.6454,2.4034 z"
       id="path5010"
       inkscape:connector-curvature="0" />
    <path
       style="color:#000000;display:inline;overflow:visible;visibility:visible;fill:#ffffff;fill-opacity:1;fill-rule:nonzero;stroke:none;stroke-width:1px;marker:none;enable-background:accumulate"
       d="m 628.01922,2726.3612 c -0.95298,-26.3558 9.57321,-45.2414 49.59603,-62.4534 40.023,-17.2119 96.82343,-9.0026 111.7267,-8.4347 69.9372,2.665 93.37108,11.5648 107.66493,30.9284 14.29393,19.3634 17.94569,15.1087 17.44053,48.6465 -0.45226,30.0255 -4.49249,44.1361 -21.64514,50.5905 -17.15276,6.4545 -148.92483,13.8487 -169.21221,13.5611 -19.86289,-0.2816 -45.15266,-3.5096 -64.84564,-14.0823 -18.59066,-9.9808 -29.77229,-32.4002 -30.7252,-58.7561 z"
       id="path3373"
       inkscape:connector-curvature="0"
       sodipodi:nodetypes="zsssssssz" />
    <path
       style="color:#000000;display:inline;overflow:visible;visibility:visible;fill:#ffffff;fill-opacity:1;fill-rule:nonzero;stroke:none;stroke-width:0.96536565px;marker:none;enable-background:accumulate"
       d="m 691.27785,2853.9321 c 9.23668,-71.4433 79.52478,-96.2842 280.16069,-100.5518 52.47486,-1.1161 140.87096,7.4337 182.07926,24.0922 41.2084,16.6585 64.6726,73.9993 58.5148,126.3501 -12.3155,104.7015 -140.9988,87.2502 -176.4062,88.4821 -35.4074,1.2319 -279.09959,4.6116 -314.03123,-42.9057 -33.49871,-45.5681 -31.85675,-73.2947 -30.31732,-95.4669 z"
       id="path4546"
       inkscape:connector-curvature="0"
       sodipodi:nodetypes="csssssc" />
    <path
       style="color:#000000;display:inline;overflow:visible;visibility:visible;fill:#ffffff;fill-opacity:1;fill-rule:nonzero;stroke:none;stroke-width:0.89686829px;marker:none;enable-background:accumulate"
       d="m 858.263,3002.231 c 30.01173,-37.1444 193.2484,-33.9735 247.5602,-17.8807 54.3117,16.0926 77.7909,20.4657 77.0468,53.6423 -0.6967,31.0601 -18.2113,60.0856 -45.9988,69.0261 -27.7874,8.9403 -92.9381,8.7552 -120.7255,8.7552 -27.78727,0 -116.49067,-5.6905 -138.93696,-18.7748 -21.47208,-12.5165 -48.9576,-57.6238 -18.94574,-94.7681 z"
       id="path3330"
       inkscape:connector-curvature="0"
       sodipodi:nodetypes="zsssssz" />
    <path
       style="color:#000000;display:inline;overflow:visible;visibility:visible;fill:#ffffff;fill-opacity:1;fill-rule:nonzero;stroke:none;stroke-width:1px;marker:none;enable-background:accumulate"
       d="m 929.99953,3158.9683 c 39.78505,-10.9584 53.20162,-17.1208 58.43434,-65.1641 5.23266,-48.0433 23.16173,-44.6696 23.16173,-44.6696 l 14.7504,30.3838 c 0,0 -18.3423,101.2684 -96.34647,79.4499 z"
       id="path3072"
       inkscape:connector-curvature="0" />
    <path
       style="fill:#ffffff;fill-rule:evenodd;stroke:none;stroke-width:1px;stroke-linecap:butt;stroke-linejoin:miter;stroke-opacity:1"
       d="m 1891.4248,3239.5273 c 26.3898,2.1524 60.7586,-8.5621 39.4235,-40.9681 38.3979,25.9662 74.7721,30.83 113.0657,2.4031 -5.5978,28.6978 57.0153,30.9119 78.4695,11.9225 -6.546,29.906 23.5543,31.0596 48.7068,32.0091 -53.2076,36.5615 -25.2677,48.1891 -4.3022,61.9598 -52.2903,-10.1884 -39.6437,10.4551 -45.8893,22.1285 -44.8572,-26.449 -77.4789,-20.1718 -103.251,4.4257 -13.479,-13.3768 -17.7099,-41.0242 -67.3998,1.4752 18.2722,-36.6892 -5.6785,-32.8382 -44.4553,-14.7522 8.9214,-8.4337 46.471,-30.9658 -14.3679,-28.9705 9.5003,-2.97 17.1236,-6.2033 22.4963,-9.7524 5.3727,-3.5491 -29.1749,-13.0242 -28.6769,-17.2571 0.4981,-4.2329 36.0419,-3.2235 30.9182,-8.2451 -5.1237,-5.0215 -13.2451,-10.4635 -24.7376,-16.3785 z"
       id="path4584"
       inkscape:connector-curvature="0"
       sodipodi:nodetypes="cccccccccccsssc" />
    <path
       style="color:#000000;display:inline;overflow:visible;visibility:visible;fill:#ffffff;fill-opacity:1;fill-rule:nonzero;stroke:none;stroke-width:1px;marker:none;enable-background:accumulate"
       d="m 1929.0839,3276.1051 c -26.7744,0.1934 -96.6935,-12.0611 -103.8888,-13.0148 6.0705,-5.4371 10.1298,-10.8932 13.4021,-15.1162 -13.7156,-0.9263 -59.5001,-2.596 -79.7676,1.5975 50.7453,-11.4228 73.8083,-12.6417 95.8809,-9.8645 -2.9601,5.998 -5.8701,9.4267 -7.3188,12.6033 18.7307,6.708 117.9634,8.8349 106.078,1.4065 z"
       id="path5066"
       inkscape:connector-curvature="0"
       sodipodi:nodetypes="cccccccc" />
  </g>
  <g
     inkscape:groupmode="layer"
     id="layer1"
     inkscape:label="txt"
     style="display:inline">
    <text
       xml:space="preserve"
       style="font-style:normal;font-variant:normal;font-weight:normal;font-stretch:normal;line-height:0%;font-family:Lavi;-inkscape-font-specification:Lavi;text-align:center;letter-spacing:0px;word-spacing:0px;text-anchor:middle;fill:#000000;fill-opacity:1;stroke:none"
       x="1165.4561"
       y="1950.6425"
       id="text4246-3-9"><tspan
         sodipodi:role="line"
         style="font-size:45px;line-height:1.25"
         x="1165.4561"
         y="1950.6425"
         id="tspan4183-8">.i mi klama</tspan></text>
    <text
       xml:space="preserve"
       style="font-style:normal;font-variant:normal;font-weight:normal;font-stretch:normal;line-height:0%;font-family:Lavi;-inkscape-font-specification:Lavi;text-align:center;letter-spacing:0px;word-spacing:0px;text-anchor:middle;fill:#000000;fill-opacity:1;stroke:none"
       x="2137.0017"
       y="2370.491"
       id="text4246"><text
         xml:space="preserve"
         style="font-style:normal;font-variant:normal;font-weight:normal;font-stretch:normal;line-height:125%;font-family:Lavi;-inkscape-font-specification:Lavi;text-align:center;letter-spacing:0px;word-spacing:0px;text-anchor:middle;fill:#000000;fill-opacity:1;stroke:none"
         x="1174.7997"
         y="2038.2527"
         id="text4246-3"><tspan
           sodipodi:role="line"
           style="font-size:45px;line-height:125%"
           x="1174.7997"
           y="2038.2527"
           id="tspan3951">le zdani</tspan><tspan
           sodipodi:role="line"
           style="font-size:45px;line-height:125%"
           x="1174.7997"
           y="2094.5027"
           id="tspan3953">.i a'e nai do</tspan><tspan
           sodipodi:role="line"
           style="font-size:45px;line-height:125%"
           x="1182.7098"
           y="2150.7527"
           id="tspan3388">ze'u kakpa </tspan></text>
<tspan
         style="line-height:125%"
         id="tspan52">  </tspan><tspan
         sodipodi:role="line"
         style="font-size:45px;line-height:125%"
         x="1174.7997"
         y="2169.2861"
         id="tspan4252" /></text>
    <text
       xml:space="preserve"
       style="font-style:normal;font-variant:normal;font-weight:normal;font-stretch:normal;line-height:0%;font-family:Lavi;-inkscape-font-specification:Lavi;text-align:center;letter-spacing:0px;word-spacing:0px;text-anchor:middle;fill:#000000;fill-opacity:1;stroke:none"
       x="1236.5811"
       y="2249.5215"
       id="text4246-3-7"><tspan
         sodipodi:role="line"
         style="font-size:45px;line-height:1.25"
         x="1236.5811"
         y="2249.5215"
         id="tspan3968">.i ko sutra setca ro ti</tspan><tspan
         sodipodi:role="line"
         style="font-size:45px;line-height:1.25"
         x="1236.5811"
         y="2305.7715"
         id="tspan4241">voi jai se fliba mixre</tspan><tspan
         sodipodi:role="line"
         style="font-size:45px;line-height:1.25"
         x="1236.5811"
         y="2362.0215"
         id="tspan4243">vau lei dertu gi'e</tspan><tspan
         sodipodi:role="line"
         style="font-size:45px;line-height:1.25"
         x="1236.5811"
         y="2418.2715"
         id="tspan4245">ba zi bo klama le zdani</tspan></text>
    <text
       xml:space="preserve"
       style="font-style:normal;font-variant:normal;font-weight:normal;font-stretch:normal;line-height:0%;font-family:Lavi;-inkscape-font-specification:Lavi;text-align:center;letter-spacing:0px;word-spacing:0px;text-anchor:middle;fill:#000000;fill-opacity:1;stroke:none"
       x="2100.3884"
       y="2365.1826"
       id="text4246-3-7-6"><tspan
         sodipodi:role="line"
         style="font-size:45px;line-height:1.25"
         x="2100.3884"
         y="2365.1826"
         id="tspan3983">.i da'i le nu do klama</tspan><tspan
         sodipodi:role="line"
         style="font-size:45px;line-height:1.25"
         x="2100.3884"
         y="2421.4326"
         id="tspan4257">ca le bavlamdei cu</tspan><tspan
         sodipodi:role="line"
         style="font-size:45px;line-height:1.25"
         x="2100.3884"
         y="2477.6826"
         id="tspan4259">makfa .i ku'i .a'o do</tspan><tspan
         sodipodi:role="line"
         style="font-size:45px;line-height:1.25"
         x="2100.3884"
         y="2533.9326"
         id="tspan4261">se funca lo zabna</tspan></text>
    <text
       xml:space="preserve"
       style="font-style:normal;font-variant:normal;font-weight:normal;font-stretch:normal;line-height:0%;font-family:Lavi;-inkscape-font-specification:Lavi;text-align:center;letter-spacing:0px;word-spacing:0px;text-anchor:middle;fill:#000000;fill-opacity:1;stroke:none"
       x="760.45044"
       y="2709.3074"
       id="text4246-3-7-6-7"><tspan
         sodipodi:role="line"
         style="font-size:45px;line-height:1.25"
         x="760.45044"
         y="2709.3074"
         id="tspan3987">.i .i'a .ai</tspan><tspan
         sodipodi:role="line"
         style="font-size:45px;line-height:1.25"
         x="760.45044"
         y="2765.5574"
         id="tspan4265">mi sutra</tspan></text>
    <text
       xml:space="preserve"
       style="font-style:normal;font-variant:normal;font-weight:normal;font-stretch:normal;line-height:0%;font-family:Lavi;-inkscape-font-specification:Lavi;text-align:center;letter-spacing:0px;word-spacing:0px;text-anchor:middle;fill:#000000;fill-opacity:1;stroke:none"
       x="942.81274"
       y="2838.0046"
       id="text4246-3-7-6-7-0"><tspan
         sodipodi:role="line"
         style="font-size:45px;line-height:1.25"
         x="942.81274"
         y="2838.0046"
         id="tspan4770">.i ta'o ma a'u mukti</tspan><tspan
         sodipodi:role="line"
         style="font-size:45px;line-height:1.25"
         x="942.81274"
         y="2894.2546"
         id="tspan4272">le nu ro roi setca</tspan><tspan
         sodipodi:role="line"
         style="font-size:45px;line-height:1.25"
         x="942.81274"
         y="2950.5046"
         id="tspan4274">fi loi dertu</tspan></text>
    <text
       xml:space="preserve"
       style="font-style:normal;font-variant:normal;font-weight:normal;font-stretch:normal;line-height:0%;font-family:Lavi;-inkscape-font-specification:Lavi;text-align:center;letter-spacing:0px;word-spacing:0px;text-anchor:middle;fill:#000000;fill-opacity:1;stroke:none"
       x="1010.2942"
       y="3056.3855"
       id="text4246-3-7-6-7-0-9"><tspan
         sodipodi:role="line"
         style="font-size:45px;line-height:1.25"
         x="1010.2942"
         y="3056.3855"
         id="tspan4782">.i da'i ma'a</tspan></text>
    <text
       xml:space="preserve"
       style="font-style:normal;font-variant:normal;font-weight:normal;font-stretch:normal;line-height:0%;font-family:Lavi;-inkscape-font-specification:Lavi;text-align:center;letter-spacing:0px;word-spacing:0px;text-anchor:middle;fill:#000000;fill-opacity:1;stroke:none"
       x="2027.533"
       y="3283.2891"
       id="text4246-3-7-6-7-0-9-3"><tspan
         sodipodi:role="line"
         style="font-size:45px;line-height:1.25"
         x="2027.533"
         y="3283.2891"
         id="tspan4464-5">ba'e <tspan
   style="stroke:#000000;stroke-width:2.5999999;stroke-miterlimit:4;stroke-dasharray:none;stroke-opacity:1"
   id="tspan4493">mo</tspan></tspan></text>
  </g>
</svg>
