<?xml version="1.0" encoding="UTF-8" standalone="no"?>
<!-- Created With Inkscape (http://www.inkscape.org/) -->

<svg
   xmlns:osb="http://www.openswatchbook.org/uri/2009/osb"
   xmlns:dc="http://purl.org/dc/elements/1.1/"
   xmlns:cc="http://creativecommons.org/ns#"
   xmlns:rdf="http://www.w3.org/1999/02/22-rdf-syntax-ns#"
   xmlns:svg="http://www.w3.org/2000/svg"
   xmlns="http://www.w3.org/2000/svg"
   xmlns:xlink="http://www.w3.org/1999/xlink"
   xmlns:sodipodi="http://sodipodi.sourceforge.net/DTD/sodipodi-0.dtd"
   xmlns:inkscape="http://www.inkscape.org/namespaces/inkscape"
   id="svg2"
   version="1.1"
   inkscape:version="0.92.1 r15371"
   width="2646.3999"
   height="707.20001"
   sodipodi:docname="E13P00.svg"
   viewBox="0 0 2481 663">
  <metadata
     id="metadata8">
    <rdf:RDF>
      <cc:Work
         rdf:about="">
        <dc:format>image/svg+xml</dc:format>
        <dc:type
           rdf:resource="http://purl.org/dc/dcmitype/StillImage" />
        <dc:title />
      </cc:Work>
    </rdf:RDF>
  </metadata>
  <defs
     id="defs6">
    <linearGradient
       id="linearGradient6376"
       osb:paint="solid">
      <stop
         style="stop-color:#000000;stop-opacity:1;"
         offset="0"
         id="stop6378" />
    </linearGradient>
    <linearGradient
       id="linearGradient6366"
       osb:paint="solid">
      <stop
         style="stop-color:#61b27e;stop-opacity:1;"
         offset="0"
         id="stop6368" />
    </linearGradient>
    <linearGradient
       id="linearGradient6336"
       osb:paint="solid">
      <stop
         style="stop-color:#000000;stop-opacity:1;"
         offset="0"
         id="stop6338" />
    </linearGradient>
    <linearGradient
       inkscape:collect="always"
       id="linearGradient4290">
      <stop
         style="stop-color:#e80000;stop-opacity:1"
         offset="0"
         id="stop4292" />
      <stop
         id="stop4298"
         offset="0.5"
         style="stop-color:#9e1900;stop-opacity:1;" />
      <stop
         style="stop-color:#2b0000;stop-opacity:1"
         offset="1"
         id="stop4294" />
    </linearGradient>
    <filter
       inkscape:menu-tooltip="Transparent plastic with deep colors"
       inkscape:menu="Bevels"
       inkscape:label="Pepper-title-style"
       style="color-interpolation-filters:sRGB"
       id="filter4268">
      <feGaussianBlur
         in="SourceGraphic"
         result="result6"
         stdDeviation="0.20000000000000001"
         id="feGaussianBlur4270" />
      <feComposite
         in2="SourceGraphic"
         in="result6"
         operator="xor"
         id="feComposite4272" />
      <feGaussianBlur
         result="result2"
         stdDeviation="6.0001843317972341"
         id="feGaussianBlur4274" />
      <feComposite
         in2="SourceGraphic"
         operator="atop"
         result="result91"
         id="feComposite4276"
         stdDeviation="6" />
      <feComposite
         result="result4"
         in="result2"
         operator="xor"
         in2="result91"
         id="feComposite4278"
         stdDeviation="3.7000000000000002" />
      <feGaussianBlur
         in="result4"
         result="result3"
         stdDeviation="3.6962672811059902"
         id="feGaussianBlur4280" />
      <feSpecularLighting
         lighting-color="#d8bd6d"
         in="result3"
         result="result5"
         specularExponent="35"
         specularConstant="3"
         surfaceScale="12"
         id="feSpecularLighting4282">
        <feDistantLight
           elevation="45"
           azimuth="235"
           id="feDistantLight4284" />
      </feSpecularLighting>
      <feComposite
         in2="result5"
         in="SourceGraphic"
         k3="0.7"
         k2="0.8"
         operator="arithmetic"
         result="result7"
         id="feComposite4286"
         k1="0"
         k4="0" />
      <feComposite
         in="result7"
         operator="in"
         in2="SourceGraphic"
         id="feComposite4288" />
    </filter>
    <linearGradient
       inkscape:collect="always"
       xlink:href="#linearGradient4290"
       id="linearGradient4327-3"
       gradientUnits="userSpaceOnUse"
       x1="1243.5789"
       y1="254.0174"
       x2="1240.9818"
       y2="421.95773"
       gradientTransform="translate(-300.09377,-152.28618)" />
    <filter
       inkscape:menu-tooltip="Transparent plastic with deep colors"
       inkscape:menu="Bevels"
       inkscape:label="Pepper-title-style"
       style="color-interpolation-filters:sRGB"
       id="filter4268-0">
      <feGaussianBlur
         in="SourceGraphic"
         result="result6"
         stdDeviation="0.20000000000000001"
         id="feGaussianBlur4270-9" />
      <feComposite
         in2="SourceGraphic"
         in="result6"
         operator="xor"
         id="feComposite4272-3" />
      <feGaussianBlur
         result="result2"
         stdDeviation="6.0001843317972341"
         id="feGaussianBlur4274-4" />
      <feComposite
         in2="SourceGraphic"
         operator="atop"
         result="result91"
         id="feComposite4276-3"
         stdDeviation="6" />
      <feComposite
         result="result4"
         in="result2"
         operator="xor"
         in2="result91"
         id="feComposite4278-2"
         stdDeviation="3.7000000000000002" />
      <feGaussianBlur
         in="result4"
         result="result3"
         stdDeviation="3.6962672811059902"
         id="feGaussianBlur4280-5" />
      <feSpecularLighting
         lighting-color="#d8bd6d"
         in="result3"
         result="result5"
         specularExponent="35"
         specularConstant="3"
         surfaceScale="12"
         id="feSpecularLighting4282-0">
        <feDistantLight
           elevation="45"
           azimuth="235"
           id="feDistantLight4284-6" />
      </feSpecularLighting>
      <feComposite
         k4="0"
         k1="0"
         in2="result5"
         in="SourceGraphic"
         k3="0.7"
         k2="0.8"
         operator="arithmetic"
         result="result7"
         id="feComposite4286-6" />
      <feComposite
         in="result7"
         operator="in"
         in2="SourceGraphic"
         id="feComposite4288-4" />
    </filter>
    <linearGradient
       inkscape:collect="always"
       xlink:href="#linearGradient6336"
       id="linearGradient6344"
       x1="-49.621975"
       y1="-19.563873"
       x2="753.97321"
       y2="-19.563873"
       gradientUnits="userSpaceOnUse" />
    <linearGradient
       inkscape:collect="always"
       xlink:href="#linearGradient4290"
       id="linearGradient6388"
       x1="-50.121975"
       y1="-19.563873"
       x2="754.47321"
       y2="-19.563873"
       gradientUnits="userSpaceOnUse" />
    <linearGradient
       inkscape:collect="always"
       xlink:href="#linearGradient4290"
       id="linearGradient4327"
       gradientUnits="userSpaceOnUse"
       x1="1243.5789"
       y1="254.0174"
       x2="1240.9818"
       y2="421.95773"
       gradientTransform="translate(5.7072818,-2.8536363)" />
    <filter
       inkscape:menu-tooltip="Transparent plastic with deep colors"
       inkscape:menu="Bevels"
       inkscape:label="Pepper-title-style"
       style="color-interpolation-filters:sRGB"
       id="filter4268-01">
      <feGaussianBlur
         in="SourceGraphic"
         result="result6"
         stdDeviation="0.20000000000000001"
         id="feGaussianBlur4270-1" />
      <feComposite
         in2="SourceGraphic"
         in="result6"
         operator="xor"
         id="feComposite4272-2" />
      <feGaussianBlur
         result="result2"
         stdDeviation="6.0001843317972341"
         id="feGaussianBlur4274-6" />
      <feComposite
         in2="SourceGraphic"
         operator="atop"
         result="result91"
         id="feComposite4276-9"
         stdDeviation="6" />
      <feComposite
         result="result4"
         in="result2"
         operator="xor"
         in2="result91"
         id="feComposite4278-9"
         stdDeviation="3.7000000000000002" />
      <feGaussianBlur
         in="result4"
         result="result3"
         stdDeviation="3.6962672811059902"
         id="feGaussianBlur4280-52" />
      <feSpecularLighting
         lighting-color="#d8bd6d"
         in="result3"
         result="result5"
         specularExponent="35"
         specularConstant="3"
         surfaceScale="12"
         id="feSpecularLighting4282-9">
        <feDistantLight
           elevation="45"
           azimuth="235"
           id="feDistantLight4284-2" />
      </feSpecularLighting>
      <feComposite
         in2="result5"
         in="SourceGraphic"
         k3="0.7"
         k2="0.8"
         operator="arithmetic"
         result="result7"
         id="feComposite4286-62"
         k1="0"
         k4="0" />
      <feComposite
         in="result7"
         operator="in"
         in2="SourceGraphic"
         id="feComposite4288-47" />
    </filter>
    <filter
       inkscape:menu-tooltip="Transparent plastic with deep colors"
       inkscape:menu="Bevels"
       inkscape:label="Pepper-title-style"
       style="color-interpolation-filters:sRGB"
       id="filter4268-2">
      <feGaussianBlur
         in="SourceGraphic"
         result="result6"
         stdDeviation="0.20000000000000001"
         id="feGaussianBlur4270-96" />
      <feComposite
         in2="SourceGraphic"
         in="result6"
         operator="xor"
         id="feComposite4272-8" />
      <feGaussianBlur
         result="result2"
         stdDeviation="6.0001843317972341"
         id="feGaussianBlur4274-7" />
      <feComposite
         in2="SourceGraphic"
         operator="atop"
         result="result91"
         id="feComposite4276-8"
         stdDeviation="6" />
      <feComposite
         result="result4"
         in="result2"
         operator="xor"
         in2="result91"
         id="feComposite4278-5"
         stdDeviation="3.7000000000000002" />
      <feGaussianBlur
         in="result4"
         result="result3"
         stdDeviation="3.6962672811059902"
         id="feGaussianBlur4280-50" />
      <feSpecularLighting
         lighting-color="#d8bd6d"
         in="result3"
         result="result5"
         specularExponent="35"
         specularConstant="3"
         surfaceScale="12"
         id="feSpecularLighting4282-8">
        <feDistantLight
           elevation="45"
           azimuth="235"
           id="feDistantLight4284-0" />
      </feSpecularLighting>
      <feComposite
         in2="result5"
         in="SourceGraphic"
         k3="0.7"
         k2="0.8"
         operator="arithmetic"
         result="result7"
         id="feComposite4286-8"
         k1="0"
         k4="0" />
      <feComposite
         in="result7"
         operator="in"
         in2="SourceGraphic"
         id="feComposite4288-5" />
    </filter>
    <linearGradient
       inkscape:collect="always"
       xlink:href="#linearGradient4389"
       id="linearGradient4395"
       x1="1255.1119"
       y1="489.24805"
       x2="1260.4043"
       y2="325.1637"
       gradientUnits="userSpaceOnUse"
       gradientTransform="translate(-41.25,45)" />
    <linearGradient
       inkscape:collect="always"
       id="linearGradient4389">
      <stop
         style="stop-color:#a05a2c;stop-opacity:1"
         offset="0"
         id="stop4391" />
      <stop
         style="stop-color:#ffd42a;stop-opacity:1"
         offset="1"
         id="stop4393" />
    </linearGradient>
    <filter
       inkscape:menu-tooltip="Transparent plastic with deep colors"
       inkscape:menu="Bevels"
       inkscape:label="Pepper-title-style"
       style="color-interpolation-filters:sRGB"
       id="filter4268-7">
      <feGaussianBlur
         in="SourceGraphic"
         result="result6"
         stdDeviation="0.20000000000000001"
         id="feGaussianBlur4270-8" />
      <feComposite
         in2="SourceGraphic"
         in="result6"
         operator="xor"
         id="feComposite4272-82" />
      <feGaussianBlur
         result="result2"
         stdDeviation="6.0001843317972341"
         id="feGaussianBlur4274-5" />
      <feComposite
         in2="SourceGraphic"
         operator="atop"
         result="result91"
         id="feComposite4276-6"
         stdDeviation="6" />
      <feComposite
         result="result4"
         in="result2"
         operator="xor"
         in2="result91"
         id="feComposite4278-57"
         stdDeviation="3.7000000000000002" />
      <feGaussianBlur
         in="result4"
         result="result3"
         stdDeviation="3.6962672811059902"
         id="feGaussianBlur4280-1" />
      <feSpecularLighting
         lighting-color="#d8bd6d"
         in="result3"
         result="result5"
         specularExponent="35"
         specularConstant="3"
         surfaceScale="12"
         id="feSpecularLighting4282-05">
        <feDistantLight
           elevation="45"
           azimuth="235"
           id="feDistantLight4284-3" />
      </feSpecularLighting>
      <feComposite
         in2="result5"
         in="SourceGraphic"
         k3="0.7"
         k2="0.8"
         operator="arithmetic"
         result="result7"
         id="feComposite4286-9"
         k1="0"
         k4="0" />
      <feComposite
         in="result7"
         operator="in"
         in2="SourceGraphic"
         id="feComposite4288-3" />
    </filter>
    <linearGradient
       inkscape:collect="always"
       xlink:href="#linearGradient4290"
       id="linearGradient131"
       gradientUnits="userSpaceOnUse"
       gradientTransform="translate(-52.417718,42.146364)"
       x1="1243.5789"
       y1="254.0174"
       x2="1240.9818"
       y2="421.95773" />
    <linearGradient
       inkscape:collect="always"
       xlink:href="#linearGradient4290"
       id="linearGradient133"
       gradientUnits="userSpaceOnUse"
       gradientTransform="translate(-59.917718,42.146364)"
       x1="1243.5789"
       y1="254.0174"
       x2="1240.9818"
       y2="421.95773" />
  </defs>
  <sodipodi:namedview
     pagecolor="#ffffff"
     bordercolor="#666666"
     borderopacity="1"
     objecttolerance="10"
     gridtolerance="10"
     guidetolerance="10"
     inkscape:pageopacity="0"
     inkscape:pageshadow="2"
     inkscape:window-width="1218"
     inkscape:window-height="777"
     id="namedview4"
     showgrid="false"
     inkscape:zoom="0.20178622"
     inkscape:cx="547.62319"
     inkscape:cy="110.84272"
     inkscape:window-x="54"
     inkscape:window-y="-8"
     inkscape:window-maximized="1"
     inkscape:current-layer="layer1" />
  <g
     inkscape:groupmode="layer"
     id="layer2"
     inkscape:label="artwork"
     sodipodi:insensitive="true">
    <image
       sodipodi:absref="../gfx_Pepper-and-Carrot_by-David-Revoy_E13P00.png"
       xlink:href="../gfx_Pepper-and-Carrot_by-David-Revoy_E13P00.png"
       width="2481"
       height="663"
       id="image10"
       x="0"
       y="0" />
  </g>
  <g
     inkscape:groupmode="layer"
     id="layer1"
     inkscape:label="txt"
     style="display:inline">
    <text
       xml:space="preserve"
       style="font-style:normal;font-variant:normal;font-weight:normal;font-stretch:normal;line-height:0%;font-family:Arial;-inkscape-font-specification:Arial;text-align:center;letter-spacing:0px;word-spacing:0px;text-anchor:middle;display:inline;fill:#2b1100;fill-opacity:1;stroke:#000000;stroke-width:2;stroke-miterlimit:4;stroke-dasharray:none;stroke-opacity:1"
       x="1239.0663"
       y="582.47577"
       id="episode-title"><tspan
         sodipodi:role="line"
         id="tspan4180"
         style="font-style:normal;font-variant:normal;font-weight:normal;font-stretch:normal;font-size:72.5px;line-height:1.25;font-family:Lavi;-inkscape-font-specification:Lavi;text-align:center;text-anchor:middle;fill:#2b1100;stroke:none"
         x="1239.0663"
         y="582.47577">.i 13 mo'o nicte nu kelci</tspan></text>
    <text
       xml:space="preserve"
       style="font-style:normal;font-variant:normal;font-weight:normal;font-stretch:normal;font-size:37.5px;line-height:1.25;font-family:Cursivah;-inkscape-font-specification:Cursivah;letter-spacing:0px;word-spacing:0px;opacity:1;vector-effect:none;fill:url(#linearGradient131);fill-opacity:1;stroke:#552200;stroke-width:5.4000001;stroke-linecap:butt;stroke-linejoin:miter;stroke-miterlimit:4;stroke-dasharray:none;stroke-dashoffset:0;stroke-opacity:1;filter:url(#filter4268)"
       x="44.087189"
       y="359.63751"
       id="text72"><tspan
         sodipodi:role="line"
         id="tspan70"
         x="44.087189"
         y="359.63751"
         style="font-style:normal;font-variant:normal;font-weight:bold;font-stretch:normal;font-size:287.5px;font-family:Lavi;-inkscape-font-specification:'Lavi Bold';vector-effect:none;fill:url(#linearGradient131);fill-opacity:1;stroke:#552200;stroke-width:5.4000001;stroke-linecap:butt;stroke-linejoin:miter;stroke-miterlimit:4;stroke-dasharray:none;stroke-dashoffset:0;stroke-opacity:1;filter:url(#filter4268)">la piper.</tspan></text>
    <text
       xml:space="preserve"
       style="font-style:normal;font-variant:normal;font-weight:normal;font-stretch:normal;font-size:37.5px;line-height:1.25;font-family:Cursivah;-inkscape-font-specification:Cursivah;letter-spacing:0px;word-spacing:0px;opacity:1;vector-effect:none;fill:url(#linearGradient4395);fill-opacity:1;stroke:#552200;stroke-width:5.4000001;stroke-linecap:butt;stroke-linejoin:miter;stroke-miterlimit:4;stroke-dasharray:none;stroke-dashoffset:0;stroke-opacity:1;filter:url(#filter4268)"
       x="1129.9552"
       y="412.89999"
       id="text76"><tspan
         sodipodi:role="line"
         id="tspan74"
         x="1129.9552"
         y="412.89999"
         style="font-style:normal;font-variant:normal;font-weight:bold;font-stretch:normal;font-size:162.5px;font-family:Lavi;-inkscape-font-specification:'Lavi Bold';vector-effect:none;fill:url(#linearGradient4395);fill-opacity:1;stroke:#552200;stroke-width:5.4000001;stroke-linecap:butt;stroke-linejoin:miter;stroke-miterlimit:4;stroke-dasharray:none;stroke-dashoffset:0;stroke-opacity:1;filter:url(#filter4268)">joi</tspan></text>
    <text
       xml:space="preserve"
       style="font-style:normal;font-variant:normal;font-weight:normal;font-stretch:normal;font-size:37.5px;line-height:1.25;font-family:Cursivah;-inkscape-font-specification:Cursivah;letter-spacing:0px;word-spacing:0px;opacity:1;vector-effect:none;fill:url(#linearGradient133);fill-opacity:1;stroke:#552200;stroke-width:5.4000001;stroke-linecap:butt;stroke-linejoin:miter;stroke-miterlimit:4;stroke-dasharray:none;stroke-dashoffset:0;stroke-opacity:1;filter:url(#filter4268)"
       x="1347.0205"
       y="364.52499"
       id="text80"><tspan
         sodipodi:role="line"
         id="tspan78"
         x="1347.0205"
         y="364.52499"
         style="font-style:normal;font-variant:normal;font-weight:bold;font-stretch:normal;font-size:287.5px;font-family:Lavi;-inkscape-font-specification:'Lavi Bold';vector-effect:none;fill:url(#linearGradient133);fill-opacity:1;stroke:#552200;stroke-width:5.4000001;stroke-linecap:butt;stroke-linejoin:miter;stroke-miterlimit:4;stroke-dasharray:none;stroke-dashoffset:0;stroke-opacity:1;filter:url(#filter4268)">la karot.</tspan></text>
  </g>
</svg>
