<?xml version="1.0" encoding="UTF-8" standalone="no"?>
<!-- Created with Inkscape (http://www.inkscape.org/) -->

<svg
   xmlns:dc="http://purl.org/dc/elements/1.1/"
   xmlns:cc="http://creativecommons.org/ns#"
   xmlns:rdf="http://www.w3.org/1999/02/22-rdf-syntax-ns#"
   xmlns:svg="http://www.w3.org/2000/svg"
   xmlns="http://www.w3.org/2000/svg"
   xmlns:xlink="http://www.w3.org/1999/xlink"
   xmlns:sodipodi="http://sodipodi.sourceforge.net/DTD/sodipodi-0.dtd"
   xmlns:inkscape="http://www.inkscape.org/namespaces/inkscape"
   id="svg2"
   version="1.1"
   inkscape:version="0.92.2 2405546, 2018-03-11"
   width="2481"
   height="3503"
   sodipodi:docname="E26P06.svg">
  <metadata
     id="metadata8">
    <rdf:RDF>
      <cc:Work
         rdf:about="">
        <dc:format>image/svg+xml</dc:format>
        <dc:type
           rdf:resource="http://purl.org/dc/dcmitype/StillImage" />
        <dc:title />
      </cc:Work>
    </rdf:RDF>
  </metadata>
  <defs
     id="defs6" />
  <sodipodi:namedview
     pagecolor="#ffffff"
     bordercolor="#666666"
     borderopacity="1"
     objecttolerance="10"
     gridtolerance="10"
     guidetolerance="10"
     inkscape:pageopacity="0"
     inkscape:pageshadow="2"
     inkscape:window-width="956"
     inkscape:window-height="1022"
     id="namedview4"
     showgrid="false"
     inkscape:zoom="0.28124564"
     inkscape:cx="732.84322"
     inkscape:cy="1621.0259"
     inkscape:window-x="0"
     inkscape:window-y="24"
     inkscape:window-maximized="0"
     inkscape:current-layer="layer3"
     inkscape:snap-global="false" />
  <g
     inkscape:groupmode="layer"
     id="layer2"
     inkscape:label="artwork"
     sodipodi:insensitive="true">
    <image
       sodipodi:absref="/home/nightlock/peppercarrot/webcomics/new-ep26_Books-Are-Great/lang/kr/../gfx_Pepper-and-Carrot_by-David-Revoy_E26P06.png"
       xlink:href="../gfx_Pepper-and-Carrot_by-David-Revoy_E26P06.png"
       y="0"
       x="0"
       id="image10"
       height="3503"
       width="2481" />
  </g>
  <g
     inkscape:groupmode="layer"
     id="layer3"
     inkscape:label="speechbubbles">
    <path
       style="color:#000000;display:inline;overflow:visible;visibility:visible;fill:#ffffff;fill-opacity:1;fill-rule:nonzero;stroke:none;stroke-width:1.03131378px;marker:none;enable-background:accumulate"
       d="m 1526.7913,2329.2461 c -16.6979,-6.2866 -64.8453,-56.0835 -5.7947,-53.4826 -43.4596,-20.9531 -37.6824,-62.6535 -1.9683,-87.008 -46.8445,4.9777 -81.6073,-5.4154 -57.4696,-48.4545 -69.2909,27.5624 -96.2036,8.3379 -81.8037,-52.1146 -31.9195,49.8835 -62.5361,40.5732 -70.4232,-17.7809 -7.1931,43.4949 -23.8283,51.7384 -69.6005,-3.0262 -3.3693,15.9595 -15.4867,106.8374 -114.1857,92.3449 37.4042,30.42 61.165,49.8925 -2.486,62.7611 32.4388,13.6848 53.1256,32.2234 2.5685,61.675 32.7586,9.3017 84.584,6.5753 21.65,62.9047 41.4918,-26.6232 110.7047,-7.3868 80.8729,35.5565 81.3066,-48.2523 96.9445,-35.3859 109.2214,-0.8125 30.2314,-50.6251 73.9211,-44.8908 99.333,-15.4624 -12.3536,-44.8637 52.7505,-37.1198 90.0859,-37.1005 z"
       id="path3549-3-78"
       inkscape:connector-curvature="0"
       sodipodi:nodetypes="ccccccccccccccc" />
    <path
       style="color:#000000;display:inline;overflow:visible;visibility:visible;fill:#ffffff;fill-opacity:1;fill-rule:nonzero;stroke:none;stroke-width:1.01871407px;marker:none;enable-background:accumulate"
       d="m 1402.8571,2333.9593 c 8.6108,49.7588 2.9002,118.1574 -78.6529,106.2078 -25.201,28.7471 -47.7946,47.6765 -113.2114,34.184 49.8699,1.0663 77.1319,-3.8454 110.8215,-49.0964 42.563,0.7758 70.1242,-36.0119 48.4083,-95.037 -21.7161,-59.0252 -20.5388,-41.7552 -20.5388,-41.7552 l 47.376,28.0049 z"
       id="path5074"
       inkscape:connector-curvature="0"
       sodipodi:nodetypes="ccccsccc" />
    <path
       style="color:#000000;display:inline;overflow:visible;visibility:visible;fill:#ffffff;fill-opacity:1;fill-rule:nonzero;stroke:none;stroke-width:1.01638973px;marker:none;enable-background:accumulate"
       d="m 994.83967,1994.3578 c 21.28453,-30.9018 216.73473,-53.1198 279.88073,10.5624 63.1458,63.682 30.7636,130.3945 -5.4677,154.7093 -36.2313,24.3149 -190.1332,31.1629 -239.8491,18.7803 -44.70727,-11.1352 -64.84717,-39.0536 -67.32125,-102.8439 -1.00983,-26.0354 11.4728,-50.3062 32.75732,-81.2081 z"
       id="path4040"
       inkscape:connector-curvature="0"
       sodipodi:nodetypes="zssssz" />
  </g>
  <g
     inkscape:groupmode="layer"
     id="layer1"
     inkscape:label="txt">
    <path
       style="color:#000000;display:inline;overflow:visible;visibility:visible;fill:#ffffff;fill-opacity:1;fill-rule:nonzero;stroke:none;stroke-width:1px;marker:none;enable-background:accumulate"
       d="m 1740.3605,637.95688 c 17.4053,17.1181 35.3748,35.0294 57.0685,48.7241 6.1988,3.8199 12.7078,7.5251 19.009,9.9498 6.3746,1.4498 9.8735,-1.4122 10.2479,-5.6132 1.1947,-5.7353 -1.4145,-13.9047 3.6212,-17.285 3.8153,-2.3306 11.4822,0.8814 17.8675,3.1704 16.3272,6.0748 33.0627,13.8279 48.9378,17.9363 18.2324,5.5799 37.1007,10.4081 51.0148,8.0016 5.4182,-1.0555 10.3442,-3.0194 11.8487,-7.4624 -11.8529,-30.14705 -41.315,-28.57407 -60.2412,-23.1796 -6.8911,1.9398 -18.3474,-1.96756 -28.217,-4.71516 -12.4299,-0.8743 -25.0467,-6.21694 -38.7607,-12.19864 -6.261,-2.6676 -12.8949,-5.2059 -18.2978,-5.4716 -6.5707,1.3916 -9.2612,7.0734 -7.7874,13.4873 1.2952,6.5363 4.2551,10.27689 -1.1401,13.11709 -3.0033,2.6585 -7.7221,-0.63503 -13.1082,-3.00783 -17.4337,-9.2145 -34.1552,-18.02906 -48.3937,-31.46116 -1.2852,-1.3148 -2.4776,-2.6514 -3.6693,-3.992 z"
       id="path4496"
       inkscape:connector-curvature="0"
       sodipodi:nodetypes="cccccccccccccccccc"
       inkscape:transform-center-x="22.684309"
       inkscape:transform-center-y="9.4517954" />
    <path
       style="color:#000000;display:inline;overflow:visible;visibility:visible;fill:#ffffff;fill-opacity:1;fill-rule:nonzero;stroke:none;stroke-width:0.84162462px;marker:none;enable-background:accumulate"
       d="m 1866.1452,682.21912 c -3.3532,-36.09273 31.4019,-53.47964 101.915,-53.15731 70.513,0.32233 121.2217,-1.06812 135.1273,54.54926 5.2591,45.89008 -64.0431,55.95106 -125.2001,54.94894 -61.1569,-1.00211 -114.5955,-9.66529 -111.8422,-56.34089 z"
       id="path3565"
       inkscape:connector-curvature="0"
       sodipodi:nodetypes="cscsc" />
    <path
       style="color:#000000;display:inline;overflow:visible;visibility:visible;fill:#ffffff;fill-opacity:1;fill-rule:nonzero;stroke:none;stroke-width:1.50382614px;marker:none;enable-background:accumulate"
       d="m 917.47421,1029.7762 c 0,0 60.6469,11.021 70.27329,16.9555 9.6264,5.9344 -64.64891,103.7675 -206.82049,193.0191 146.4033,-81.1884 278.69889,-156.842 298.91449,-154.2986 -8.6637,16.9553 -39.9065,47.6441 -39.9065,47.6441 0,0 92.2094,-44.8238 101.8359,-43.9759 -2.8879,7.6298 3.8507,22.8898 3.8507,22.8898 l 43.8483,-9.9699 -47.7495,43.8426 c 0,0 147.1986,-50.6441 154.0738,-48.2849 7.8153,2.3592 -5.7757,49.171 -5.7757,49.171 l 43.8941,-34.7205 -2.5003,17.765 32.73,-28.8244 10.589,16.1077 22.8327,-17.8234 0.2708,18.6713 36.5806,-24.5856 12.5143,2.5434 31.7674,38.9976 11.9236,-19.9649 14.0678,-29.2451 56.7963,32.2546 3.8504,-4.2389 -5.4109,-34.226 28.5145,24.0527 -2.6371,-25.4135 26.7033,5.9146 20.512,12.4611 27.6204,17.2111 -6.3054,-35.4032 34.9339,18.2252 -8.4129,-32.8407 37.5432,13.5645 11.5517,8.4776 2.8878,-15.2598 12.5145,-0.8479 23.1034,5.9346 30.6681,5.7692 29.0437,6.1983 -53.9359,-43.3352 -13.4768,-11.8688 49.0949,-11.8689 11.5,-108.50431 -22.1281,-47.79742 -818.33992,3.29452 -112.85677,10.49659 99.85033,89.40223 -40.77238,9.02411 42.35651,12.7167 -41.39381,19.49878 25.99137,13.5643 z"
       id="path3931"
       inkscape:connector-curvature="0"
       sodipodi:nodetypes="ccccccccccccccccccccccccccccccccccccccccccccccccccccc" />
    <text
       id="text857"
       y="624.31781"
       x="1981.3068"
       style="font-style:normal;font-variant:normal;font-weight:normal;font-stretch:normal;font-size:16.70168686px;line-height:100%;font-family:'Nanum Pen Script OTF';-inkscape-font-specification:'Nanum Pen Script OTF';text-align:center;letter-spacing:0px;word-spacing:0px;text-anchor:middle;fill:#000000;fill-opacity:1;stroke:none;stroke-width:1.3918072"
       xml:space="preserve"><tspan
         id="tspan851"
         y="636.46448"
         x="1981.3068"
         style="font-style:normal;font-variant:normal;font-weight:normal;font-stretch:normal;font-size:62.63132477px;line-height:100%;font-family:'Nanum Pen Script OTF';-inkscape-font-specification:'Nanum Pen Script OTF';stroke-width:1.3918072"
         sodipodi:role="line" /><tspan
         y="653.1662"
         x="1981.3068"
         style="font-style:normal;font-variant:normal;font-weight:normal;font-stretch:normal;font-size:62.63132477px;line-height:100%;font-family:'Nanum Pen Script OTF';-inkscape-font-specification:'Nanum Pen Script OTF';stroke-width:1.3918072"
         sodipodi:role="line"
         id="tspan915" /><tspan
         id="tspan853"
         y="703.27124"
         x="1981.3068"
         style="font-style:normal;font-variant:normal;font-weight:normal;font-stretch:normal;font-size:62.63132477px;line-height:100%;font-family:'Nanum Pen Script OTF';-inkscape-font-specification:'Nanum Pen Script OTF';stroke-width:1.3918072"
         sodipodi:role="line">...잠시만</tspan><tspan
         id="tspan855"
         y="732.49921"
         x="1981.3068"
         style="font-style:normal;font-variant:normal;font-weight:normal;font-stretch:normal;font-size:62.63132477px;line-height:100%;font-family:'Nanum Pen Script OTF';-inkscape-font-specification:'Nanum Pen Script OTF';stroke-width:1.3918072"
         sodipodi:role="line" /></text>
    <text
       transform="matrix(0.97391078,0,-0.20538452,1.0267881,0,0)"
       id="text880"
       y="1028.8359"
       x="1626.469"
       style="font-style:normal;font-variant:normal;font-weight:normal;font-stretch:normal;font-size:27.14772606px;line-height:100%;font-family:'Nanum Pen Script OTF';-inkscape-font-specification:'Nanum Pen Script OTF';text-align:center;letter-spacing:0px;word-spacing:0px;text-anchor:middle;fill:#000000;fill-opacity:1;stroke:none;stroke-width:2.2623105"
       xml:space="preserve"><tspan
         id="tspan878"
         y="1028.8359"
         x="1626.469"
         style="font-style:normal;font-variant:normal;font-weight:normal;font-stretch:normal;font-size:101.8039856px;line-height:100%;font-family:'Nanum Pen Script OTF';-inkscape-font-specification:'Nanum Pen Script OTF';stroke-width:2.2623105"
         sodipodi:role="line"><tspan
   id="tspan860"
   style="font-style:normal;font-variant:normal;font-weight:normal;font-stretch:normal;font-size:100.55241394px;line-height:100%;font-family:'Nanum Pen Script OTF';-inkscape-font-specification:'Nanum Pen Script OTF';stroke-width:2.2623105">이야</tspan>아<tspan
   id="tspan937"
   style="font-style:normal;font-variant:normal;font-weight:normal;font-stretch:normal;font-size:110.93136597px;line-height:100%;font-family:'Nanum Pen Script OTF';-inkscape-font-specification:'Nanum Pen Script OTF';stroke-width:2.2623105">아</tspan><tspan
   id="tspan866"
   style="font-style:normal;font-variant:normal;font-weight:normal;font-stretch:normal;font-size:121.88170624px;line-height:100%;font-family:'Nanum Pen Script OTF';-inkscape-font-specification:'Nanum Pen Script OTF';stroke-width:2.2623105">아</tspan><tspan
   id="tspan939"
   style="font-style:normal;font-variant:normal;font-weight:normal;font-stretch:normal;font-size:134.39637756px;line-height:100%;font-family:'Nanum Pen Script OTF';-inkscape-font-specification:'Nanum Pen Script OTF';stroke-width:2.2623105">아</tspan><tspan
   style="font-style:normal;font-variant:normal;font-weight:normal;font-stretch:normal;font-size:152.35214233px;line-height:100%;font-family:'Nanum Pen Script OTF';-inkscape-font-specification:'Nanum Pen Script OTF';stroke-width:2.2623105"
   id="tspan868">아</tspan><tspan
   style="font-style:normal;font-variant:normal;font-weight:normal;font-stretch:normal;font-size:176.56523132px;line-height:100%;font-family:'Nanum Pen Script OTF';-inkscape-font-specification:'Nanum Pen Script OTF';stroke-width:2.2623105"
   id="tspan870">아</tspan><tspan
   id="tspan941"
   style="font-style:normal;font-variant:normal;font-weight:normal;font-stretch:normal;font-size:188.67178345px;line-height:100%;font-family:'Nanum Pen Script OTF';-inkscape-font-specification:'Nanum Pen Script OTF';stroke-width:2.2623105">!</tspan><tspan
   style="font-style:normal;font-variant:normal;font-weight:normal;font-stretch:normal;font-size:198.05778503px;line-height:100%;font-family:'Nanum Pen Script OTF';-inkscape-font-specification:'Nanum Pen Script OTF';stroke-width:2.2623105"
   id="tspan876">!</tspan><tspan
   id="tspan943"
   style="font-style:normal;font-variant:normal;font-weight:normal;font-stretch:normal;font-size:209.00813293px;line-height:100%;font-family:'Nanum Pen Script OTF';-inkscape-font-specification:'Nanum Pen Script OTF';stroke-width:2.2623105">!</tspan></tspan></text>
    <text
       transform="matrix(0.82502499,-0.15244349,0.27439866,1.1613826,0,0)"
       id="text890"
       y="1737.0457"
       x="1896.3458"
       style="font-style:normal;font-variant:normal;font-weight:normal;font-stretch:normal;font-size:21.56215477px;line-height:100%;font-family:'Nanum Pen Script OTF';-inkscape-font-specification:'Nanum Pen Script OTF';text-align:center;letter-spacing:0px;word-spacing:0px;text-anchor:middle;fill:#000000;fill-opacity:1;stroke:none;stroke-width:2.22245693;stroke-miterlimit:4;stroke-dasharray:none;stroke-dashoffset:0"
       xml:space="preserve"><tspan
         id="tspan888"
         y="1737.0457"
         x="1896.3458"
         style="font-style:normal;font-variant:normal;font-weight:normal;font-stretch:normal;font-size:80.85808563px;line-height:100%;font-family:'Nanum Pen Script OTF';-inkscape-font-specification:'Nanum Pen Script OTF';stroke:#000000;stroke-width:2.22245693;stroke-linecap:square;stroke-miterlimit:4;stroke-dasharray:none;stroke-dashoffset:0;stroke-opacity:1;paint-order:normal"
         sodipodi:role="line"><tspan
           style="font-style:normal;font-variant:normal;font-weight:normal;font-stretch:normal;font-size:198.7961731px;line-height:100%;font-family:'Nanum Pen Script OTF';-inkscape-font-specification:'Nanum Pen Script OTF';stroke:#000000;stroke-width:2.22245693;stroke-linecap:square;stroke-miterlimit:4;stroke-dasharray:none;stroke-dashoffset:0;stroke-opacity:1;paint-order:normal"
           id="tspan886">뽕!</tspan></tspan></text>
    <text
       transform="scale(0.99789912,1.0021053)"
       id="text896"
       y="2237.7749"
       x="1322.8746"
       style="font-style:normal;font-variant:normal;font-weight:normal;font-stretch:normal;font-size:22.66766357px;line-height:100%;font-family:'Nanum Pen Script OTF';-inkscape-font-specification:'Nanum Pen Script OTF';text-align:center;letter-spacing:0px;word-spacing:0px;text-anchor:middle;fill:#000000;fill-opacity:1;stroke:#000000;stroke-width:1.6796999;stroke-opacity:1"
       xml:space="preserve"><tspan
         id="tspan894"
         y="2237.7749"
         x="1322.8746"
         style="font-style:normal;font-variant:normal;font-weight:normal;font-stretch:normal;font-size:85.0037384px;line-height:100%;font-family:'Nanum Pen Script OTF';-inkscape-font-specification:'Nanum Pen Script OTF';stroke:#000000;stroke-width:1.6796999;stroke-opacity:1"
         sodipodi:role="line">...책이</tspan><tspan
         y="2322.7786"
         x="1322.8746"
         style="font-style:normal;font-variant:normal;font-weight:normal;font-stretch:normal;font-size:85.0037384px;line-height:100%;font-family:'Nanum Pen Script OTF';-inkscape-font-specification:'Nanum Pen Script OTF';stroke:#000000;stroke-width:1.6796999;stroke-opacity:1"
         sodipodi:role="line"
         id="tspan957">최고야!</tspan></text>
    <text
       id="text906"
       y="2030.6294"
       x="1146.0656"
       style="font-style:normal;font-variant:normal;font-weight:normal;font-stretch:normal;font-size:15.16395283px;line-height:100%;font-family:'Nanum Pen Script OTF';-inkscape-font-specification:'Nanum Pen Script OTF';text-align:center;letter-spacing:0px;word-spacing:0px;text-anchor:middle;fill:#000000;fill-opacity:1;stroke:none;stroke-width:1.26366282"
       xml:space="preserve"><tspan
         id="tspan900"
         y="2030.6294"
         x="1146.0656"
         style="font-style:normal;font-variant:normal;font-weight:normal;font-stretch:normal;font-size:56.8648262px;line-height:100%;font-family:'Nanum Pen Script OTF';-inkscape-font-specification:'Nanum Pen Script OTF';stroke-width:1.26366282"
         sodipodi:role="line">아니야,</tspan><tspan
         y="2087.4941"
         x="1146.0656"
         style="font-style:normal;font-variant:normal;font-weight:normal;font-stretch:normal;font-size:56.8648262px;line-height:100%;font-family:'Nanum Pen Script OTF';-inkscape-font-specification:'Nanum Pen Script OTF';stroke-width:1.26366282"
         sodipodi:role="line"
         id="tspan953">맞았어;</tspan><tspan
         y="2144.3591"
         x="1146.0656"
         style="font-style:normal;font-variant:normal;font-weight:normal;font-stretch:normal;font-size:56.8648262px;line-height:100%;font-family:'Nanum Pen Script OTF';-inkscape-font-specification:'Nanum Pen Script OTF';stroke-width:1.26366282"
         sodipodi:role="line"
         id="tspan947">어느 상황에서나...</tspan></text>
    <text
       transform="matrix(0.95719015,0,-0.32603671,1.0447245,0,0)"
       id="text910"
       y="3325.2019"
       x="2413.7732"
       style="font-style:normal;font-variant:normal;font-weight:normal;font-stretch:normal;font-size:13.08223915px;line-height:100%;font-family:'Nanum Pen Script OTF';-inkscape-font-specification:'Nanum Pen Script OTF';text-align:center;letter-spacing:0px;word-spacing:0px;text-anchor:middle;display:inline;opacity:1;fill:#241c1c;fill-opacity:1;stroke:#000000;stroke-width:2.67223892;stroke-miterlimit:4;stroke-dasharray:none;stroke-opacity:1;"
       xml:space="preserve"><tspan
         style="font-style:normal;font-variant:normal;font-weight:normal;font-stretch:normal;font-size:78.69050598px;line-height:100%;font-family:'Nanum Pen Script OTF';-inkscape-font-specification:'Nanum Pen Script OTF';fill:#000000;fill-opacity:1;stroke:#000000;stroke-width:2.67223892;stroke-miterlimit:4;stroke-dasharray:none;stroke-opacity:1;"
         y="3325.2019"
         x="2413.7732"
         id="tspan908"
         sodipodi:role="line">- 끝 -</tspan></text>
  </g>
</svg>
