<?xml version="1.0" encoding="UTF-8" standalone="no"?>
<!-- Created with Inkscape (http://www.inkscape.org/) -->

<svg
   xmlns:dc="http://purl.org/dc/elements/1.1/"
   xmlns:cc="http://creativecommons.org/ns#"
   xmlns:rdf="http://www.w3.org/1999/02/22-rdf-syntax-ns#"
   xmlns:svg="http://www.w3.org/2000/svg"
   xmlns="http://www.w3.org/2000/svg"
   xmlns:xlink="http://www.w3.org/1999/xlink"
   xmlns:sodipodi="http://sodipodi.sourceforge.net/DTD/sodipodi-0.dtd"
   xmlns:inkscape="http://www.inkscape.org/namespaces/inkscape"
   id="svg2"
   version="1.1"
   inkscape:version="0.92.3 (2405546, 2018-03-11)"
   width="2481"
   height="3503"
   sodipodi:docname="E26P02.svg">
  <metadata
     id="metadata8">
    <rdf:RDF>
      <cc:Work
         rdf:about="">
        <dc:format>image/svg+xml</dc:format>
        <dc:type
           rdf:resource="http://purl.org/dc/dcmitype/StillImage" />
        <dc:title />
      </cc:Work>
    </rdf:RDF>
  </metadata>
  <defs
     id="defs6">
    <filter
       style="color-interpolation-filters:sRGB"
       id="filter4375-4-1-1-15-1-3"
       inkscape:label="deevad outline effect">
      <feFlood
         id="feFlood4377-7-9-0-4-4-4"
         flood-opacity="1"
         flood-color="rgb(0,0,0)"
         result="flood" />
      <feComposite
         id="feComposite4379-3-8-8-6-0-7"
         in2="SourceGraphic"
         in="flood"
         operator="in"
         result="composite1" />
      <feMorphology
         id="feMorphology4393-1-0-49-8-2-7"
         operator="dilate"
         radius="0.69999999999999996"
         result="result3" />
      <feComposite
         id="feComposite4385-9-5-7-2-1-2"
         in2="result3"
         in="SourceGraphic"
         operator="over"
         result="composite2" />
    </filter>
    <filter
       style="color-interpolation-filters:sRGB"
       id="filter4375-4-1-1-15-1-3-0"
       inkscape:label="deevad outline effect">
      <feFlood
         id="feFlood4377-7-9-0-4-4-4-0"
         flood-opacity="1"
         flood-color="rgb(0,0,0)"
         result="flood" />
      <feComposite
         id="feComposite4379-3-8-8-6-0-7-3"
         in2="SourceGraphic"
         in="flood"
         operator="in"
         result="composite1" />
      <feMorphology
         id="feMorphology4393-1-0-49-8-2-7-4"
         operator="dilate"
         radius="0.90000000000000002"
         result="result3" />
      <feComposite
         id="feComposite4385-9-5-7-2-1-2-6"
         in2="result3"
         in="SourceGraphic"
         operator="over"
         result="composite2" />
    </filter>
  </defs>
  <sodipodi:namedview
     pagecolor="#ffffff"
     bordercolor="#666666"
     borderopacity="1"
     objecttolerance="10"
     gridtolerance="10"
     guidetolerance="10"
     inkscape:pageopacity="0"
     inkscape:pageshadow="2"
     inkscape:window-width="1920"
     inkscape:window-height="1058"
     id="namedview4"
     showgrid="false"
     inkscape:zoom="0.70710678"
     inkscape:cx="1157.714"
     inkscape:cy="2147.2991"
     inkscape:window-x="1358"
     inkscape:window-y="-8"
     inkscape:window-maximized="1"
     inkscape:current-layer="layer3"
     inkscape:snap-global="false"
     borderlayer="true"
     inkscape:showpageshadow="false" />
  <g
     inkscape:groupmode="layer"
     id="layer2"
     inkscape:label="artwork"
     sodipodi:insensitive="true">
    <image
       sodipodi:absref="C:\Users\QuentinLipeck\Downloads\ep26_Books-Are-Great_lang-pack\lang\de\../gfx_Pepper-and-Carrot_by-David-Revoy_E26P02.png"
       xlink:href="../gfx_Pepper-and-Carrot_by-David-Revoy_E26P02.png"
       y="0"
       x="0"
       id="image10"
       height="3503"
       width="2481" />
  </g>
  <g
     inkscape:groupmode="layer"
     id="layer3"
     inkscape:label="speechbubbles">
    <path
       style="color:#000000;display:inline;overflow:visible;visibility:visible;fill:#ffffff;fill-opacity:1;fill-rule:nonzero;stroke:none;stroke-width:1.29816473px;marker:none;enable-background:accumulate"
       d="M 76.470802,661.00169 C 70.59599,637.97962 80.157676,533.58483 216.22301,524.31738 c 136.06544,-9.26747 180.35034,48.87042 184.16778,80.31448 3.81745,31.44388 16.51037,92.53509 -14.07622,117.14313 -27.2372,22.1727 -80.99345,22.6164 -127.5579,29.5048 -53.71887,8.8109 -137.8831,-3.0701 -162.017464,-27.5142 -24.134249,-24.44404 -11.251254,-21.55635 -20.268404,-62.7639 z"
       id="path3365-3"
       inkscape:connector-curvature="0"
       sodipodi:nodetypes="cssccsc" />
    <path
       style="color:#000000;display:inline;overflow:visible;visibility:visible;fill:#ffffff;fill-opacity:1;fill-rule:nonzero;stroke:none;stroke-width:1.63566649px;marker:none;enable-background:accumulate"
       d="M 181.80721,311.01848 C 194.59145,543.14637 235.94745,787.00744 378.6466,837.81258 276.65833,787.36708 219.49009,550.6603 218.48358,327.373 218.27015,280.02456 199.72673,307.82462 199.72673,307.82462 Z"
       id="path4440"
       inkscape:connector-curvature="0"
       sodipodi:nodetypes="ccscc" />
    <path
       style="fill:#ffffff;stroke:none;stroke-width:1.64498878"
       d="m 1088.891,90.084595 c 34.5123,-1.888132 274.1307,-24.542972 224.1195,150.572585 -26.7424,93.63912 0.013,180.23019 4.4747,234.41087 6.8505,83.18698 -74.904,111.30672 -181.3819,109.2169 C 944.2743,580.51996 978.64033,504.05787 981.38091,276.46115 983.21914,123.80182 996.2815,95.603268 1088.891,90.084595 Z"
       id="path3280-8"
       inkscape:connector-curvature="0"
       sodipodi:nodetypes="cssssc" />
    <path
       style="color:#000000;display:inline;overflow:visible;visibility:visible;fill:#ffffff;fill-opacity:1;fill-rule:nonzero;stroke:none;stroke-width:1.45930743px;marker:none;enable-background:accumulate"
       d="m 1270.4587,817.02326 c -52.2412,-10.38957 -90.1219,-52.2826 -82.2673,-117.43179 7.8551,-73.36812 7.6985,-80.57712 7.6985,-80.57712 l -55.1615,2.38205 c 0,0 3.3492,196.86393 129.7303,195.62686 z"
       id="path3072"
       inkscape:connector-curvature="0"
       inkscape:transform-center-x="-3.4248275"
       inkscape:transform-center-y="27.464172"
       sodipodi:nodetypes="ccccc" />
    <path
       style="fill:#ffffff;fill-rule:evenodd;stroke:none;stroke-width:1.23897243px;stroke-linecap:butt;stroke-linejoin:miter;stroke-opacity:1"
       d="m 960.25904,591.49962 c 33.10314,3.4952 66.04676,-1.8493 39.28414,-54.4718 25.97322,18.642 68.71082,38.2355 99.00072,-6.633 8.6752,56.8613 64.1453,24.3712 91.5702,-0.5503 -40.9061,59.1974 77.9429,43.42073 95.0479,11.85058 -12.3454,34.40947 35.0145,33.73186 66.5656,35.27366 -66.743,59.3702 -66.9919,102.36486 -40.6926,124.72626 -65.5927,-16.5442 -49.729,16.9775 -57.5634,35.9333 -71.2772,-54.69404 -109.2185,-42.16952 -129.5174,7.1867 -16.908,-21.7218 -22.2152,-66.617 -84.5459,2.3955 22.9207,-59.5777 -7.1232,-53.3242 -55.76416,-23.9554 7.62309,-20.293 52.93076,-51.1514 -23.3851,-47.9112 47.66836,-19.2915 57.66466,-45.4244 0,-83.8443 z"
       id="path4584"
       inkscape:connector-curvature="0"
       sodipodi:nodetypes="ccccccccccccc" />
    <path
       style="fill:#ffffff;fill-opacity:1;stroke:none;stroke-width:2.04304218"
       d="m 1992.8721,203.13859 c 1.8296,-62.31079 31.257,-97.33389 61.4469,-111.971705 38.2612,-18.55136 330.2612,-22.550822 363.5681,29.445465 30.6745,47.88695 17.0832,135.92706 -74.5111,179.41674 -91.5943,43.48952 -252.5043,11.89012 -278.5253,3.98305 -26.0212,-7.90725 -74.8202,-13.15638 -71.9786,-100.87355 z"
       id="path3659-8"
       inkscape:connector-curvature="0"
       sodipodi:nodetypes="cssssc" />
    <path
       style="fill:#ffffff;stroke:none;stroke-width:1.12429571"
       d="m 2187.8594,352.9469 c -0.8756,-41.87209 25.2691,-51.27448 51.8008,-57.16805 26.5317,-5.89345 108.9888,0.63901 102.9316,51.8773 -6.0571,51.23841 -45.9531,58.33952 -78.9162,56.07445 -32.9632,-2.2652 -71.0332,-11.10871 -75.8162,-50.7837 z"
       id="path3938"
       inkscape:connector-curvature="0"
       sodipodi:nodetypes="csssc" />
    <path
       style="color:#000000;display:inline;overflow:visible;visibility:visible;fill:#ffffff;fill-opacity:1;fill-rule:nonzero;stroke:none;stroke-width:1px;marker:none;enable-background:accumulate"
       d="m 2155.8807,413.81052 c 41.2209,-1.94348 55.6641,-5.00539 71.331,-50.72285 15.6671,-45.71761 32.4158,-38.48457 32.4158,-38.48457 l 7.7097,32.88324 c 0,0 -40.1576,94.75832 -111.4565,56.32418 z"
       id="path3072-5"
       inkscape:connector-curvature="0" />
    <path
       style="color:#000000;display:inline;overflow:visible;visibility:visible;fill:#ffffff;fill-opacity:1;fill-rule:nonzero;stroke:none;stroke-width:1.2008816px;marker:none;enable-background:accumulate"
       d="m 1921.3895,980.69769 c 13.6965,-75.1209 42.8664,-127.26315 237.5081,-134.5503 379.7796,-14.21852 257.3654,133.44793 255.7774,170.35731 -1.5878,36.9091 -60.1682,110.4552 -88.7498,119.6825 -119.229,31.218 -296.0194,40.7205 -381.0341,-14.9265 -54.1193,-49.5548 -27.8439,-106.3463 -23.5016,-140.56301 z"
       id="path3365-5"
       inkscape:connector-curvature="0"
       sodipodi:nodetypes="cscccc" />
    <path
       style="fill:#ffffff;stroke:none;stroke-width:1"
       d="m 2198.814,1073.9531 c -28.3487,40.1842 -21.9808,80.5701 -11.3851,96.8521 10.5958,16.2818 -14.1224,62.2852 -32.5966,66.3613 42.1318,-2.545 63.2033,-58.0225 57.8284,-106.2564 -1.5781,-14.1607 13.8192,-31.6694 32.5349,-30.4271 17.298,1.1482 33.3984,-19.3288 33.3984,-19.3288 z"
       id="path3276"
       inkscape:connector-curvature="0"
       sodipodi:nodetypes="cscsscc" />
    <path
       style="fill:#ffffff;stroke:none;stroke-width:1.19666982"
       d="m 61.741565,2233.8541 c -1.441516,-117.0147 24.431108,-178.5016 327.983805,-174.5571 424.89062,5.5212 455.20578,79.9025 459.45331,217.1782 5.81572,187.9586 -250.72145,155.929 -455.72752,157.3727 C 39.6791,2436.3393 71.762137,2353.6794 61.741565,2233.8541 Z"
       id="path3280-8-0"
       inkscape:connector-curvature="0"
       sodipodi:nodetypes="csssc" />
    <path
       style="fill:#ffffff;stroke:none;stroke-width:1.09101391"
       d="m 754.93586,2551.2037 c 3.21307,99.6845 -10.76613,137.2658 -209.77604,149.1922 -275.42947,16.5062 -300.33843,-67.3541 -302.84402,-184.3389 -2.70332,-126.2186 129.04837,-115.1005 257.15566,-129.5056 228.16538,-25.6565 246.62076,62.5863 255.4644,164.6523 z"
       id="path3280-8-0-3"
       inkscape:connector-curvature="0"
       sodipodi:nodetypes="csssc" />
    <path
       style="color:#000000;display:inline;overflow:visible;visibility:visible;fill:#ffffff;fill-opacity:1;fill-rule:nonzero;stroke:none;stroke-width:1.14130604px;marker:none;enable-background:accumulate"
       d="m 1671.8337,2905.7298 c -24.1328,-37.2281 -42.1524,-132.3158 180.3523,-121.0156 164.2668,6.2307 218.716,18.1792 218.6987,78.1374 -0.017,59.9582 18.0414,86.5455 -113.4474,92.9818 -120.3856,3.3092 -245.5545,0.9743 -285.6036,-50.1036 z"
       id="path3525"
       inkscape:connector-curvature="0"
       sodipodi:nodetypes="cczcc" />
    <path
       style="color:#000000;display:inline;overflow:visible;visibility:visible;fill:#ffffff;fill-opacity:1;fill-rule:nonzero;stroke:none;stroke-width:0.932679px;marker:none;enable-background:accumulate"
       d="m 826.59271,2654.0243 c -38.61235,13.1991 -53.23313,15.8331 -88.53084,-16.7571 -35.29767,-32.5903 -47.30824,-20.5196 -47.30824,-20.5196 l 8.02128,30.2663 c 0,0 80.19331,64.7861 127.8178,7.0104 z"
       id="path3072-6"
       inkscape:connector-curvature="0" />
    <path
       style="color:#000000;display:inline;overflow:visible;visibility:visible;fill:#ffffff;fill-opacity:1;fill-rule:nonzero;stroke:none;stroke-width:1px;marker:none;enable-background:accumulate"
       d="m 1885.9302,2880.543 c -8.5379,-41.2674 -44.7927,-105.1616 -72.2125,-139.41 -35.1182,-43.864 -72.8214,-53.3837 -92.0424,-60.2184 -19.2212,-6.8347 -32.1844,10.3588 -49.896,10.3433 -15.217,-0.013 -25.6847,-6.7896 -32.7226,-18.2648 9.7927,27.8644 34.0049,32.1826 44.6949,29.5469 10.6902,-2.6357 26.8117,-12.6559 45.0036,-2.5829 24.2118,13.4064 47.6718,29.1496 76.3935,72.336 25.957,39.0295 44.3792,76.7753 41.8276,91.0824 -2.5517,14.3073 38.9539,17.1675 38.9539,17.1675 z"
       id="path4562"
       inkscape:connector-curvature="0"
       sodipodi:nodetypes="cssscssssc" />
  </g>
  <g
     inkscape:groupmode="layer"
     id="layer1"
     inkscape:label="txt">
    <path
       style="color:#000000;display:inline;overflow:visible;visibility:visible;fill:#ffffff;fill-opacity:1;fill-rule:nonzero;stroke:none;stroke-width:1.41941655px;marker:none;enable-background:accumulate"
       d="m 41.381895,210.90916 c -2.833048,-22.29049 24.620698,-88.46018 198.279435,-89.31804 228.00665,-1.12633 239.35005,34.71104 219.96489,138.20085 -5.56564,29.71279 -20.91332,49.83686 -57.74708,70.98562 -36.83375,21.14875 -173.29465,23.70185 -215.79089,17.75793 C 143.59231,342.59129 90.960697,341.41918 56.382794,302.83445 31.824442,275.43032 44.214955,216.85323 41.381895,210.90916 Z"
       id="path3365"
       inkscape:connector-curvature="0"
       sodipodi:nodetypes="csszcsc" />
    <text
       xml:space="preserve"
       style="font-style:normal;font-variant:normal;font-weight:normal;font-stretch:normal;line-height:0%;font-family:Lavi;-inkscape-font-specification:Lavi;text-align:center;letter-spacing:0px;word-spacing:0px;text-anchor:middle;fill:#000000;fill-opacity:1;stroke:none"
       x="272.7869"
       y="193.31723"
       id="text4246"><tspan
         sodipodi:role="line"
         style="font-size:45px;line-height:1.25"
         x="280.69705"
         y="193.31723"
         id="tspan3812">...und dann das </tspan><tspan
         sodipodi:role="line"
         style="font-size:45px;line-height:1.25"
         x="280.69705"
         y="249.56723"
         id="tspan101">Auge mit einem </tspan><tspan
         sodipodi:role="line"
         style="font-size:45px;line-height:1.25"
         x="272.7869"
         y="305.81723"
         id="tspan103">Hut bedeckt...</tspan></text>
    <text
       xml:space="preserve"
       style="font-style:normal;font-variant:normal;font-weight:normal;font-stretch:normal;line-height:0%;font-family:Lavi;-inkscape-font-specification:Lavi;text-align:center;letter-spacing:0px;word-spacing:0px;text-anchor:middle;fill:#000000;fill-opacity:1;stroke:none"
       x="240.4431"
       y="597.30139"
       id="text4246-3"><tspan
         sodipodi:role="line"
         style="font-size:45px;line-height:1.25"
         x="240.4431"
         y="597.30139"
         id="tspan901">...sollte sich</tspan><tspan
         sodipodi:role="line"
         style="font-size:45px;line-height:1.25"
         x="240.4431"
         y="653.55139"
         id="tspan3821">die Tür von</tspan><tspan
         sodipodi:role="line"
         style="font-size:45px;line-height:1.25"
         x="240.4431"
         y="709.80139"
         id="tspan3823">selbst öffnen!</tspan></text>
    <text
       xml:space="preserve"
       style="font-style:normal;font-variant:normal;font-weight:normal;font-stretch:normal;font-size:12.41686249px;line-height:0%;font-family:Lavi;-inkscape-font-specification:Lavi;text-align:center;letter-spacing:0px;word-spacing:0px;text-anchor:middle;fill:#000000;fill-opacity:1;stroke:none;stroke-width:1.03473854"
       x="1106.0535"
       y="198.48218"
       id="text4246-5"
       transform="scale(1.0347385,0.96642774)"><tspan
         sodipodi:role="line"
         style="font-style:normal;font-variant:normal;font-weight:normal;font-stretch:normal;font-size:45px;line-height:1.25;font-family:Lavi;-inkscape-font-specification:'Lavi, Normal';font-variant-ligatures:normal;font-variant-caps:normal;font-variant-numeric:normal;font-feature-settings:normal;text-align:center;writing-mode:lr-tb;text-anchor:middle;stroke-width:1.03473854"
         x="1113.9636"
         y="198.48218"
         id="tspan3852">Es wird sogar </tspan><tspan
         sodipodi:role="line"
         style="font-style:normal;font-variant:normal;font-weight:normal;font-stretch:normal;font-size:45px;line-height:1.25;font-family:Lavi;-inkscape-font-specification:'Lavi, Normal';font-variant-ligatures:normal;font-variant-caps:normal;font-variant-numeric:normal;font-feature-settings:normal;text-align:center;writing-mode:lr-tb;text-anchor:middle;stroke-width:1.03473854"
         x="1113.9636"
         y="254.73218"
         id="tspan3854">empfohlen, </tspan><tspan
         sodipodi:role="line"
         style="font-style:normal;font-variant:normal;font-weight:normal;font-stretch:normal;font-size:45px;line-height:1.25;font-family:Lavi;-inkscape-font-specification:'Lavi, Normal';font-variant-ligatures:normal;font-variant-caps:normal;font-variant-numeric:normal;font-feature-settings:normal;text-align:center;writing-mode:lr-tb;text-anchor:middle;stroke-width:1.03473854"
         x="1113.9636"
         y="310.98218"
         id="tspan3856">den Hut </tspan><tspan
         sodipodi:role="line"
         style="font-style:normal;font-variant:normal;font-weight:normal;font-stretch:normal;font-size:45px;line-height:1.25;font-family:Lavi;-inkscape-font-specification:'Lavi, Normal';font-variant-ligatures:normal;font-variant-caps:normal;font-variant-numeric:normal;font-feature-settings:normal;text-align:center;writing-mode:lr-tb;text-anchor:middle;stroke-width:1.03473854"
         x="1113.9636"
         y="367.23218"
         id="tspan3858">dazulassen, </tspan><tspan
         sodipodi:role="line"
         style="font-style:normal;font-variant:normal;font-weight:normal;font-stretch:normal;font-size:45px;line-height:1.25;font-family:Lavi;-inkscape-font-specification:'Lavi, Normal';font-variant-ligatures:normal;font-variant-caps:normal;font-variant-numeric:normal;font-feature-settings:normal;text-align:center;writing-mode:lr-tb;text-anchor:middle;stroke-width:1.03473854"
         x="1113.9636"
         y="423.48218"
         id="tspan3860">um die </tspan><tspan
         sodipodi:role="line"
         style="font-style:normal;font-variant:normal;font-weight:normal;font-stretch:normal;font-size:45px;line-height:1.25;font-family:Lavi;-inkscape-font-specification:'Lavi, Normal';font-variant-ligatures:normal;font-variant-caps:normal;font-variant-numeric:normal;font-feature-settings:normal;text-align:center;writing-mode:lr-tb;text-anchor:middle;stroke-width:1.03473854"
         x="1113.9636"
         y="479.73218"
         id="tspan3862">Flucht zu </tspan><tspan
         sodipodi:role="line"
         style="font-style:normal;font-variant:normal;font-weight:normal;font-stretch:normal;font-size:45px;line-height:1.25;font-family:Lavi;-inkscape-font-specification:'Lavi, Normal';font-variant-ligatures:normal;font-variant-caps:normal;font-variant-numeric:normal;font-feature-settings:normal;text-align:center;writing-mode:lr-tb;text-anchor:middle;stroke-width:1.03473854"
         x="1106.0535"
         y="535.98218"
         id="tspan111">vereinfachen!</tspan></text>
    <text
       xml:space="preserve"
       style="font-style:normal;font-variant:normal;font-weight:normal;font-stretch:normal;line-height:0%;font-family:Lavi;-inkscape-font-specification:Lavi;text-align:center;letter-spacing:0px;word-spacing:0px;text-anchor:middle;fill:#000000;fill-opacity:1;stroke:none"
       x="1154.4738"
       y="620.10974"
       id="text4246-1"><tspan
         sodipodi:role="line"
         style="font-style:normal;font-variant:normal;font-weight:bold;font-stretch:normal;font-size:45px;line-height:1.25;font-family:Lavi;-inkscape-font-specification:'Lavi Bold'"
         x="1154.4738"
         y="620.10974"
         id="tspan825">Bücher sind</tspan><tspan
         sodipodi:role="line"
         style="font-style:normal;font-variant:normal;font-weight:bold;font-stretch:normal;font-size:45px;line-height:1.25;font-family:Lavi;-inkscape-font-specification:'Lavi Bold'"
         x="1154.4738"
         y="676.35974"
         id="tspan1013">so toll!</tspan></text>
    <text
       xml:space="preserve"
       style="font-style:normal;font-variant:normal;font-weight:normal;font-stretch:normal;line-height:0%;font-family:Lavi;-inkscape-font-specification:Lavi;text-align:center;letter-spacing:0px;word-spacing:0px;text-anchor:middle;fill:#000000;fill-opacity:1;stroke:none"
       x="2345.262"
       y="164.03572"
       id="text4246-5-5"><tspan
         sodipodi:role="line"
         style="font-style:italic;font-variant:normal;font-weight:normal;font-stretch:normal;font-size:45px;line-height:1.25;font-family:Lavi;-inkscape-font-specification:'Lavi Italic';text-align:end;text-anchor:end"
         x="2361.0823"
         y="164.03572"
         id="tspan3871">„Springen Sie </tspan><tspan
         sodipodi:role="line"
         style="font-style:italic;font-variant:normal;font-weight:normal;font-stretch:normal;font-size:45px;line-height:1.25;font-family:Lavi;-inkscape-font-specification:'Lavi Italic';text-align:end;text-anchor:end"
         x="2361.0823"
         y="220.28572"
         id="tspan3887">direkt über den </tspan><tspan
         sodipodi:role="line"
         style="font-style:italic;font-variant:normal;font-weight:normal;font-stretch:normal;font-size:45px;line-height:1.25;font-family:Lavi;-inkscape-font-specification:'Lavi Italic';text-align:end;text-anchor:end"
         x="2345.262"
         y="276.53571"
         id="tspan3889">ersten Balkon.“</tspan></text>
    <text
       xml:space="preserve"
       style="font-style:normal;font-variant:normal;font-weight:normal;font-stretch:normal;line-height:0%;font-family:Lavi;-inkscape-font-specification:Lavi;text-align:center;letter-spacing:0px;word-spacing:0px;text-anchor:middle;fill:#000000;fill-opacity:1;stroke:none"
       x="2266.8933"
       y="365.76685"
       id="text4246-1-3"><tspan
         sodipodi:role="line"
         style="font-style:normal;font-variant:normal;font-weight:bold;font-stretch:normal;font-size:45px;line-height:1.25;font-family:Lavi;-inkscape-font-specification:'Lavi Bold'"
         x="2266.8933"
         y="365.76685"
         id="tspan1013-7">OK!</tspan></text>
    <text
       xml:space="preserve"
       style="color:#000000;font-style:normal;font-variant:normal;font-weight:normal;font-stretch:normal;font-size:12.00003719px;line-height:0.01%;font-family:Lavi;-inkscape-font-specification:'Lavi, Normal';font-variant-ligatures:normal;font-variant-caps:normal;font-variant-numeric:normal;font-feature-settings:normal;text-align:start;letter-spacing:0.00204969px;word-spacing:0px;writing-mode:lr-tb;text-anchor:start;display:inline;overflow:visible;visibility:visible;fill:#ffffff;fill-opacity:1;fill-rule:nonzero;stroke:#ffffff;stroke-width:0.0836072;stroke-linecap:butt;stroke-linejoin:miter;stroke-miterlimit:4;stroke-dasharray:none;stroke-dashoffset:0;stroke-opacity:1;marker:none;filter:url(#filter4375-4-1-1-15-1-3);enable-background:accumulate"
       x="1125.3203"
       y="1091.2349"
       id="text1702"
       transform="matrix(5.7002708,-3.8236609,4.4936667,6.6234627,-10757.229,-1056.1997)"><tspan
         sodipodi:role="line"
         id="tspan1032"
         x="1125.3203"
         y="1091.2349"
         style="font-style:normal;font-variant:normal;font-weight:bold;font-stretch:normal;font-family:Lavi;-inkscape-font-specification:'Lavi Bold'">BOING</tspan></text>
    <text
       xml:space="preserve"
       style="color:#000000;font-style:normal;font-variant:normal;font-weight:normal;font-stretch:normal;font-size:12.00003719px;line-height:0.01%;font-family:Lavi;-inkscape-font-specification:'Lavi, Normal';font-variant-ligatures:normal;font-variant-caps:normal;font-variant-numeric:normal;font-feature-settings:normal;text-align:start;letter-spacing:0.00204969px;word-spacing:0px;writing-mode:lr-tb;text-anchor:start;display:inline;overflow:visible;visibility:visible;fill:#ffffff;fill-opacity:1;fill-rule:nonzero;stroke:#ffffff;stroke-width:0.12600572;stroke-linecap:butt;stroke-linejoin:miter;stroke-miterlimit:4;stroke-dasharray:none;stroke-dashoffset:0;stroke-opacity:1;marker:none;filter:url(#filter4375-4-1-1-15-1-3-0);enable-background:accumulate"
       x="1125.3203"
       y="1091.2349"
       id="text1702-6"
       transform="matrix(3.1869294,3.2574207,-3.7023322,3.8125721,2175.23,-6084.2675)"><tspan
         sodipodi:role="line"
         id="tspan1032-0"
         x="1125.3203"
         y="1091.2349"
         style="font-style:normal;font-variant:normal;font-weight:bold;font-stretch:normal;font-family:Lavi;-inkscape-font-specification:'Lavi Bold';stroke-width:0.12600572;stroke-miterlimit:4;stroke-dasharray:none">BOING</tspan></text>
    <text
       xml:space="preserve"
       style="font-style:normal;font-variant:normal;font-weight:normal;font-stretch:normal;line-height:0%;font-family:Lavi;-inkscape-font-specification:Lavi;text-align:center;letter-spacing:0px;word-spacing:0px;text-anchor:middle;fill:#000000;fill-opacity:1;stroke:none"
       x="2347.1755"
       y="936.49329"
       id="text4246-5-5-2"><tspan
         sodipodi:role="line"
         style="font-style:italic;font-variant:normal;font-weight:normal;font-stretch:normal;font-size:45px;line-height:1.25;font-family:Lavi;-inkscape-font-specification:'Lavi Italic';text-align:end;text-anchor:end"
         x="2362.9958"
         y="936.49329"
         id="tspan121">„Es könnte sich ein </tspan><tspan
         sodipodi:role="line"
         style="font-style:italic;font-variant:normal;font-weight:normal;font-stretch:normal;font-size:45px;line-height:1.25;font-family:Lavi;-inkscape-font-specification:'Lavi Italic';text-align:end;text-anchor:end"
         x="2362.9958"
         y="992.74329"
         id="tspan129">Fallgefühl einstellen. </tspan><tspan
         sodipodi:role="line"
         style="font-style:italic;font-variant:normal;font-weight:normal;font-stretch:normal;font-size:45px;line-height:1.25;font-family:Lavi;-inkscape-font-specification:'Lavi Italic';text-align:end;text-anchor:end"
         x="2362.9958"
         y="1048.9933"
         id="tspan125">Das ist normal. Dies </tspan><tspan
         sodipodi:role="line"
         style="font-style:italic;font-variant:normal;font-weight:normal;font-stretch:normal;font-size:45px;line-height:1.25;font-family:Lavi;-inkscape-font-specification:'Lavi Italic';text-align:end;text-anchor:end"
         x="2347.1755"
         y="1105.2433"
         id="tspan133">ist eine Abkürzung.“</tspan></text>
    <text
       xml:space="preserve"
       style="font-style:normal;font-variant:normal;font-weight:normal;font-stretch:normal;line-height:0%;font-family:Lavi;-inkscape-font-specification:Lavi;text-align:center;letter-spacing:0px;word-spacing:0px;text-anchor:middle;fill:#000000;fill-opacity:1;stroke:none"
       x="452.3584"
       y="2151.1831"
       id="text4246-5-5-2-0"><tspan
         sodipodi:role="line"
         style="font-style:italic;font-variant:normal;font-weight:normal;font-stretch:normal;font-size:45px;line-height:1.25;font-family:Lavi;-inkscape-font-specification:'Lavi Italic';text-align:center;text-anchor:middle"
         x="460.26855"
         y="2151.1831"
         id="tspan564">„Genießen Sie die bequemen </tspan><tspan
         sodipodi:role="line"
         style="font-style:italic;font-variant:normal;font-weight:normal;font-stretch:normal;font-size:45px;line-height:1.25;font-family:Lavi;-inkscape-font-specification:'Lavi Italic';text-align:center;text-anchor:middle"
         x="460.26855"
         y="2207.4331"
         id="tspan3905">Leuchtnetze völlig risikofrei: </tspan><tspan
         sodipodi:role="line"
         style="font-style:italic;font-variant:normal;font-weight:normal;font-stretch:normal;font-size:45px;line-height:1.25;font-family:Lavi;-inkscape-font-specification:'Lavi Italic';text-align:center;text-anchor:middle"
         x="460.26855"
         y="2263.6831"
         id="tspan3907">Diese Spinnen sind </tspan><tspan
         sodipodi:role="line"
         style="font-style:italic;font-variant:normal;font-weight:normal;font-stretch:normal;font-size:45px;line-height:1.25;font-family:Lavi;-inkscape-font-specification:'Lavi Italic';text-align:center;text-anchor:middle"
         x="460.26855"
         y="2319.9331"
         id="tspan3909">photosynthetisch und ernähren </tspan><tspan
         sodipodi:role="line"
         style="font-style:italic;font-variant:normal;font-weight:normal;font-stretch:normal;font-size:45px;line-height:1.25;font-family:Lavi;-inkscape-font-specification:'Lavi Italic';text-align:center;text-anchor:middle"
         x="452.3584"
         y="2376.1831"
         id="tspan3911">sich vom reflektierten Licht.“</tspan></text>
    <flowRoot
       xml:space="preserve"
       id="flowRoot1141"
       style="fill:black;stroke:none;stroke-opacity:1;stroke-width:1px;stroke-linejoin:miter;stroke-linecap:butt;fill-opacity:1;font-family:Lavi;font-style:normal;font-weight:normal;font-size:0.66666667px;line-height:0%;letter-spacing:0px;word-spacing:0px;-inkscape-font-specification:Lavi;font-stretch:normal;font-variant:normal;text-anchor:middle;text-align:center;writing-mode:lr"><flowRegion
         id="flowRegion1143"><rect
           id="rect1145"
           width="37.375"
           height="11.5"
           x="1802.6249"
           y="2272.5" /></flowRegion><flowPara
         id="flowPara1147" /></flowRoot>    <text
       xml:space="preserve"
       style="font-style:normal;font-variant:normal;font-weight:normal;font-stretch:normal;line-height:0%;font-family:Lavi;-inkscape-font-specification:Lavi;text-align:center;letter-spacing:0px;word-spacing:0px;text-anchor:middle;fill:#000000;fill-opacity:1;stroke:none"
       x="502.41183"
       y="2482.4917"
       id="text4246-5-5-2-0-7"><tspan
         sodipodi:role="line"
         style="font-style:italic;font-variant:normal;font-weight:normal;font-stretch:normal;font-size:45px;line-height:1.25;font-family:Lavi;-inkscape-font-specification:'Lavi Italic';text-align:center;text-anchor:middle"
         x="510.32199"
         y="2482.4917"
         id="tspan1226">„Ich empfehle ein </tspan><tspan
         sodipodi:role="line"
         style="font-style:italic;font-variant:normal;font-weight:normal;font-stretch:normal;font-size:45px;line-height:1.25;font-family:Lavi;-inkscape-font-specification:'Lavi Italic';text-align:center;text-anchor:middle"
         x="510.32199"
         y="2538.7417"
         id="tspan3924">kleines Nickerchen, </tspan><tspan
         sodipodi:role="line"
         style="font-style:italic;font-variant:normal;font-weight:normal;font-stretch:normal;font-size:45px;line-height:1.25;font-family:Lavi;-inkscape-font-specification:'Lavi Italic';text-align:center;text-anchor:middle"
         x="510.32199"
         y="2594.9917"
         id="tspan3930">um wieder zu Kräften </tspan><tspan
         sodipodi:role="line"
         style="font-style:italic;font-variant:normal;font-weight:normal;font-stretch:normal;font-size:45px;line-height:1.25;font-family:Lavi;-inkscape-font-specification:'Lavi Italic';text-align:center;text-anchor:middle"
         x="502.41183"
         y="2651.2417"
         id="tspan3934">zu kommen.“</tspan></text>
    <text
       xml:space="preserve"
       style="font-style:normal;font-variant:normal;font-weight:normal;font-stretch:normal;font-size:14.09488487px;line-height:0%;font-family:Lavi;-inkscape-font-specification:Lavi;text-align:center;letter-spacing:0px;word-spacing:0px;text-anchor:middle;fill:#000000;fill-opacity:1;stroke:none;stroke-width:1"
       x="1845.7053"
       y="2888.4749"
       id="text4246-1-8"
       transform="scale(1.0104523,0.98965582)"><tspan
         sodipodi:role="line"
         style="font-style:normal;font-variant:normal;font-weight:bold;font-stretch:normal;font-size:52.8558197px;line-height:1.25;font-family:Lavi;-inkscape-font-specification:'Lavi Bold';stroke-width:1"
         x="1854.7383"
         y="2888.4749"
         id="tspan3938">Oh, ich liebe </tspan><tspan
         sodipodi:role="line"
         style="font-style:normal;font-variant:normal;font-weight:bold;font-stretch:normal;font-size:52.8558197px;line-height:1.25;font-family:Lavi;-inkscape-font-specification:'Lavi Bold';stroke-width:1"
         x="1845.7053"
         y="2954.5447"
         id="tspan137">Bücher!</tspan></text>
    <text
       xml:space="preserve"
       style="color:#000000;font-style:normal;font-variant:normal;font-weight:normal;font-stretch:normal;font-size:11.10639572px;line-height:0.01%;font-family:Arial;-inkscape-font-specification:Arial;letter-spacing:0.89570737px;word-spacing:0px;display:inline;overflow:visible;visibility:visible;fill:#e69d76;fill-opacity:1;fill-rule:nonzero;stroke:#e99f77;stroke-width:4.05566978;stroke-opacity:1;marker:none;enable-background:accumulate"
       x="610.2511"
       y="601.31281"
       id="text1711"
       transform="matrix(0.78576578,-0.49307246,0.54549744,0.93034115,0,0)"><tspan
         sodipodi:role="line"
         x="610.69897"
         y="601.31281"
         id="tspan1709"
         style="letter-spacing:0.89570737px;word-spacing:0px;fill:#ffffff;fill-opacity:1;stroke:#ffffff;stroke-width:4.05566978;stroke-opacity:1"><tspan
           x="610.2511"
           y="601.31281"
           style="color:#000000;font-style:normal;font-variant:normal;font-weight:normal;font-stretch:normal;font-size:59.2341156px;line-height:1.25;font-family:Lavi;-inkscape-font-specification:Lavi;text-align:center;letter-spacing:0.89570737px;word-spacing:0px;text-anchor:middle;display:inline;overflow:visible;visibility:visible;fill:#ffffff;fill-opacity:1;fill-rule:nonzero;stroke:#ffffff;stroke-width:3.1970036;stroke-miterlimit:4;stroke-dasharray:none;stroke-opacity:1;marker:none;enable-background:accumulate"
           id="tspan1707">Ploff!</tspan></tspan></text>
  </g>
  <g
     inkscape:groupmode="layer"
     id="layer4"
     inkscape:label="notes"
     style="display:inline"
     sodipodi:insensitive="true">
    <path
       style="color:#000000;clip-rule:nonzero;display:inline;overflow:visible;visibility:visible;opacity:0.481;isolation:auto;mix-blend-mode:normal;color-interpolation:sRGB;color-interpolation-filters:linearRGB;solid-color:#000000;solid-opacity:1;fill:#ffe680;fill-opacity:1;fill-rule:nonzero;stroke:#565656;stroke-width:1.20000005;stroke-linecap:butt;stroke-linejoin:miter;stroke-miterlimit:4;stroke-dasharray:none;stroke-dashoffset:0;stroke-opacity:1;marker:none;color-rendering:auto;image-rendering:auto;shape-rendering:auto;text-rendering:auto;enable-background:accumulate"
       d="M 1803.0237,-298.37057 H 846.35615 v 253.040394 h 289.92535 v 10 h -15.6308 l 26.9824,30.9825 26.9804,-30.9825 h -16.6171 v -10 h 645.0273 z"
       id="rect4191-6"
       inkscape:connector-curvature="0"
       sodipodi:nodetypes="cccccccccccc" />
    <flowRoot
       xml:space="preserve"
       id="flowRoot4212-7"
       style="font-style:normal;font-variant:normal;font-weight:normal;font-stretch:normal;line-height:0.01%;font-family:Lavi;-inkscape-font-specification:'Lavi, Normal';text-align:center;letter-spacing:0px;word-spacing:0px;writing-mode:lr-tb;text-anchor:middle;display:inline;opacity:0.68900003;fill:#000000;fill-opacity:1;stroke:none;stroke-width:0.79958946px;stroke-linecap:butt;stroke-linejoin:miter;stroke-opacity:1"
       transform="matrix(1.2506418,0,0,1.2506418,1218.2001,-1598.9961)"><flowRegion
         id="flowRegion4214-5"
         style="stroke-width:0.79958946px"><rect
           id="rect4216-3"
           width="718.88867"
           height="174.37697"
           x="-275.14545"
           y="1061.6674"
           style="stroke-width:0.79958946px" /></flowRegion><flowPara
         id="flowPara4564"
         style="font-size:25.3241539px;line-height:1.25;stroke-width:0.79958946px">This “they” means one person, without specifying their gender.</flowPara><flowPara
         style="font-size:25.3241539px;line-height:1.25;stroke-width:0.79958946px"
         id="flowPara936">If possible, please try to do the same in your language</flowPara><flowPara
         style="font-size:25.3241539px;line-height:1.25;stroke-width:0.79958946px"
         id="flowPara934">(suggestion: if your language doesn't have genderless pronouns, maybe you can translate as “the author”).</flowPara><flowPara
         style="font-size:25.3241539px;line-height:1.25;stroke-width:0.79958946px"
         id="flowPara920">If that doesn't really work well, assume the author is a woman.</flowPara></flowRoot>  </g>
</svg>
