<?xml version="1.0" encoding="UTF-8" standalone="no"?>
<!-- Created with Inkscape (http://www.inkscape.org/) -->

<svg
   xmlns:dc="http://purl.org/dc/elements/1.1/"
   xmlns:cc="http://creativecommons.org/ns#"
   xmlns:rdf="http://www.w3.org/1999/02/22-rdf-syntax-ns#"
   xmlns:svg="http://www.w3.org/2000/svg"
   xmlns="http://www.w3.org/2000/svg"
   xmlns:xlink="http://www.w3.org/1999/xlink"
   xmlns:sodipodi="http://sodipodi.sourceforge.net/DTD/sodipodi-0.dtd"
   xmlns:inkscape="http://www.inkscape.org/namespaces/inkscape"
   id="svg2"
   version="1.1"
   inkscape:version="0.92.4 5da689c313, 2019-01-14"
   width="2481"
   height="3503"
   sodipodi:docname="E28P06.svg">
  <metadata
     id="metadata8">
    <rdf:RDF>
      <cc:Work
         rdf:about="">
        <dc:format>image/svg+xml</dc:format>
        <dc:type
           rdf:resource="http://purl.org/dc/dcmitype/StillImage" />
        <dc:title />
      </cc:Work>
    </rdf:RDF>
  </metadata>
  <defs
     id="defs6" />
  <sodipodi:namedview
     pagecolor="#ffffff"
     bordercolor="#666666"
     borderopacity="1"
     objecttolerance="10"
     gridtolerance="10"
     guidetolerance="10"
     inkscape:pageopacity="0"
     inkscape:pageshadow="2"
     inkscape:window-width="1920"
     inkscape:window-height="1001"
     id="namedview4"
     showgrid="false"
     inkscape:zoom="0.3740595"
     inkscape:cx="976.96265"
     inkscape:cy="1625.1631"
     inkscape:window-x="0"
     inkscape:window-y="45"
     inkscape:window-maximized="1"
     inkscape:current-layer="layer1" />
  <g
     inkscape:groupmode="layer"
     id="layer2"
     inkscape:label="artwork"
     sodipodi:insensitive="true">
    <image
       sodipodi:absref="/home/ambernite/peppercarrot/webcomics/ep28_The-Festivities/lang/kr/../gfx_Pepper-and-Carrot_by-David-Revoy_E28P06.png"
       xlink:href="../gfx_Pepper-and-Carrot_by-David-Revoy_E28P06.png"
       y="0"
       x="0"
       id="image10"
       height="3503"
       width="2481" />
  </g>
  <g
     inkscape:groupmode="layer"
     id="layer3"
     inkscape:label="speechbubbles">
    <path
       style="fill:#ffffff;fill-rule:evenodd;stroke:none;stroke-width:0.91798949px;stroke-linecap:butt;stroke-linejoin:miter;stroke-opacity:1"
       d="m 214.51938,1834.4118 c 0,-45.5432 35.91315,-54.8854 50.87697,-57.221 14.96381,-2.3355 92.77563,-4.6711 108.73703,0 15.9614,4.6712 40.90109,21.02 40.90109,46.711 0,25.691 -6.98311,52.5499 -39.9035,63.0598 -32.92039,10.51 -104.74669,2.3355 -125.69603,-3.5033 -20.94933,-5.8389 -33.91797,-24.5233 -34.91556,-49.0465 z"
       id="path845"
       inkscape:connector-curvature="0" />
    <path
       style="fill:#ffffff;fill-rule:evenodd;stroke:none;stroke-width:0.99999994px;stroke-linecap:butt;stroke-linejoin:miter;stroke-opacity:1"
       d="m 352.8238,1860.5331 c 1.94468,22.7539 17.89104,36.1625 31.89273,36.5688 14.00168,0.4063 23.72508,-0.4063 22.94721,14.6275 -0.77787,15.0338 4.66723,30.474 21.7804,24.7855 17.11317,-5.6885 24.55788,-5.5709 29.61405,-0.2887 5.05616,5.2821 -1.50347,14.7385 14.67146,21.4164 -8.61418,-6.0374 -6.00236,-11.8397 -6.3913,-15.4966 -0.38894,-3.6568 -0.55638,-19.446 -20.78104,-16.6017 -20.22466,2.8442 -27.2255,0 -25.66975,-14.6275 1.55573,-14.6276 -2.33362,-23.9729 -19.83573,-30.474 -17.5021,-6.5011 -26.44763,-12.5959 -28.78124,-26.8171 -2.33362,-14.2212 -18.27998,-19.9097 -18.27998,-19.9097 z"
       id="path849"
       inkscape:connector-curvature="0"
       sodipodi:nodetypes="cssscccccsscc" />
    <path
       style="fill:#ffffff;fill-rule:evenodd;stroke:none;stroke-width:0.9621256px;stroke-linecap:butt;stroke-linejoin:miter;stroke-opacity:1"
       d="m 1312.0785,1840.1704 c 3.4462,-68.4212 22.4006,-98.3554 35.324,-101.2062 12.9234,-2.8509 74.9557,-8.5527 86.156,-7.1273 11.2003,1.4255 133.5419,-1.4254 145.6038,0 12.0618,1.4255 47.3858,12.829 56.8629,38.487 9.4773,25.6578 23.2621,68.4211 14.6465,102.6317 -8.6155,34.2105 -34.4623,82.6755 -113.7259,79.8246 -79.2635,-2.8509 -164.5582,7.1272 -190.4048,-17.1053 -25.8469,-24.2325 -33.6009,-69.8465 -34.4625,-95.5045 z"
       id="path851"
       inkscape:connector-curvature="0" />
    <path
       style="fill:#ffffff;fill-rule:evenodd;stroke:none;stroke-width:1px;stroke-linecap:butt;stroke-linejoin:miter;stroke-opacity:1"
       d="m 1475.2162,2033.0397 c -52.2036,-22.3729 -69.6048,-103.1642 -44.7459,-169.0401 -1.243,-90.7348 -57.1753,-16.1582 -57.1753,-16.1582 0,0 13.6723,3.7288 13.6723,39.7741 0,36.0453 13.6724,124.2942 88.2489,145.4242 z"
       id="path853"
       inkscape:connector-curvature="0"
       sodipodi:nodetypes="cccsc" />
  </g>
  <g
     inkscape:groupmode="layer"
     id="layer1"
     inkscape:label="txt">
    <text
       id="text830"
       y="1854.3951"
       x="317.14508"
       style="font-style:normal;font-variant:normal;font-weight:normal;font-stretch:normal;font-size:17.90283966px;line-height:100%;font-family:'Nanum Pen Script OTF';-inkscape-font-specification:'Nanum Pen Script OTF';text-align:center;letter-spacing:0px;word-spacing:0px;text-anchor:middle;fill:#000000;fill-opacity:1;stroke:none;stroke-width:1.49190331"
       xml:space="preserve"><tspan
         id="tspan828"
         y="1854.3951"
         x="317.14508"
         style="font-style:normal;font-variant:normal;font-weight:normal;font-stretch:normal;font-size:67.13565063px;line-height:100%;font-family:'Nanum Pen Script OTF';-inkscape-font-specification:'Nanum Pen Script OTF';stroke-width:1.49190331"
         sodipodi:role="line">후추니?</tspan></text>
    <text
       id="text838"
       y="1803.6426"
       x="1480.6589"
       style="font-style:normal;font-variant:normal;font-weight:normal;font-stretch:normal;font-size:15.66374683px;line-height:100%;font-family:'Nanum Pen Script OTF';-inkscape-font-specification:'Nanum Pen Script OTF';text-align:center;letter-spacing:0px;word-spacing:0px;text-anchor:middle;fill:#000000;fill-opacity:1;stroke:none;stroke-width:1.30531216"
       xml:space="preserve"><tspan
         id="tspan836"
         y="1803.6426"
         x="1480.6589"
         style="font-style:normal;font-variant:normal;font-weight:normal;font-stretch:normal;font-size:58.739048px;line-height:100%;font-family:'Nanum Pen Script OTF';-inkscape-font-specification:'Nanum Pen Script OTF';stroke-width:1.30531216"
         sodipodi:role="line">음식 좀 가지고</tspan><tspan
         y="1862.3816"
         x="1480.6589"
         style="font-style:normal;font-variant:normal;font-weight:normal;font-stretch:normal;font-size:58.739048px;line-height:100%;font-family:'Nanum Pen Script OTF';-inkscape-font-specification:'Nanum Pen Script OTF';stroke-width:1.30531216"
         sodipodi:role="line"
         id="tspan845">나와 봤어.</tspan><tspan
         y="1921.1207"
         x="1480.6589"
         style="font-style:normal;font-variant:normal;font-weight:normal;font-stretch:normal;font-size:58.739048px;line-height:100%;font-family:'Nanum Pen Script OTF';-inkscape-font-specification:'Nanum Pen Script OTF';stroke-width:1.30531216"
         sodipodi:role="line"
         id="tspan847">먹어 볼래?</tspan></text>
  </g>
</svg>
