<?xml version="1.0" encoding="UTF-8" standalone="no"?>
<!-- Created with Inkscape (http://www.inkscape.org/) -->

<svg
   xmlns:dc="http://purl.org/dc/elements/1.1/"
   xmlns:cc="http://creativecommons.org/ns#"
   xmlns:rdf="http://www.w3.org/1999/02/22-rdf-syntax-ns#"
   xmlns:svg="http://www.w3.org/2000/svg"
   xmlns="http://www.w3.org/2000/svg"
   xmlns:xlink="http://www.w3.org/1999/xlink"
   xmlns:sodipodi="http://sodipodi.sourceforge.net/DTD/sodipodi-0.dtd"
   xmlns:inkscape="http://www.inkscape.org/namespaces/inkscape"
   id="svg2"
   version="1.1"
   inkscape:version="0.48.4 r9939"
   width="1100"
   height="765"
   sodipodi:docname="Pepper-and-Carrot_by-David-Revoy_E03.svg">
  <metadata
     id="metadata8">
    <rdf:RDF>
      <cc:Work
         rdf:about="">
        <dc:format>image/svg+xml</dc:format>
        <dc:type
           rdf:resource="http://purl.org/dc/dcmitype/StillImage" />
        <dc:title />
      </cc:Work>
    </rdf:RDF>
  </metadata>
  <defs
     id="defs6">
    <filter
       id="filter3797"
       style="color-interpolation-filters:sRGB;"
       inkscape:label="Drop Shadow">
      <feFlood
         id="feFlood3799"
         flood-opacity="0.8"
         flood-color="rgb(0,0,0)"
         result="flood" />
      <feComposite
         id="feComposite3801"
         in2="SourceGraphic"
         in="flood"
         operator="in"
         result="composite1" />
      <feGaussianBlur
         id="feGaussianBlur3803"
         in="composite"
         stdDeviation="10"
         result="blur" />
      <feOffset
         id="feOffset3805"
         dx="8"
         dy="10"
         result="offset" />
      <feComposite
         id="feComposite3807"
         in2="offset"
         in="SourceGraphic"
         operator="over"
         result="composite2" />
    </filter>
    <filter
       id="filter3836"
       style="color-interpolation-filters:sRGB;"
       inkscape:label="Drop Shadow">
      <feFlood
         id="feFlood3838"
         flood-opacity="0.8"
         flood-color="rgb(0,0,0)"
         result="flood" />
      <feComposite
         id="feComposite3840"
         in2="SourceGraphic"
         in="flood"
         operator="in"
         result="composite1" />
      <feGaussianBlur
         id="feGaussianBlur3842"
         in="composite"
         stdDeviation="5"
         result="blur" />
      <feOffset
         id="feOffset3844"
         dx="8"
         dy="10"
         result="offset" />
      <feComposite
         id="feComposite3846"
         in2="offset"
         in="SourceGraphic"
         operator="over"
         result="composite2" />
    </filter>
    <filter
       inkscape:collect="always"
       id="filter3837"
       x="-0.010297416"
       width="1.0205948"
       y="-0.15255702"
       height="1.305114">
      <feGaussianBlur
         inkscape:collect="always"
         stdDeviation="6.9921969"
         id="feGaussianBlur3839" />
    </filter>
  </defs>
  <sodipodi:namedview
     pagecolor="#ffffff"
     bordercolor="#666666"
     borderopacity="1"
     objecttolerance="10"
     gridtolerance="10"
     guidetolerance="10"
     inkscape:pageopacity="0"
     inkscape:pageshadow="2"
     inkscape:window-width="1920"
     inkscape:window-height="1043"
     id="namedview4"
     showgrid="false"
     inkscape:zoom="0.90380221"
     inkscape:cx="447.8143"
     inkscape:cy="364.64949"
     inkscape:window-x="0"
     inkscape:window-y="20"
     inkscape:window-maximized="1"
     inkscape:current-layer="svg2" />
  <g
     inkscape:groupmode="layer"
     id="layer1"
     inkscape:label="artwork"
     sodipodi:insensitive="true" />
  <image
     sodipodi:absref="/home/deevad/Production/Webcomics/2014-10-02_ep03_The-secret-ingredients/lang/el/../gfx_Pepper-and-Carrot_by-David-Revoy_E03.png"
     xlink:href="../gfx_Pepper-and-Carrot_by-David-Revoy_E03.png"
     width="1100"
     height="765"
     id="image10"
     x="0"
     y="0" />
  <flowRoot
     xml:space="preserve"
     id="flowRoot3063-2"
     style="font-size:90px;font-style:normal;font-variant:normal;font-weight:normal;font-stretch:normal;text-align:center;line-height:125%;letter-spacing:0px;word-spacing:0px;writing-mode:lr-tb;text-anchor:middle;opacity:0.98000004;fill:#000000;fill-opacity:1;stroke:none;display:inline;filter:url(#filter3837);font-family:Purisa;-inkscape-font-specification:Purisa"
     transform="matrix(0.43534167,0,0,0.43534167,-79.146563,517.40396)"><flowRegion
       id="flowRegion3065-8"><rect
         id="rect3067-6"
         width="2718.8806"
         height="147.16573"
         x="90.567055"
         y="400.24826"
         style="font-size:90px;font-style:normal;font-variant:normal;font-weight:normal;font-stretch:normal;text-align:center;line-height:125%;writing-mode:lr-tb;text-anchor:middle;fill:#000000;fill-opacity:1;font-family:Purisa;-inkscape-font-specification:Purisa" /></flowRegion><flowPara
       id="flowPara3069-2"
       style="font-size:110px;font-style:normal;font-variant:normal;font-weight:normal;font-stretch:expanded;text-align:center;line-height:125%;writing-mode:lr-tb;text-anchor:middle;fill:#000000;fill-opacity:1;font-family:Pecita;-inkscape-font-specification:Pecita Expanded">Επεισόδιο 3: Τα μυστικά συστατικά</flowPara></flowRoot>  <flowRoot
     xml:space="preserve"
     id="episode-title"
     style="font-size:90px;font-style:normal;font-variant:normal;font-weight:normal;font-stretch:normal;text-align:center;line-height:125%;letter-spacing:0px;word-spacing:0px;writing-mode:lr-tb;text-anchor:middle;opacity:0.98000004;fill:#cbba74;fill-opacity:1;stroke:none;display:inline;font-family:Purisa;-inkscape-font-specification:Purisa"
     transform="matrix(0.43534167,0,0,0.43534167,-81.258516,514.53033)"><flowRegion
       id="flowRegion3065"><rect
         id="rect3067"
         width="2718.8806"
         height="147.16573"
         x="90.567055"
         y="400.24826"
         style="font-size:90px;font-style:normal;font-variant:normal;font-weight:normal;font-stretch:normal;text-align:center;line-height:125%;writing-mode:lr-tb;text-anchor:middle;fill:#cbba74;fill-opacity:1;font-family:Purisa;-inkscape-font-specification:Purisa" /></flowRegion><flowPara
       id="flowPara3069"
       style="font-size:110.25822449px;font-style:normal;font-variant:normal;font-weight:normal;font-stretch:expanded;text-align:center;line-height:125%;writing-mode:lr-tb;text-anchor:middle;fill:#ffffff;fill-opacity:1;font-family:Pecita;-inkscape-font-specification:Pecita Expanded">Επεισόδιο 3: Τα μυστικά συστατικά</flowPara></flowRoot>  <g
     inkscape:groupmode="layer"
     id="layer2"
     inkscape:label="txt" />
</svg>
