<?xml version="1.0" encoding="UTF-8" standalone="no"?>
<!-- Created with Inkscape (http://www.inkscape.org/) -->

<svg
   xmlns:dc="http://purl.org/dc/elements/1.1/"
   xmlns:cc="http://creativecommons.org/ns#"
   xmlns:rdf="http://www.w3.org/1999/02/22-rdf-syntax-ns#"
   xmlns:svg="http://www.w3.org/2000/svg"
   xmlns="http://www.w3.org/2000/svg"
   xmlns:xlink="http://www.w3.org/1999/xlink"
   xmlns:sodipodi="http://sodipodi.sourceforge.net/DTD/sodipodi-0.dtd"
   xmlns:inkscape="http://www.inkscape.org/namespaces/inkscape"
   id="svg2"
   version="1.1"
   inkscape:version="0.92.3 (2405546, 2018-03-11)"
   width="2481"
   height="3503"
   sodipodi:docname="E02P01.svg">
  <metadata
     id="metadata8">
    <rdf:RDF>
      <cc:Work
         rdf:about="">
        <dc:format>image/svg+xml</dc:format>
        <dc:type
           rdf:resource="http://purl.org/dc/dcmitype/StillImage" />
        <dc:title />
      </cc:Work>
    </rdf:RDF>
  </metadata>
  <defs
     id="defs6">
    <filter
       inkscape:collect="always"
       style="color-interpolation-filters:sRGB"
       id="filter4406"
       x="-0.0032217882"
       width="1.0064436"
       y="-0.014776948"
       height="1.0295539">
      <feGaussianBlur
         inkscape:collect="always"
         stdDeviation="0.13376918"
         id="feGaussianBlur4408" />
    </filter>
    <filter
       inkscape:collect="always"
       style="color-interpolation-filters:sRGB"
       id="filter4402"
       x="-0.0034005821"
       width="1.0068012"
       y="-0.013677411"
       height="1.0273548">
      <feGaussianBlur
         inkscape:collect="always"
         stdDeviation="0.082595546"
         id="feGaussianBlur4404" />
    </filter>
    <filter
       inkscape:collect="always"
       style="color-interpolation-filters:sRGB"
       id="filter4398-3"
       x="-0.0032890984"
       width="1.0065782"
       y="-0.013935394"
       height="1.0278708">
      <feGaussianBlur
         inkscape:collect="always"
         stdDeviation="0.11702162"
         id="feGaussianBlur4400-6" />
    </filter>
  </defs>
  <sodipodi:namedview
     pagecolor="#ffffff"
     bordercolor="#666666"
     borderopacity="1"
     objecttolerance="10"
     gridtolerance="10"
     guidetolerance="10"
     inkscape:pageopacity="0"
     inkscape:pageshadow="2"
     inkscape:window-width="1366"
     inkscape:window-height="707"
     id="namedview4"
     showgrid="false"
     inkscape:zoom="0.38366185"
     inkscape:cx="1115.6391"
     inkscape:cy="-356.83225"
     inkscape:window-x="0"
     inkscape:window-y="27"
     inkscape:window-maximized="1"
     inkscape:current-layer="layer1" />
  <g
     inkscape:groupmode="layer"
     id="layer2"
     inkscape:label="artwork"
     sodipodi:insensitive="true">
    <image
       sodipodi:absref="/home/pranav/PJ/webcomics/ep02_Rainbow-potions/lang/ml/../gfx_Pepper-and-Carrot_by-David-Revoy_E02P01.png"
       xlink:href="../gfx_Pepper-and-Carrot_by-David-Revoy_E02P01.png"
       y="0"
       x="-1.6728083e-06"
       id="image10"
       height="3503"
       width="2481" />
  </g>
  <g
     inkscape:groupmode="layer"
     id="layer1"
     inkscape:label="text"
     style="opacity:1">
    <flowRoot
       xml:space="preserve"
       id="flowRoot3063-8"
       style="color:#000000;font-style:normal;font-variant:normal;font-weight:normal;font-stretch:normal;font-size:54.68727112px;line-height:0.01%;font-family:Arial;-inkscape-font-specification:Arial;letter-spacing:0px;word-spacing:0px;display:inline;overflow:visible;visibility:visible;fill:#e69d76;fill-opacity:1;fill-rule:nonzero;stroke:#e99f77;stroke-width:4.3819828;stroke-opacity:1;marker:none;enable-background:accumulate"
       transform="matrix(1.2520739,0,0,1.4888503,432.47131,2293.1143)"><flowRegion
         id="flowRegion3065-8"
         style="font-size:54.68727112px;stroke-width:4.3819828"><rect
           id="rect3067-6"
           width="153.02928"
           height="91.750099"
           x="92.642677"
           y="425.30325"
           style="color:#000000;font-size:54.68727112px;display:inline;overflow:visible;visibility:visible;fill:#e69d76;fill-opacity:1;fill-rule:nonzero;stroke:#e99f77;stroke-width:4.3819828;stroke-opacity:1;marker:none;enable-background:accumulate" /></flowRegion><flowPara
         style="color:#000000;font-style:normal;font-variant:normal;font-weight:normal;font-stretch:normal;font-size:54.68727112px;line-height:1.25;font-family:Chilanka;-inkscape-font-specification:Chilanka;text-align:center;text-anchor:middle;display:inline;overflow:visible;visibility:visible;fill:#e69d76;fill-opacity:1;fill-rule:nonzero;stroke:#e99f77;stroke-width:3.45422935;stroke-miterlimit:4;stroke-dasharray:none;stroke-opacity:1;marker:none;enable-background:accumulate"
         id="flowPara3188">ഗ്ള്ഗ്</flowPara></flowRoot>    <flowRoot
       xml:space="preserve"
       id="flowRoot3063-8-9"
       style="color:#000000;font-style:normal;font-variant:normal;font-weight:normal;font-stretch:normal;font-size:47.44245529px;line-height:0.01%;font-family:Chilanka;-inkscape-font-specification:Chilanka;letter-spacing:0px;word-spacing:0px;display:inline;overflow:visible;visibility:visible;fill:#e69d76;fill-opacity:1;fill-rule:nonzero;stroke:#e99f77;stroke-width:5.32205772;stroke-opacity:1;marker:none;enable-background:accumulate"
       transform="matrix(0.98088993,0,0,1.2883768,491.81312,2468.188)"><flowRegion
         id="flowRegion3065-8-8"
         style="font-style:normal;font-variant:normal;font-weight:normal;font-stretch:normal;font-size:47.44245529px;font-family:Chilanka;-inkscape-font-specification:Chilanka;stroke-width:5.32205772"><rect
           id="rect3067-6-6"
           width="153.02928"
           height="91.750099"
           x="92.642677"
           y="425.30325"
           style="color:#000000;font-style:normal;font-variant:normal;font-weight:normal;font-stretch:normal;font-size:47.44245529px;font-family:Chilanka;-inkscape-font-specification:Chilanka;display:inline;overflow:visible;visibility:visible;fill:#e69d76;fill-opacity:1;fill-rule:nonzero;stroke:#e99f77;stroke-width:5.32205772;stroke-opacity:1;marker:none;enable-background:accumulate" /></flowRegion><flowPara
         style="color:#000000;font-style:normal;font-variant:normal;font-weight:normal;font-stretch:normal;font-size:47.44245529px;line-height:1.25;font-family:Chilanka;-inkscape-font-specification:Chilanka;text-align:center;text-anchor:middle;display:inline;overflow:visible;visibility:visible;fill:#e69d76;fill-opacity:1;fill-rule:nonzero;stroke:#e99f77;stroke-width:4.19527149;stroke-miterlimit:4;stroke-dasharray:none;stroke-opacity:1;marker:none;enable-background:accumulate"
         id="flowPara3188-0">ഗ്ള്ഗ്</flowPara></flowRoot>    <flowRoot
       xml:space="preserve"
       id="flowRoot3063-8-9-4"
       style="color:#000000;font-style:normal;font-variant:normal;font-weight:normal;font-stretch:normal;font-size:48.3591423px;line-height:0.01%;font-family:Chilanka;-inkscape-font-specification:Chilanka;letter-spacing:0px;word-spacing:0px;display:inline;overflow:visible;visibility:visible;fill:#e69d76;fill-opacity:1;fill-rule:nonzero;stroke:#e99f77;stroke-width:6.7811141;stroke-opacity:1;marker:none;enable-background:accumulate"
       transform="matrix(0.79802617,-0.15255664,0.15501413,0.94581203,488.0648,2717.1352)"><flowRegion
         id="flowRegion3065-8-8-2"
         style="font-style:normal;font-variant:normal;font-weight:normal;font-stretch:normal;font-size:48.3591423px;font-family:Chilanka;-inkscape-font-specification:Chilanka;stroke-width:6.7811141"><rect
           id="rect3067-6-6-0"
           width="153.02928"
           height="91.750099"
           x="92.642677"
           y="425.30325"
           style="color:#000000;font-style:normal;font-variant:normal;font-weight:normal;font-stretch:normal;font-size:48.3591423px;font-family:Chilanka;-inkscape-font-specification:Chilanka;display:inline;overflow:visible;visibility:visible;fill:#e69d76;fill-opacity:1;fill-rule:nonzero;stroke:#e99f77;stroke-width:6.7811141;stroke-opacity:1;marker:none;enable-background:accumulate" /></flowRegion><flowPara
         style="color:#000000;font-style:normal;font-variant:normal;font-weight:normal;font-stretch:normal;font-size:48.3591423px;line-height:1.25;font-family:Chilanka;-inkscape-font-specification:Chilanka;text-align:center;text-anchor:middle;display:inline;overflow:visible;visibility:visible;fill:#e69d76;fill-opacity:1;fill-rule:nonzero;stroke:#e99f77;stroke-width:5.34541655;stroke-miterlimit:4;stroke-dasharray:none;stroke-opacity:1;marker:none;enable-background:accumulate"
         id="flowPara3188-0-7">ഗ്ള്ഗ്</flowPara></flowRoot>    <flowRoot
       xml:space="preserve"
       id="flowRoot4325"
       style="font-style:normal;font-variant:normal;font-weight:normal;font-stretch:normal;font-size:13.03256893px;line-height:0.01%;font-family:Arial;-inkscape-font-specification:Arial;letter-spacing:0px;word-spacing:0px;opacity:0.90100002;fill:#2d1a1c;fill-opacity:1;stroke:#000000;stroke-width:0.28673479;stroke-linecap:butt;stroke-linejoin:miter;stroke-miterlimit:4;stroke-dasharray:none;stroke-opacity:1;filter:url(#filter4398-3)"
       transform="matrix(2.3931035,-0.34210619,0.57891535,3.2214106,-2468.2393,-3831.9425)"><flowRegion
         id="flowRegion4327"
         style="font-size:13.03256893px"><rect
           id="rect4329"
           width="131.93344"
           height="14.722872"
           x="841.07574"
           y="1755.9342"
           style="font-size:13.03256893px;fill:#2d1a1c;fill-opacity:1;stroke:#000000;stroke-width:0.28673479;stroke-miterlimit:4;stroke-dasharray:none;stroke-opacity:1" /></flowRegion><flowPara
         style="font-style:normal;font-variant:normal;font-weight:normal;font-stretch:normal;font-size:13.03256893px;line-height:1.25;font-family:Suruma;-inkscape-font-specification:Suruma;text-align:center;text-anchor:middle;fill:#2d1a1c;fill-opacity:1;stroke:#000000;stroke-width:0.28673479;stroke-miterlimit:4;stroke-dasharray:none;stroke-opacity:1"
         id="flowPara55">മുന്നറിയിപ്പ്</flowPara></flowRoot>    <flowRoot
       xml:space="preserve"
       id="flowRoot4325-5"
       style="font-style:normal;font-variant:normal;font-weight:normal;font-stretch:normal;line-height:0.01%;font-family:Suruma;-inkscape-font-specification:Suruma;letter-spacing:0px;word-spacing:0px;opacity:0.878;fill:#221415;fill-opacity:1;stroke:#000000;stroke-width:0.3171955;stroke-linecap:butt;stroke-linejoin:miter;stroke-miterlimit:4;stroke-dasharray:none;stroke-opacity:1;filter:url(#filter4406)"
       transform="matrix(2.2601131,-0.28394248,0.34898035,3.1641028,-1898.4063,-3701.7465)"><flowRegion
         id="flowRegion4327-2"
         style="font-style:normal;font-variant:normal;font-weight:normal;font-stretch:normal;font-family:Suruma;-inkscape-font-specification:Suruma"><rect
           id="rect4329-1"
           width="110.97581"
           height="15.861448"
           x="841.07574"
           y="1755.9342"
           style="font-style:normal;font-variant:normal;font-weight:normal;font-stretch:normal;font-family:Suruma;-inkscape-font-specification:Suruma;fill:#221415;fill-opacity:1;stroke:#000000;stroke-width:0.3171955;stroke-miterlimit:4;stroke-dasharray:none;stroke-opacity:1" /></flowRegion><flowPara
         id="flowPara4335-3"
         style="font-style:normal;font-variant:normal;font-weight:normal;font-stretch:normal;font-size:12px;line-height:1.25;font-family:Suruma;-inkscape-font-specification:Suruma;text-align:center;text-anchor:middle;fill:#221415;fill-opacity:1;stroke:#000000;stroke-width:0.3171955;stroke-miterlimit:4;stroke-dasharray:none;stroke-opacity:1">സ്ഥലം</flowPara></flowRoot>    <flowRoot
       xml:space="preserve"
       id="flowRoot4325-9"
       style="font-style:normal;font-variant:normal;font-weight:normal;font-stretch:normal;line-height:0.01%;font-family:Arial;-inkscape-font-specification:Arial;letter-spacing:0px;word-spacing:0px;opacity:0.92000002;fill:#241516;fill-opacity:1;stroke:#000000;stroke-width:0.23315693;stroke-linecap:butt;stroke-linejoin:miter;stroke-miterlimit:4;stroke-dasharray:none;stroke-opacity:1;filter:url(#filter4402)"
       transform="matrix(2.2755893,-0.37150424,0.48189249,3.7639336,-2179.7657,-4708.406)"><flowRegion
         id="flowRegion4327-0"><rect
           id="rect4329-16"
           width="131.93344"
           height="14.722872"
           x="841.07574"
           y="1755.9342"
           style="fill:#241516;fill-opacity:1;stroke:#000000;stroke-width:0.23315693;stroke-miterlimit:4;stroke-dasharray:none;stroke-opacity:1" /></flowRegion><flowPara
         id="flowPara4335-0"
         style="font-style:normal;font-variant:normal;font-weight:normal;font-stretch:normal;font-size:9.98077965px;line-height:1.25;font-family:Suruma;-inkscape-font-specification:Suruma;text-align:center;text-anchor:middle;fill:#241516;fill-opacity:1;stroke:#000000;stroke-width:0.23315693;stroke-miterlimit:4;stroke-dasharray:none;stroke-opacity:1">മന്ത്രവാദിനികളുടെ</flowPara></flowRoot>  </g>
</svg>
