<?xml version="1.0" encoding="UTF-8" standalone="no"?>
<!-- Created with Inkscape (http://www.inkscape.org/) -->

<svg
   xmlns:dc="http://purl.org/dc/elements/1.1/"
   xmlns:cc="http://creativecommons.org/ns#"
   xmlns:rdf="http://www.w3.org/1999/02/22-rdf-syntax-ns#"
   xmlns:svg="http://www.w3.org/2000/svg"
   xmlns="http://www.w3.org/2000/svg"
   xmlns:xlink="http://www.w3.org/1999/xlink"
   xmlns:sodipodi="http://sodipodi.sourceforge.net/DTD/sodipodi-0.dtd"
   xmlns:inkscape="http://www.inkscape.org/namespaces/inkscape"
   id="svg2"
   version="1.1"
   inkscape:version="0.48.5 r10040"
   width="2481"
   height="663"
   sodipodi:docname="Pepper-and-Carrot_by-David-Revoy_E05P00.svg">
  <metadata
     id="metadata8">
    <rdf:RDF>
      <cc:Work
         rdf:about="">
        <dc:format>image/svg+xml</dc:format>
        <dc:type
           rdf:resource="http://purl.org/dc/dcmitype/StillImage" />
        <dc:title />
      </cc:Work>
    </rdf:RDF>
  </metadata>
  <defs
     id="defs6" />
  <sodipodi:namedview
     pagecolor="#ffffff"
     bordercolor="#666666"
     borderopacity="1"
     objecttolerance="10"
     gridtolerance="10"
     guidetolerance="10"
     inkscape:pageopacity="0"
     inkscape:pageshadow="2"
     inkscape:window-width="1918"
     inkscape:window-height="1023"
     id="namedview4"
     showgrid="false"
     inkscape:zoom="0.60944264"
     inkscape:cx="1342.0632"
     inkscape:cy="207.34738"
     inkscape:window-x="2"
     inkscape:window-y="35"
     inkscape:window-maximized="1"
     inkscape:current-layer="layer1" />
  <g
     inkscape:groupmode="layer"
     id="layer2"
     inkscape:label="artwork"
     sodipodi:insensitive="true">
    <image
       sodipodi:absref="/home/deevad/Pepper-and-Carrot/webcomic/2014-12-19_ep05_Special-hollidays/lang/fr/../gfx_Pepper-and-Carrot_by-David-Revoy_E05P00.png"
       xlink:href="../gfx_Pepper-and-Carrot_by-David-Revoy_E05P00.png"
       y="0"
       x="0"
       id="image10"
       height="663"
       width="2481" />
  </g>
  <g
     inkscape:groupmode="layer"
     id="layer1"
     inkscape:label="txt"
     style="display:inline">
    <flowRoot
       xml:space="preserve"
       id="episode-title"
       style="font-size:12px;font-style:normal;font-variant:normal;font-weight:normal;font-stretch:normal;line-height:125%;letter-spacing:0px;word-spacing:0px;fill:#8b9cb1;fill-opacity:1;stroke:none;font-family:Arial;-inkscape-font-specification:Arial"
       transform="translate(-748.4491,-120.8471)"><flowRegion
         id="flowRegion2989"><rect
           id="rect2991"
           width="2405.8"
           height="107.55731"
           x="739.22333"
           y="644.36664"
           style="fill:#8b9cb1;fill-opacity:1" /></flowRegion><flowPara
         id="flowPara2993"
         style="font-size:72px;font-style:normal;font-variant:normal;font-weight:normal;font-stretch:normal;text-align:center;text-anchor:middle;fill:#8b9cb1;fill-opacity:1;font-family:Lavi;-inkscape-font-specification:Lavi">Ĉapitro 5a: Rakontaĵo por la vintraj festoj</flowPara></flowRoot>    <flowRoot
       xml:space="preserve"
       id="flowRoot2996"
       style="font-size:40px;font-style:normal;font-weight:normal;line-height:125%;letter-spacing:0px;word-spacing:0px;fill:#b7c4c8;fill-opacity:1;stroke:none;display:inline;font-family:Sans"
       transform="matrix(1.4459619,0,0,1.3974976,43.037426,33.162547)"><flowRegion
         id="flowRegion2998"><rect
           id="rect3000"
           width="549.01398"
           height="107.30727"
           x="464.16632"
           y="16.660873"
           style="fill:#b7c4c8" /></flowRegion><flowPara
         id="flowPara3002"
         style="font-size:72px;font-style:normal;font-variant:normal;font-weight:normal;font-stretch:normal;fill:#b7c4c8;font-family:Risque;-inkscape-font-specification:Risque">Pipro </flowPara></flowRoot>    <flowRoot
       xml:space="preserve"
       id="flowRoot3012"
       style="font-size:40px;font-style:normal;font-variant:normal;font-weight:normal;font-stretch:normal;line-height:125%;letter-spacing:0px;word-spacing:0px;fill:#b7c4c8;fill-opacity:1;stroke:none;display:inline;font-family:Risque;-inkscape-font-specification:Risque"
       transform="translate(59.892426,-47.414841)"><flowRegion
         id="flowRegion3014"><rect
           id="rect3016"
           width="247.05627"
           height="82.352089"
           x="1140.4517"
           y="178.86954"
           style="font-style:normal;font-variant:normal;font-weight:normal;font-stretch:normal;fill:#b7c4c8;font-family:Risque;-inkscape-font-specification:Risque" /></flowRegion><flowPara
         id="flowPara3018"
         style="font-size:72px;fill:#b7c4c8">kaj</flowPara></flowRoot>    <flowRoot
       xml:space="preserve"
       id="flowRoot3020"
       style="font-size:40px;font-style:normal;font-weight:normal;line-height:125%;letter-spacing:0px;word-spacing:0px;fill:#b7c4c8;fill-opacity:1;stroke:none;display:inline;font-family:Sans"
       transform="matrix(2.5856793,0,0,2.7333209,-2200.856,-277.75816)"><flowRegion
         id="flowRegion3022"><rect
           id="rect3024"
           width="158.68651"
           height="53.440353"
           x="1459.8779"
           y="118.9771"
           style="fill:#b7c4c8" /></flowRegion><flowPara
         id="flowPara3026"
         style="font-size:38.49537658999999934px;font-style:normal;font-variant:normal;font-weight:normal;font-stretch:normal;fill:#b7c4c8;font-family:Risque;-inkscape-font-specification:Risque">Karoĉjo</flowPara></flowRoot>  </g>
</svg>
